%!PS-Adobe-3.0
%%Creator: PCBNEW
%%CreationDate: Wed Dec 08 14:10:00 2021
%%Title: C:\Users\nille\Desktop\UCL\3. semester\PCB\itt3-pcb-casper_nielsen\Kikad_file\Sample_files\Drill_file\Kikad_sheet-NPTH-drl_map.ps
%%Pages: 1
%%PageOrder: Ascend
%%BoundingBox: 0 0 596 842
%%DocumentMedia: A4 595 842 0 () ()
%%Orientation: Landscape
%%EndComments
%%BeginProlog
/line { newpath moveto lineto stroke } bind def
/cir0 { newpath 0 360 arc stroke } bind def
/cir1 { newpath 0 360 arc gsave fill grestore stroke } bind def
/cir2 { newpath 0 360 arc gsave fill grestore stroke } bind def
/arc0 { newpath arc stroke } bind def
/arc1 { newpath 4 index 4 index moveto arc closepath gsave fill
    grestore stroke } bind def
/arc2 { newpath 4 index 4 index moveto arc closepath gsave fill
    grestore stroke } bind def
/poly0 { stroke } bind def
/poly1 { closepath gsave fill grestore stroke } bind def
/poly2 { closepath gsave fill grestore stroke } bind def
/rect0 { rectstroke } bind def
/rect1 { rectfill } bind def
/rect2 { rectfill } bind def
/linemode0 { 0 setlinecap 0 setlinejoin 0 setlinewidth } bind def
/linemode1 { 1 setlinecap 1 setlinejoin } bind def
/dashedline { [200] 100 setdash } bind def
/solidline { [] 0 setdash } bind def
/phantomshow { moveto
    /KicadFont findfont 0.000001 scalefont setfont
    show } bind def
/textshow { gsave
    findfont exch scalefont setfont concat 1 scale 0 0 moveto show
    } bind def
/reencodefont {
  findfont dup length dict begin
  { 1 index /FID ne
    { def }
    { pop pop } ifelse
  } forall
  /Encoding ISOLatin1Encoding def
  currentdict
  end } bind def
/KicadFont /Helvetica reencodefont definefont pop
/KicadFont-Bold /Helvetica-Bold reencodefont definefont pop
/KicadFont-Oblique /Helvetica-Oblique reencodefont definefont pop
/KicadFont-BoldOblique /Helvetica-BoldOblique reencodefont definefont pop
%%EndProlog
%%Page: 1 1
%%BeginPageSetup
gsave
0.0072 0.0072 scale
linemode1
82680 0 translate 90 rotate
90.4474 setlinewidth
%%EndPageSetup
0 0 0 setrgbcolor
71.2184 setlinewidth
37811.7 39537.3 2492.64 180 270 arc0
0 0 0 setrgbcolor
37811.7 76214.7 2492.64 90 180 arc0
0 0 0 setrgbcolor
79118.3 76214.7 2492.64 -0 90 arc0
0 0 0 setrgbcolor
79118.3 39537.3 2492.64 -90 -0 arc0
0 0 0 setrgbcolor
newpath
37811.7 78707.4 moveto
79118.3 78707.4 lineto
stroke
0 0 0 setrgbcolor
newpath
35319 39537.3 moveto
35319 76214.7 lineto
stroke
0 0 0 setrgbcolor
newpath
79118.3 37044.6 moveto
37811.7 37044.6 lineto
stroke
0 0 0 setrgbcolor
newpath
81611 76214.7 moveto
81611 39537.3 lineto
stroke
78.7398 setlinewidth
118.11 setlinewidth
0 0 0 setrgbcolor
0 0 0 setrgbcolor
newpath
36411.1 35175.5 moveto
36411.1 36356.6 lineto
36692.3 36356.6 lineto
36861 36300.3 lineto
36973.5 36187.9 lineto
37029.8 36075.4 lineto
37086 35850.4 lineto
37086 35681.7 lineto
37029.8 35456.7 lineto
36973.5 35344.2 lineto
36861 35231.7 lineto
36692.3 35175.5 lineto
36411.1 35175.5 lineto
stroke
newpath
37592.2 35175.5 moveto
37592.2 35962.9 lineto
stroke
newpath
37592.2 35737.9 moveto
37648.4 35850.4 lineto
37704.7 35906.6 lineto
37817.2 35962.9 lineto
37929.6 35962.9 lineto
stroke
newpath
38323.3 35175.5 moveto
38323.3 35962.9 lineto
stroke
newpath
38323.3 36356.6 moveto
38267.1 36300.3 lineto
38323.3 36244.1 lineto
38379.6 36300.3 lineto
38323.3 36356.6 lineto
38323.3 36244.1 lineto
stroke
newpath
39054.5 35175.5 moveto
38942 35231.7 lineto
38885.8 35344.2 lineto
38885.8 36356.6 lineto
stroke
newpath
39673.2 35175.5 moveto
39560.7 35231.7 lineto
39504.4 35344.2 lineto
39504.4 36356.6 lineto
stroke
newpath
41023 35175.5 moveto
41023 36356.6 lineto
41416.7 35512.9 lineto
41810.4 36356.6 lineto
41810.4 35175.5 lineto
stroke
newpath
42879 35175.5 moveto
42879 35794.2 lineto
42822.8 35906.6 lineto
42710.3 35962.9 lineto
42485.3 35962.9 lineto
42372.8 35906.6 lineto
stroke
newpath
42879 35231.7 moveto
42766.5 35175.5 lineto
42485.3 35175.5 lineto
42372.8 35231.7 lineto
42316.6 35344.2 lineto
42316.6 35456.7 lineto
42372.8 35569.2 lineto
42485.3 35625.4 lineto
42766.5 35625.4 lineto
42879 35681.7 lineto
stroke
newpath
43441.5 35962.9 moveto
43441.5 34781.8 lineto
stroke
newpath
43441.5 35906.6 moveto
43553.9 35962.9 lineto
43778.9 35962.9 lineto
43891.4 35906.6 lineto
43947.6 35850.4 lineto
44003.9 35737.9 lineto
44003.9 35400.5 lineto
43947.6 35288 lineto
43891.4 35231.7 lineto
43778.9 35175.5 lineto
43553.9 35175.5 lineto
43441.5 35231.7 lineto
stroke
newpath
44510.1 35288 moveto
44566.3 35231.7 lineto
44510.1 35175.5 lineto
44453.8 35231.7 lineto
44510.1 35288 lineto
44510.1 35175.5 lineto
stroke
newpath
44510.1 35906.6 moveto
44566.3 35850.4 lineto
44510.1 35794.2 lineto
44453.8 35850.4 lineto
44510.1 35906.6 lineto
44510.1 35794.2 lineto
stroke
showpage
grestore
%%EOF
