%!PS-Adobe-3.0
%%Creator: PCBNEW
%%CreationDate: Wed Dec 08 14:10:00 2021
%%Title: C:\Users\nille\Desktop\UCL\3. semester\PCB\itt3-pcb-casper_nielsen\Kikad_file\Sample_files\Drill_file\Kikad_sheet-PTH-drl_map.ps
%%Pages: 1
%%PageOrder: Ascend
%%BoundingBox: 0 0 596 842
%%DocumentMedia: A4 595 842 0 () ()
%%Orientation: Landscape
%%EndComments
%%BeginProlog
/line { newpath moveto lineto stroke } bind def
/cir0 { newpath 0 360 arc stroke } bind def
/cir1 { newpath 0 360 arc gsave fill grestore stroke } bind def
/cir2 { newpath 0 360 arc gsave fill grestore stroke } bind def
/arc0 { newpath arc stroke } bind def
/arc1 { newpath 4 index 4 index moveto arc closepath gsave fill
    grestore stroke } bind def
/arc2 { newpath 4 index 4 index moveto arc closepath gsave fill
    grestore stroke } bind def
/poly0 { stroke } bind def
/poly1 { closepath gsave fill grestore stroke } bind def
/poly2 { closepath gsave fill grestore stroke } bind def
/rect0 { rectstroke } bind def
/rect1 { rectfill } bind def
/rect2 { rectfill } bind def
/linemode0 { 0 setlinecap 0 setlinejoin 0 setlinewidth } bind def
/linemode1 { 1 setlinecap 1 setlinejoin } bind def
/dashedline { [200] 100 setdash } bind def
/solidline { [] 0 setdash } bind def
/phantomshow { moveto
    /KicadFont findfont 0.000001 scalefont setfont
    show } bind def
/textshow { gsave
    findfont exch scalefont setfont concat 1 scale 0 0 moveto show
    } bind def
/reencodefont {
  findfont dup length dict begin
  { 1 index /FID ne
    { def }
    { pop pop } ifelse
  } forall
  /Encoding ISOLatin1Encoding def
  currentdict
  end } bind def
/KicadFont /Helvetica reencodefont definefont pop
/KicadFont-Bold /Helvetica-Bold reencodefont definefont pop
/KicadFont-Oblique /Helvetica-Oblique reencodefont definefont pop
/KicadFont-BoldOblique /Helvetica-BoldOblique reencodefont definefont pop
%%EndProlog
%%Page: 1 1
%%BeginPageSetup
gsave
0.0072 0.0072 scale
linemode1
82680 0 translate 90 rotate
90.4474 setlinewidth
%%EndPageSetup
0 0 0 setrgbcolor
71.2184 setlinewidth
37811.7 39537.3 2492.64 180 270 arc0
0 0 0 setrgbcolor
37811.7 76214.7 2492.64 90 180 arc0
0 0 0 setrgbcolor
79118.3 76214.7 2492.64 -0 90 arc0
0 0 0 setrgbcolor
79118.3 39537.3 2492.64 -90 -0 arc0
0 0 0 setrgbcolor
newpath
37811.7 78707.4 moveto
79118.3 78707.4 lineto
stroke
0 0 0 setrgbcolor
newpath
35319 39537.3 moveto
35319 76214.7 lineto
stroke
0 0 0 setrgbcolor
newpath
79118.3 37044.6 moveto
37811.7 37044.6 lineto
stroke
0 0 0 setrgbcolor
newpath
81611 76214.7 moveto
81611 39537.3 lineto
stroke
78.7398 setlinewidth
newpath
38381.4 62825.7 moveto
38666.3 62540.8 lineto
stroke
newpath
38666.3 62825.7 moveto
38381.4 62540.8 lineto
stroke
newpath
38737.5 68167.1 moveto
39022.4 67882.2 lineto
stroke
newpath
39022.4 68167.1 moveto
38737.5 67882.2 lineto
stroke
newpath
38915.5 58018.4 moveto
39200.4 57733.6 lineto
stroke
newpath
39200.4 58018.4 moveto
38915.5 57733.6 lineto
stroke
newpath
41230.1 68167.1 moveto
41515 67882.2 lineto
stroke
newpath
41515 68167.1 moveto
41230.1 67882.2 lineto
stroke
newpath
41230.1 62825.7 moveto
41515 62540.8 lineto
stroke
newpath
41515 62825.7 moveto
41230.1 62540.8 lineto
stroke
newpath
43010.6 69591.4 moveto
43295.5 69306.6 lineto
stroke
newpath
43295.5 69591.4 moveto
43010.6 69306.6 lineto
stroke
newpath
44445.7 72073.4 moveto
44730.5 71788.5 lineto
stroke
newpath
44730.5 72073.4 moveto
44445.7 71788.5 lineto
stroke
newpath
44445.7 66019.8 moveto
44730.5 65735 lineto
stroke
newpath
44730.5 66019.8 moveto
44445.7 65735 lineto
stroke
newpath
44445.7 60678.4 moveto
44730.5 60393.6 lineto
stroke
newpath
44730.5 60678.4 moveto
44445.7 60393.6 lineto
stroke
newpath
46589.3 38985.3 moveto
46874.2 38700.4 lineto
stroke
newpath
46874.2 38985.3 moveto
46589.3 38700.4 lineto
stroke
newpath
48708.1 72084.1 moveto
48993 71799.2 lineto
stroke
newpath
48993 72084.1 moveto
48708.1 71799.2 lineto
stroke
newpath
49064.2 46801.5 moveto
49349 46516.7 lineto
stroke
newpath
49349 46801.5 moveto
49064.2 46516.7 lineto
stroke
newpath
49776.4 72084.1 moveto
50061.2 71799.2 lineto
stroke
newpath
50061.2 72084.1 moveto
49776.4 71799.2 lineto
stroke
newpath
50844.6 66386.6 moveto
51129.5 66101.7 lineto
stroke
newpath
51129.5 66386.6 moveto
50844.6 66101.7 lineto
stroke
newpath
51556.8 67098.8 moveto
51841.7 66813.9 lineto
stroke
newpath
51841.7 67098.8 moveto
51556.8 66813.9 lineto
stroke
newpath
52625.1 46089.4 moveto
52910 45804.5 lineto
stroke
newpath
52910 46089.4 moveto
52625.1 45804.5 lineto
stroke
newpath
53355.1 38985.3 moveto
53640 38700.4 lineto
stroke
newpath
53640 38985.3 moveto
53355.1 38700.4 lineto
stroke
newpath
58856.7 45911.3 moveto
59141.6 45626.4 lineto
stroke
newpath
59141.6 45911.3 moveto
58856.7 45626.4 lineto
stroke
newpath
59764.7 38985.3 moveto
60049.6 38700.4 lineto
stroke
newpath
60049.6 38985.3 moveto
59764.7 38700.4 lineto
stroke
newpath
62969.6 38985.3 moveto
63254.4 38700.4 lineto
stroke
newpath
63254.4 38985.3 moveto
62969.6 38700.4 lineto
stroke
newpath
65444.4 46089.4 moveto
65729.3 45804.5 lineto
stroke
newpath
65729.3 46089.4 moveto
65444.4 45804.5 lineto
stroke
newpath
70091.4 38985.3 moveto
70376.3 38700.4 lineto
stroke
newpath
70376.3 38985.3 moveto
70091.4 38700.4 lineto
stroke
newpath
72427.4 45950.5 moveto
72712.2 45665.6 lineto
stroke
newpath
72712.2 45950.5 moveto
72427.4 45665.6 lineto
stroke
39236 52712.7 284.874 cir0
41045 49094.8 284.874 cir0
42853.9 52712.7 284.874 cir0
newpath
51699.3 71229.4 moveto
51699.3 70517.3 lineto
stroke
newpath
51343.2 70873.4 moveto
52055.3 70873.4 lineto
stroke
newpath
53508.2 71229.4 moveto
53508.2 70517.3 lineto
stroke
newpath
53152.1 70873.4 moveto
53864.3 70873.4 lineto
stroke
newpath
55317.1 71229.4 moveto
55317.1 70517.3 lineto
stroke
newpath
54961.1 70873.4 moveto
55673.2 70873.4 lineto
stroke
newpath
57126.1 71229.4 moveto
57126.1 70517.3 lineto
stroke
newpath
56770 70873.4 moveto
57482.2 70873.4 lineto
stroke
newpath
58935 71229.4 moveto
58935 70517.3 lineto
stroke
newpath
58578.9 70873.4 moveto
59291.1 70873.4 lineto
stroke
newpath
60744 71229.4 moveto
60744 70517.3 lineto
stroke
newpath
60387.9 70873.4 moveto
61100.1 70873.4 lineto
stroke
newpath
62552.9 71229.4 moveto
62552.9 70517.3 lineto
stroke
newpath
62196.8 70873.4 moveto
62909 70873.4 lineto
stroke
newpath
64361.9 71229.4 moveto
64361.9 70517.3 lineto
stroke
newpath
64005.8 70873.4 moveto
64718 70873.4 lineto
stroke
newpath
66170.8 71229.4 moveto
66170.8 70517.3 lineto
stroke
newpath
65814.7 70873.4 moveto
66526.9 70873.4 lineto
stroke
newpath
67979.8 71229.4 moveto
67979.8 70517.3 lineto
stroke
newpath
67623.7 70873.4 moveto
68335.9 70873.4 lineto
stroke
newpath
69788.7 71229.4 moveto
69788.7 70517.3 lineto
stroke
newpath
69432.6 70873.4 moveto
70144.8 70873.4 lineto
stroke
newpath
71597.7 71229.4 moveto
71597.7 70517.3 lineto
stroke
newpath
71241.6 70873.4 moveto
71953.8 70873.4 lineto
stroke
newpath
73406.6 71229.4 moveto
73406.6 70517.3 lineto
stroke
newpath
73050.5 70873.4 moveto
73762.7 70873.4 lineto
stroke
newpath
75215.6 71229.4 moveto
75215.6 70517.3 lineto
stroke
newpath
74859.5 70873.4 moveto
75571.7 70873.4 lineto
stroke
newpath
77024.5 71229.4 moveto
77024.5 70517.3 lineto
stroke
newpath
76668.4 70873.4 moveto
77380.6 70873.4 lineto
stroke
newpath
78833.5 71229.4 moveto
78833.5 70517.3 lineto
stroke
newpath
78477.4 70873.4 moveto
79189.6 70873.4 lineto
stroke
newpath
41372.6 77667.6 moveto
41372.6 76955.4 lineto
stroke
newpath
41016.5 77311.5 moveto
41728.7 77311.5 lineto
stroke
newpath
41372.6 75858.6 moveto
41372.6 75146.5 lineto
stroke
newpath
41016.5 75502.6 moveto
41728.7 75502.6 lineto
stroke
newpath
43181.5 77667.6 moveto
43181.5 76955.4 lineto
stroke
newpath
42825.4 77311.5 moveto
43537.6 77311.5 lineto
stroke
newpath
43181.5 75858.6 moveto
43181.5 75146.5 lineto
stroke
newpath
42825.4 75502.6 moveto
43537.6 75502.6 lineto
stroke
newpath
44990.5 77667.6 moveto
44990.5 76955.4 lineto
stroke
newpath
44634.4 77311.5 moveto
45346.6 77311.5 lineto
stroke
newpath
44990.5 75858.6 moveto
44990.5 75146.5 lineto
stroke
newpath
44634.4 75502.6 moveto
45346.6 75502.6 lineto
stroke
newpath
46799.4 77667.6 moveto
46799.4 76955.4 lineto
stroke
newpath
46443.3 77311.5 moveto
47155.5 77311.5 lineto
stroke
newpath
46799.4 75858.6 moveto
46799.4 75146.5 lineto
stroke
newpath
46443.3 75502.6 moveto
47155.5 75502.6 lineto
stroke
newpath
48608.4 77667.6 moveto
48608.4 76955.4 lineto
stroke
newpath
48252.3 77311.5 moveto
48964.5 77311.5 lineto
stroke
newpath
48608.4 75858.6 moveto
48608.4 75146.5 lineto
stroke
newpath
48252.3 75502.6 moveto
48964.5 75502.6 lineto
stroke
newpath
50417.3 77667.6 moveto
50417.3 76955.4 lineto
stroke
newpath
50061.2 77311.5 moveto
50773.4 77311.5 lineto
stroke
newpath
50417.3 75858.6 moveto
50417.3 75146.5 lineto
stroke
newpath
50061.2 75502.6 moveto
50773.4 75502.6 lineto
stroke
newpath
52226.3 77667.6 moveto
52226.3 76955.4 lineto
stroke
newpath
51870.2 77311.5 moveto
52582.4 77311.5 lineto
stroke
newpath
52226.3 75858.6 moveto
52226.3 75146.5 lineto
stroke
newpath
51870.2 75502.6 moveto
52582.4 75502.6 lineto
stroke
newpath
54035.2 77667.6 moveto
54035.2 76955.4 lineto
stroke
newpath
53679.1 77311.5 moveto
54391.3 77311.5 lineto
stroke
newpath
54035.2 75858.6 moveto
54035.2 75146.5 lineto
stroke
newpath
53679.1 75502.6 moveto
54391.3 75502.6 lineto
stroke
newpath
55844.2 77667.6 moveto
55844.2 76955.4 lineto
stroke
newpath
55488.1 77311.5 moveto
56200.3 77311.5 lineto
stroke
newpath
55844.2 75858.6 moveto
55844.2 75146.5 lineto
stroke
newpath
55488.1 75502.6 moveto
56200.3 75502.6 lineto
stroke
newpath
57653.1 77667.6 moveto
57653.1 76955.4 lineto
stroke
newpath
57297 77311.5 moveto
58009.2 77311.5 lineto
stroke
newpath
57653.1 75858.6 moveto
57653.1 75146.5 lineto
stroke
newpath
57297 75502.6 moveto
58009.2 75502.6 lineto
stroke
newpath
59462.1 77667.6 moveto
59462.1 76955.4 lineto
stroke
newpath
59106 77311.5 moveto
59818.1 77311.5 lineto
stroke
newpath
59462.1 75858.6 moveto
59462.1 75146.5 lineto
stroke
newpath
59106 75502.6 moveto
59818.1 75502.6 lineto
stroke
newpath
61271 77667.6 moveto
61271 76955.4 lineto
stroke
newpath
60914.9 77311.5 moveto
61627.1 77311.5 lineto
stroke
newpath
61271 75858.6 moveto
61271 75146.5 lineto
stroke
newpath
60914.9 75502.6 moveto
61627.1 75502.6 lineto
stroke
newpath
63080 77667.6 moveto
63080 76955.4 lineto
stroke
newpath
62723.9 77311.5 moveto
63436 77311.5 lineto
stroke
newpath
63080 75858.6 moveto
63080 75146.5 lineto
stroke
newpath
62723.9 75502.6 moveto
63436 75502.6 lineto
stroke
newpath
64888.9 77667.6 moveto
64888.9 76955.4 lineto
stroke
newpath
64532.8 77311.5 moveto
65245 77311.5 lineto
stroke
newpath
64888.9 75858.6 moveto
64888.9 75146.5 lineto
stroke
newpath
64532.8 75502.6 moveto
65245 75502.6 lineto
stroke
newpath
66697.8 77667.6 moveto
66697.8 76955.4 lineto
stroke
newpath
66341.8 77311.5 moveto
67053.9 77311.5 lineto
stroke
newpath
66697.8 75858.6 moveto
66697.8 75146.5 lineto
stroke
newpath
66341.8 75502.6 moveto
67053.9 75502.6 lineto
stroke
newpath
68506.8 77667.6 moveto
68506.8 76955.4 lineto
stroke
newpath
68150.7 77311.5 moveto
68862.9 77311.5 lineto
stroke
newpath
68506.8 75858.6 moveto
68506.8 75146.5 lineto
stroke
newpath
68150.7 75502.6 moveto
68862.9 75502.6 lineto
stroke
newpath
70315.7 77667.6 moveto
70315.7 76955.4 lineto
stroke
newpath
69959.6 77311.5 moveto
70671.8 77311.5 lineto
stroke
newpath
70315.7 75858.6 moveto
70315.7 75146.5 lineto
stroke
newpath
69959.6 75502.6 moveto
70671.8 75502.6 lineto
stroke
newpath
72124.7 77667.6 moveto
72124.7 76955.4 lineto
stroke
newpath
71768.6 77311.5 moveto
72480.8 77311.5 lineto
stroke
newpath
72124.7 75858.6 moveto
72124.7 75146.5 lineto
stroke
newpath
71768.6 75502.6 moveto
72480.8 75502.6 lineto
stroke
newpath
73933.6 77667.6 moveto
73933.6 76955.4 lineto
stroke
newpath
73577.5 77311.5 moveto
74289.7 77311.5 lineto
stroke
newpath
73933.6 75858.6 moveto
73933.6 75146.5 lineto
stroke
newpath
73577.5 75502.6 moveto
74289.7 75502.6 lineto
stroke
newpath
75742.6 77667.6 moveto
75742.6 76955.4 lineto
stroke
newpath
75386.5 77311.5 moveto
76098.7 77311.5 lineto
stroke
newpath
75742.6 75858.6 moveto
75742.6 75146.5 lineto
stroke
newpath
75386.5 75502.6 moveto
76098.7 75502.6 lineto
stroke
newpath
79798.2 75534.9 moveto
79798.2 76894.6 lineto
78438.5 76894.6 lineto
78438.5 75534.9 lineto
79798.2 75534.9 lineto
poly0
newpath
38491.5 75534.9 moveto
38491.5 76894.6 lineto
37131.8 76894.6 lineto
37131.8 75534.9 lineto
38491.5 75534.9 lineto
poly0
newpath
38491.5 38857.4 moveto
38491.5 40217.1 lineto
37131.8 40217.1 lineto
37131.8 38857.4 lineto
38491.5 38857.4 lineto
poly0
newpath
79798.2 38857.4 moveto
79798.2 40217.1 lineto
78438.5 40217.1 lineto
78438.5 38857.4 lineto
79798.2 38857.4 lineto
poly0
118.11 setlinewidth
0 0 0 setrgbcolor
0 0 0 setrgbcolor
newpath
36411.1 35175.5 moveto
36411.1 36356.6 lineto
36692.3 36356.6 lineto
36861 36300.3 lineto
36973.5 36187.9 lineto
37029.8 36075.4 lineto
37086 35850.4 lineto
37086 35681.7 lineto
37029.8 35456.7 lineto
36973.5 35344.2 lineto
36861 35231.7 lineto
36692.3 35175.5 lineto
36411.1 35175.5 lineto
stroke
newpath
37592.2 35175.5 moveto
37592.2 35962.9 lineto
stroke
newpath
37592.2 35737.9 moveto
37648.4 35850.4 lineto
37704.7 35906.6 lineto
37817.2 35962.9 lineto
37929.6 35962.9 lineto
stroke
newpath
38323.3 35175.5 moveto
38323.3 35962.9 lineto
stroke
newpath
38323.3 36356.6 moveto
38267.1 36300.3 lineto
38323.3 36244.1 lineto
38379.6 36300.3 lineto
38323.3 36356.6 lineto
38323.3 36244.1 lineto
stroke
newpath
39054.5 35175.5 moveto
38942 35231.7 lineto
38885.8 35344.2 lineto
38885.8 36356.6 lineto
stroke
newpath
39673.2 35175.5 moveto
39560.7 35231.7 lineto
39504.4 35344.2 lineto
39504.4 36356.6 lineto
stroke
newpath
41023 35175.5 moveto
41023 36356.6 lineto
41416.7 35512.9 lineto
41810.4 36356.6 lineto
41810.4 35175.5 lineto
stroke
newpath
42879 35175.5 moveto
42879 35794.2 lineto
42822.8 35906.6 lineto
42710.3 35962.9 lineto
42485.3 35962.9 lineto
42372.8 35906.6 lineto
stroke
newpath
42879 35231.7 moveto
42766.5 35175.5 lineto
42485.3 35175.5 lineto
42372.8 35231.7 lineto
42316.6 35344.2 lineto
42316.6 35456.7 lineto
42372.8 35569.2 lineto
42485.3 35625.4 lineto
42766.5 35625.4 lineto
42879 35681.7 lineto
stroke
newpath
43441.5 35962.9 moveto
43441.5 34781.8 lineto
stroke
newpath
43441.5 35906.6 moveto
43553.9 35962.9 lineto
43778.9 35962.9 lineto
43891.4 35906.6 lineto
43947.6 35850.4 lineto
44003.9 35737.9 lineto
44003.9 35400.5 lineto
43947.6 35288 lineto
43891.4 35231.7 lineto
43778.9 35175.5 lineto
43553.9 35175.5 lineto
43441.5 35231.7 lineto
stroke
newpath
44510.1 35288 moveto
44566.3 35231.7 lineto
44510.1 35175.5 lineto
44453.8 35231.7 lineto
44510.1 35288 lineto
44510.1 35175.5 lineto
stroke
newpath
44510.1 35906.6 moveto
44566.3 35850.4 lineto
44510.1 35794.2 lineto
44453.8 35850.4 lineto
44510.1 35906.6 lineto
44510.1 35794.2 lineto
stroke
newpath
34998.5 33371.9 moveto
35283.4 33087 lineto
stroke
newpath
35283.4 33371.9 moveto
34998.5 33087 lineto
stroke
0 0 0 setrgbcolor
0 0 0 setrgbcolor
newpath
36636.1 33876.3 moveto
36748.5 33876.3 lineto
36861 33820 lineto
36917.3 33763.8 lineto
36973.5 33651.3 lineto
37029.8 33426.3 lineto
37029.8 33145.1 lineto
36973.5 32920.1 lineto
36917.3 32807.7 lineto
36861 32751.4 lineto
36748.5 32695.2 lineto
36636.1 32695.2 lineto
36523.6 32751.4 lineto
36467.3 32807.7 lineto
36411.1 32920.1 lineto
36354.8 33145.1 lineto
36354.8 33426.3 lineto
36411.1 33651.3 lineto
36467.3 33763.8 lineto
36523.6 33820 lineto
36636.1 33876.3 lineto
stroke
newpath
37535.9 32807.7 moveto
37592.2 32751.4 lineto
37535.9 32695.2 lineto
37479.7 32751.4 lineto
37535.9 32807.7 lineto
37535.9 32695.2 lineto
stroke
newpath
38604.6 33482.6 moveto
38604.6 32695.2 lineto
stroke
newpath
38323.3 33932.5 moveto
38042.1 33088.9 lineto
38773.3 33088.9 lineto
stroke
newpath
39448.2 33876.3 moveto
39560.7 33876.3 lineto
39673.2 33820 lineto
39729.4 33763.8 lineto
39785.7 33651.3 lineto
39841.9 33426.3 lineto
39841.9 33145.1 lineto
39785.7 32920.1 lineto
39729.4 32807.7 lineto
39673.2 32751.4 lineto
39560.7 32695.2 lineto
39448.2 32695.2 lineto
39335.7 32751.4 lineto
39279.5 32807.7 lineto
39223.2 32920.1 lineto
39167 33145.1 lineto
39167 33426.3 lineto
39223.2 33651.3 lineto
39279.5 33763.8 lineto
39335.7 33820 lineto
39448.2 33876.3 lineto
stroke
newpath
40348.1 32695.2 moveto
40348.1 33482.6 lineto
stroke
newpath
40348.1 33370.1 moveto
40404.3 33426.3 lineto
40516.8 33482.6 lineto
40685.5 33482.6 lineto
40798 33426.3 lineto
40854.3 33313.8 lineto
40854.3 32695.2 lineto
stroke
newpath
40854.3 33313.8 moveto
40910.5 33426.3 lineto
41023 33482.6 lineto
41191.7 33482.6 lineto
41304.2 33426.3 lineto
41360.5 33313.8 lineto
41360.5 32695.2 lineto
stroke
newpath
41922.9 32695.2 moveto
41922.9 33482.6 lineto
stroke
newpath
41922.9 33370.1 moveto
41979.1 33426.3 lineto
42091.6 33482.6 lineto
42260.3 33482.6 lineto
42372.8 33426.3 lineto
42429.1 33313.8 lineto
42429.1 32695.2 lineto
stroke
newpath
42429.1 33313.8 moveto
42485.3 33426.3 lineto
42597.8 33482.6 lineto
42766.5 33482.6 lineto
42879 33426.3 lineto
42935.3 33313.8 lineto
42935.3 32695.2 lineto
stroke
newpath
45241.2 33932.5 moveto
44228.9 32414 lineto
stroke
newpath
46759.8 33876.3 moveto
46872.3 33876.3 lineto
46984.8 33820 lineto
47041 33763.8 lineto
47097.2 33651.3 lineto
47153.5 33426.3 lineto
47153.5 33145.1 lineto
47097.2 32920.1 lineto
47041 32807.7 lineto
46984.8 32751.4 lineto
46872.3 32695.2 lineto
46759.8 32695.2 lineto
46647.3 32751.4 lineto
46591.1 32807.7 lineto
46534.8 32920.1 lineto
46478.6 33145.1 lineto
46478.6 33426.3 lineto
46534.8 33651.3 lineto
46591.1 33763.8 lineto
46647.3 33820 lineto
46759.8 33876.3 lineto
stroke
newpath
47659.7 32807.7 moveto
47715.9 32751.4 lineto
47659.7 32695.2 lineto
47603.4 32751.4 lineto
47659.7 32807.7 lineto
47659.7 32695.2 lineto
stroke
newpath
48447.1 33876.3 moveto
48559.6 33876.3 lineto
48672 33820 lineto
48728.3 33763.8 lineto
48784.5 33651.3 lineto
48840.8 33426.3 lineto
48840.8 33145.1 lineto
48784.5 32920.1 lineto
48728.3 32807.7 lineto
48672 32751.4 lineto
48559.6 32695.2 lineto
48447.1 32695.2 lineto
48334.6 32751.4 lineto
48278.3 32807.7 lineto
48222.1 32920.1 lineto
48165.9 33145.1 lineto
48165.9 33426.3 lineto
48222.1 33651.3 lineto
48278.3 33763.8 lineto
48334.6 33820 lineto
48447.1 33876.3 lineto
stroke
newpath
49965.6 32695.2 moveto
49290.7 32695.2 lineto
stroke
newpath
49628.2 32695.2 moveto
49628.2 33876.3 lineto
49515.7 33707.5 lineto
49403.2 33595.1 lineto
49290.7 33538.8 lineto
stroke
newpath
50978 33876.3 moveto
50753 33876.3 lineto
50640.6 33820 lineto
50584.3 33763.8 lineto
50471.8 33595.1 lineto
50415.6 33370.1 lineto
50415.6 32920.1 lineto
50471.8 32807.7 lineto
50528.1 32751.4 lineto
50640.6 32695.2 lineto
50865.5 32695.2 lineto
50978 32751.4 lineto
51034.3 32807.7 lineto
51090.5 32920.1 lineto
51090.5 33201.4 lineto
51034.3 33313.8 lineto
50978 33370.1 lineto
50865.5 33426.3 lineto
50640.6 33426.3 lineto
50528.1 33370.1 lineto
50471.8 33313.8 lineto
50415.6 33201.4 lineto
stroke
newpath
51540.4 33876.3 moveto
51540.4 33651.3 lineto
stroke
newpath
51990.4 33876.3 moveto
51990.4 33651.3 lineto
stroke
newpath
53733.9 32245.2 moveto
53677.7 32301.5 lineto
53565.2 32470.2 lineto
53508.9 32582.7 lineto
53452.7 32751.4 lineto
53396.5 33032.6 lineto
53396.5 33257.6 lineto
53452.7 33538.8 lineto
53508.9 33707.5 lineto
53565.2 33820 lineto
53677.7 33988.8 lineto
53733.9 34045 lineto
stroke
newpath
54127.6 33763.8 moveto
54183.9 33820 lineto
54296.3 33876.3 lineto
54577.6 33876.3 lineto
54690 33820 lineto
54746.3 33763.8 lineto
54802.5 33651.3 lineto
54802.5 33538.8 lineto
54746.3 33370.1 lineto
54071.4 32695.2 lineto
54802.5 32695.2 lineto
stroke
newpath
55196.2 33876.3 moveto
55927.4 33876.3 lineto
55533.7 33426.3 lineto
55702.4 33426.3 lineto
55814.9 33370.1 lineto
55871.1 33313.8 lineto
55927.4 33201.4 lineto
55927.4 32920.1 lineto
55871.1 32807.7 lineto
55814.9 32751.4 lineto
55702.4 32695.2 lineto
55365 32695.2 lineto
55252.5 32751.4 lineto
55196.2 32807.7 lineto
stroke
newpath
57333.5 32695.2 moveto
57333.5 33876.3 lineto
stroke
newpath
57839.7 32695.2 moveto
57839.7 33313.8 lineto
57783.4 33426.3 lineto
57670.9 33482.6 lineto
57502.2 33482.6 lineto
57389.7 33426.3 lineto
57333.5 33370.1 lineto
stroke
newpath
58570.8 32695.2 moveto
58458.3 32751.4 lineto
58402.1 32807.7 lineto
58345.8 32920.1 lineto
58345.8 33257.6 lineto
58402.1 33370.1 lineto
58458.3 33426.3 lineto
58570.8 33482.6 lineto
58739.5 33482.6 lineto
58852 33426.3 lineto
58908.3 33370.1 lineto
58964.5 33257.6 lineto
58964.5 32920.1 lineto
58908.3 32807.7 lineto
58852 32751.4 lineto
58739.5 32695.2 lineto
58570.8 32695.2 lineto
stroke
newpath
59639.4 32695.2 moveto
59526.9 32751.4 lineto
59470.7 32863.9 lineto
59470.7 33876.3 lineto
stroke
newpath
60539.3 32751.4 moveto
60426.8 32695.2 lineto
60201.9 32695.2 lineto
60089.4 32751.4 lineto
60033.1 32863.9 lineto
60033.1 33313.8 lineto
60089.4 33426.3 lineto
60201.9 33482.6 lineto
60426.8 33482.6 lineto
60539.3 33426.3 lineto
60595.6 33313.8 lineto
60595.6 33201.4 lineto
60033.1 33088.9 lineto
stroke
newpath
61045.5 32751.4 moveto
61158 32695.2 lineto
61383 32695.2 lineto
61495.4 32751.4 lineto
61551.7 32863.9 lineto
61551.7 32920.1 lineto
61495.4 33032.6 lineto
61383 33088.9 lineto
61214.2 33088.9 lineto
61101.7 33145.1 lineto
61045.5 33257.6 lineto
61045.5 33313.8 lineto
61101.7 33426.3 lineto
61214.2 33482.6 lineto
61383 33482.6 lineto
61495.4 33426.3 lineto
stroke
newpath
61945.4 32245.2 moveto
62001.6 32301.5 lineto
62114.1 32470.2 lineto
62170.4 32582.7 lineto
62226.6 32751.4 lineto
62282.8 33032.6 lineto
62282.8 33257.6 lineto
62226.6 33538.8 lineto
62170.4 33707.5 lineto
62114.1 33820 lineto
62001.6 33988.8 lineto
61945.4 34045 lineto
stroke
34998.5 31670.4 284.874 cir0
0 0 0 setrgbcolor
0 0 0 setrgbcolor
newpath
36636.1 32317.2 moveto
36748.5 32317.2 lineto
36861 32261 lineto
36917.3 32204.7 lineto
36973.5 32092.2 lineto
37029.8 31867.3 lineto
37029.8 31586.1 lineto
36973.5 31361.1 lineto
36917.3 31248.6 lineto
36861 31192.4 lineto
36748.5 31136.1 lineto
36636.1 31136.1 lineto
36523.6 31192.4 lineto
36467.3 31248.6 lineto
36411.1 31361.1 lineto
36354.8 31586.1 lineto
36354.8 31867.3 lineto
36411.1 32092.2 lineto
36467.3 32204.7 lineto
36523.6 32261 lineto
36636.1 32317.2 lineto
stroke
newpath
37535.9 31248.6 moveto
37592.2 31192.4 lineto
37535.9 31136.1 lineto
37479.7 31192.4 lineto
37535.9 31248.6 lineto
37535.9 31136.1 lineto
stroke
newpath
38267.1 31811 moveto
38154.6 31867.3 lineto
38098.4 31923.5 lineto
38042.1 32036 lineto
38042.1 32092.2 lineto
38098.4 32204.7 lineto
38154.6 32261 lineto
38267.1 32317.2 lineto
38492.1 32317.2 lineto
38604.6 32261 lineto
38660.8 32204.7 lineto
38717 32092.2 lineto
38717 32036 lineto
38660.8 31923.5 lineto
38604.6 31867.3 lineto
38492.1 31811 lineto
38267.1 31811 lineto
38154.6 31754.8 lineto
38098.4 31698.5 lineto
38042.1 31586.1 lineto
38042.1 31361.1 lineto
38098.4 31248.6 lineto
38154.6 31192.4 lineto
38267.1 31136.1 lineto
38492.1 31136.1 lineto
38604.6 31192.4 lineto
38660.8 31248.6 lineto
38717 31361.1 lineto
38717 31586.1 lineto
38660.8 31698.5 lineto
38604.6 31754.8 lineto
38492.1 31811 lineto
stroke
newpath
39448.2 32317.2 moveto
39560.7 32317.2 lineto
39673.2 32261 lineto
39729.4 32204.7 lineto
39785.7 32092.2 lineto
39841.9 31867.3 lineto
39841.9 31586.1 lineto
39785.7 31361.1 lineto
39729.4 31248.6 lineto
39673.2 31192.4 lineto
39560.7 31136.1 lineto
39448.2 31136.1 lineto
39335.7 31192.4 lineto
39279.5 31248.6 lineto
39223.2 31361.1 lineto
39167 31586.1 lineto
39167 31867.3 lineto
39223.2 32092.2 lineto
39279.5 32204.7 lineto
39335.7 32261 lineto
39448.2 32317.2 lineto
stroke
newpath
40348.1 31136.1 moveto
40348.1 31923.5 lineto
stroke
newpath
40348.1 31811 moveto
40404.3 31867.3 lineto
40516.8 31923.5 lineto
40685.5 31923.5 lineto
40798 31867.3 lineto
40854.3 31754.8 lineto
40854.3 31136.1 lineto
stroke
newpath
40854.3 31754.8 moveto
40910.5 31867.3 lineto
41023 31923.5 lineto
41191.7 31923.5 lineto
41304.2 31867.3 lineto
41360.5 31754.8 lineto
41360.5 31136.1 lineto
stroke
newpath
41922.9 31136.1 moveto
41922.9 31923.5 lineto
stroke
newpath
41922.9 31811 moveto
41979.1 31867.3 lineto
42091.6 31923.5 lineto
42260.3 31923.5 lineto
42372.8 31867.3 lineto
42429.1 31754.8 lineto
42429.1 31136.1 lineto
stroke
newpath
42429.1 31754.8 moveto
42485.3 31867.3 lineto
42597.8 31923.5 lineto
42766.5 31923.5 lineto
42879 31867.3 lineto
42935.3 31754.8 lineto
42935.3 31136.1 lineto
stroke
newpath
45241.2 32373.5 moveto
44228.9 30854.9 lineto
stroke
newpath
46759.8 32317.2 moveto
46872.3 32317.2 lineto
46984.8 32261 lineto
47041 32204.7 lineto
47097.2 32092.2 lineto
47153.5 31867.3 lineto
47153.5 31586.1 lineto
47097.2 31361.1 lineto
47041 31248.6 lineto
46984.8 31192.4 lineto
46872.3 31136.1 lineto
46759.8 31136.1 lineto
46647.3 31192.4 lineto
46591.1 31248.6 lineto
46534.8 31361.1 lineto
46478.6 31586.1 lineto
46478.6 31867.3 lineto
46534.8 32092.2 lineto
46591.1 32204.7 lineto
46647.3 32261 lineto
46759.8 32317.2 lineto
stroke
newpath
47659.7 31248.6 moveto
47715.9 31192.4 lineto
47659.7 31136.1 lineto
47603.4 31192.4 lineto
47659.7 31248.6 lineto
47659.7 31136.1 lineto
stroke
newpath
48447.1 32317.2 moveto
48559.6 32317.2 lineto
48672 32261 lineto
48728.3 32204.7 lineto
48784.5 32092.2 lineto
48840.8 31867.3 lineto
48840.8 31586.1 lineto
48784.5 31361.1 lineto
48728.3 31248.6 lineto
48672 31192.4 lineto
48559.6 31136.1 lineto
48447.1 31136.1 lineto
48334.6 31192.4 lineto
48278.3 31248.6 lineto
48222.1 31361.1 lineto
48165.9 31586.1 lineto
48165.9 31867.3 lineto
48222.1 32092.2 lineto
48278.3 32204.7 lineto
48334.6 32261 lineto
48447.1 32317.2 lineto
stroke
newpath
49234.5 32317.2 moveto
49965.6 32317.2 lineto
49571.9 31867.3 lineto
49740.7 31867.3 lineto
49853.1 31811 lineto
49909.4 31754.8 lineto
49965.6 31642.3 lineto
49965.6 31361.1 lineto
49909.4 31248.6 lineto
49853.1 31192.4 lineto
49740.7 31136.1 lineto
49403.2 31136.1 lineto
49290.7 31192.4 lineto
49234.5 31248.6 lineto
stroke
newpath
51090.5 31136.1 moveto
50415.6 31136.1 lineto
stroke
newpath
50753 31136.1 moveto
50753 32317.2 lineto
50640.6 32148.5 lineto
50528.1 32036 lineto
50415.6 31979.8 lineto
stroke
newpath
51540.4 32317.2 moveto
51540.4 32092.2 lineto
stroke
newpath
51990.4 32317.2 moveto
51990.4 32092.2 lineto
stroke
newpath
53733.9 30686.2 moveto
53677.7 30742.4 lineto
53565.2 30911.1 lineto
53508.9 31023.6 lineto
53452.7 31192.4 lineto
53396.5 31473.6 lineto
53396.5 31698.5 lineto
53452.7 31979.8 lineto
53508.9 32148.5 lineto
53565.2 32261 lineto
53677.7 32429.7 lineto
53733.9 32485.9 lineto
stroke
newpath
54071.4 32317.2 moveto
54802.5 32317.2 lineto
54408.8 31867.3 lineto
54577.6 31867.3 lineto
54690 31811 lineto
54746.3 31754.8 lineto
54802.5 31642.3 lineto
54802.5 31361.1 lineto
54746.3 31248.6 lineto
54690 31192.4 lineto
54577.6 31136.1 lineto
54240.1 31136.1 lineto
54127.6 31192.4 lineto
54071.4 31248.6 lineto
stroke
newpath
56208.6 31136.1 moveto
56208.6 32317.2 lineto
stroke
newpath
56714.8 31136.1 moveto
56714.8 31754.8 lineto
56658.5 31867.3 lineto
56546.1 31923.5 lineto
56377.3 31923.5 lineto
56264.8 31867.3 lineto
56208.6 31811 lineto
stroke
newpath
57446 31136.1 moveto
57333.5 31192.4 lineto
57277.2 31248.6 lineto
57221 31361.1 lineto
57221 31698.5 lineto
57277.2 31811 lineto
57333.5 31867.3 lineto
57446 31923.5 lineto
57614.7 31923.5 lineto
57727.2 31867.3 lineto
57783.4 31811 lineto
57839.7 31698.5 lineto
57839.7 31361.1 lineto
57783.4 31248.6 lineto
57727.2 31192.4 lineto
57614.7 31136.1 lineto
57446 31136.1 lineto
stroke
newpath
58514.6 31136.1 moveto
58402.1 31192.4 lineto
58345.8 31304.8 lineto
58345.8 32317.2 lineto
stroke
newpath
59414.5 31192.4 moveto
59302 31136.1 lineto
59077 31136.1 lineto
58964.5 31192.4 lineto
58908.3 31304.8 lineto
58908.3 31754.8 lineto
58964.5 31867.3 lineto
59077 31923.5 lineto
59302 31923.5 lineto
59414.5 31867.3 lineto
59470.7 31754.8 lineto
59470.7 31642.3 lineto
58908.3 31529.8 lineto
stroke
newpath
59920.6 31192.4 moveto
60033.1 31136.1 lineto
60258.1 31136.1 lineto
60370.6 31192.4 lineto
60426.8 31304.8 lineto
60426.8 31361.1 lineto
60370.6 31473.6 lineto
60258.1 31529.8 lineto
60089.4 31529.8 lineto
59976.9 31586.1 lineto
59920.6 31698.5 lineto
59920.6 31754.8 lineto
59976.9 31867.3 lineto
60089.4 31923.5 lineto
60258.1 31923.5 lineto
60370.6 31867.3 lineto
stroke
newpath
60820.5 30686.2 moveto
60876.8 30742.4 lineto
60989.3 30911.1 lineto
61045.5 31023.6 lineto
61101.7 31192.4 lineto
61158 31473.6 lineto
61158 31698.5 lineto
61101.7 31979.8 lineto
61045.5 32148.5 lineto
60989.3 32261 lineto
60876.8 32429.7 lineto
60820.5 32485.9 lineto
stroke
newpath
34927.3 30467.5 moveto
34927.3 29755.3 lineto
stroke
newpath
34571.2 30111.4 moveto
35283.4 30111.4 lineto
stroke
0 0 0 setrgbcolor
0 0 0 setrgbcolor
newpath
37029.8 29577.1 moveto
36354.8 29577.1 lineto
stroke
newpath
36692.3 29577.1 moveto
36692.3 30758.2 lineto
36579.8 30589.4 lineto
36467.3 30477 lineto
36354.8 30420.7 lineto
stroke
newpath
37535.9 29689.5 moveto
37592.2 29633.3 lineto
37535.9 29577.1 lineto
37479.7 29633.3 lineto
37535.9 29689.5 lineto
37535.9 29577.1 lineto
stroke
newpath
38323.3 30758.2 moveto
38435.8 30758.2 lineto
38548.3 30701.9 lineto
38604.6 30645.7 lineto
38660.8 30533.2 lineto
38717 30308.2 lineto
38717 30027 lineto
38660.8 29802 lineto
38604.6 29689.5 lineto
38548.3 29633.3 lineto
38435.8 29577.1 lineto
38323.3 29577.1 lineto
38210.9 29633.3 lineto
38154.6 29689.5 lineto
38098.4 29802 lineto
38042.1 30027 lineto
38042.1 30308.2 lineto
38098.4 30533.2 lineto
38154.6 30645.7 lineto
38210.9 30701.9 lineto
38323.3 30758.2 lineto
stroke
newpath
39448.2 30758.2 moveto
39560.7 30758.2 lineto
39673.2 30701.9 lineto
39729.4 30645.7 lineto
39785.7 30533.2 lineto
39841.9 30308.2 lineto
39841.9 30027 lineto
39785.7 29802 lineto
39729.4 29689.5 lineto
39673.2 29633.3 lineto
39560.7 29577.1 lineto
39448.2 29577.1 lineto
39335.7 29633.3 lineto
39279.5 29689.5 lineto
39223.2 29802 lineto
39167 30027 lineto
39167 30308.2 lineto
39223.2 30533.2 lineto
39279.5 30645.7 lineto
39335.7 30701.9 lineto
39448.2 30758.2 lineto
stroke
newpath
40348.1 29577.1 moveto
40348.1 30364.5 lineto
stroke
newpath
40348.1 30252 moveto
40404.3 30308.2 lineto
40516.8 30364.5 lineto
40685.5 30364.5 lineto
40798 30308.2 lineto
40854.3 30195.7 lineto
40854.3 29577.1 lineto
stroke
newpath
40854.3 30195.7 moveto
40910.5 30308.2 lineto
41023 30364.5 lineto
41191.7 30364.5 lineto
41304.2 30308.2 lineto
41360.5 30195.7 lineto
41360.5 29577.1 lineto
stroke
newpath
41922.9 29577.1 moveto
41922.9 30364.5 lineto
stroke
newpath
41922.9 30252 moveto
41979.1 30308.2 lineto
42091.6 30364.5 lineto
42260.3 30364.5 lineto
42372.8 30308.2 lineto
42429.1 30195.7 lineto
42429.1 29577.1 lineto
stroke
newpath
42429.1 30195.7 moveto
42485.3 30308.2 lineto
42597.8 30364.5 lineto
42766.5 30364.5 lineto
42879 30308.2 lineto
42935.3 30195.7 lineto
42935.3 29577.1 lineto
stroke
newpath
45241.2 30814.4 moveto
44228.9 29295.8 lineto
stroke
newpath
46759.8 30758.2 moveto
46872.3 30758.2 lineto
46984.8 30701.9 lineto
47041 30645.7 lineto
47097.2 30533.2 lineto
47153.5 30308.2 lineto
47153.5 30027 lineto
47097.2 29802 lineto
47041 29689.5 lineto
46984.8 29633.3 lineto
46872.3 29577.1 lineto
46759.8 29577.1 lineto
46647.3 29633.3 lineto
46591.1 29689.5 lineto
46534.8 29802 lineto
46478.6 30027 lineto
46478.6 30308.2 lineto
46534.8 30533.2 lineto
46591.1 30645.7 lineto
46647.3 30701.9 lineto
46759.8 30758.2 lineto
stroke
newpath
47659.7 29689.5 moveto
47715.9 29633.3 lineto
47659.7 29577.1 lineto
47603.4 29633.3 lineto
47659.7 29689.5 lineto
47659.7 29577.1 lineto
stroke
newpath
48447.1 30758.2 moveto
48559.6 30758.2 lineto
48672 30701.9 lineto
48728.3 30645.7 lineto
48784.5 30533.2 lineto
48840.8 30308.2 lineto
48840.8 30027 lineto
48784.5 29802 lineto
48728.3 29689.5 lineto
48672 29633.3 lineto
48559.6 29577.1 lineto
48447.1 29577.1 lineto
48334.6 29633.3 lineto
48278.3 29689.5 lineto
48222.1 29802 lineto
48165.9 30027 lineto
48165.9 30308.2 lineto
48222.1 30533.2 lineto
48278.3 30645.7 lineto
48334.6 30701.9 lineto
48447.1 30758.2 lineto
stroke
newpath
49234.5 30758.2 moveto
49965.6 30758.2 lineto
49571.9 30308.2 lineto
49740.7 30308.2 lineto
49853.1 30252 lineto
49909.4 30195.7 lineto
49965.6 30083.2 lineto
49965.6 29802 lineto
49909.4 29689.5 lineto
49853.1 29633.3 lineto
49740.7 29577.1 lineto
49403.2 29577.1 lineto
49290.7 29633.3 lineto
49234.5 29689.5 lineto
stroke
newpath
50528.1 29577.1 moveto
50753 29577.1 lineto
50865.5 29633.3 lineto
50921.8 29689.5 lineto
51034.3 29858.3 lineto
51090.5 30083.2 lineto
51090.5 30533.2 lineto
51034.3 30645.7 lineto
50978 30701.9 lineto
50865.5 30758.2 lineto
50640.6 30758.2 lineto
50528.1 30701.9 lineto
50471.8 30645.7 lineto
50415.6 30533.2 lineto
50415.6 30252 lineto
50471.8 30139.5 lineto
50528.1 30083.2 lineto
50640.6 30027 lineto
50865.5 30027 lineto
50978 30083.2 lineto
51034.3 30139.5 lineto
51090.5 30252 lineto
stroke
newpath
51540.4 30758.2 moveto
51540.4 30533.2 lineto
stroke
newpath
51990.4 30758.2 moveto
51990.4 30533.2 lineto
stroke
newpath
53733.9 29127.1 moveto
53677.7 29183.4 lineto
53565.2 29352.1 lineto
53508.9 29464.6 lineto
53452.7 29633.3 lineto
53396.5 29914.5 lineto
53396.5 30139.5 lineto
53452.7 30420.7 lineto
53508.9 30589.4 lineto
53565.2 30701.9 lineto
53677.7 30870.7 lineto
53733.9 30926.9 lineto
stroke
newpath
54746.3 30758.2 moveto
54183.9 30758.2 lineto
54127.6 30195.7 lineto
54183.9 30252 lineto
54296.3 30308.2 lineto
54577.6 30308.2 lineto
54690 30252 lineto
54746.3 30195.7 lineto
54802.5 30083.2 lineto
54802.5 29802 lineto
54746.3 29689.5 lineto
54690 29633.3 lineto
54577.6 29577.1 lineto
54296.3 29577.1 lineto
54183.9 29633.3 lineto
54127.6 29689.5 lineto
stroke
newpath
55814.9 30758.2 moveto
55589.9 30758.2 lineto
55477.4 30701.9 lineto
55421.2 30645.7 lineto
55308.7 30477 lineto
55252.5 30252 lineto
55252.5 29802 lineto
55308.7 29689.5 lineto
55365 29633.3 lineto
55477.4 29577.1 lineto
55702.4 29577.1 lineto
55814.9 29633.3 lineto
55871.1 29689.5 lineto
55927.4 29802 lineto
55927.4 30083.2 lineto
55871.1 30195.7 lineto
55814.9 30252 lineto
55702.4 30308.2 lineto
55477.4 30308.2 lineto
55365 30252 lineto
55308.7 30195.7 lineto
55252.5 30083.2 lineto
stroke
newpath
57333.5 29577.1 moveto
57333.5 30758.2 lineto
stroke
newpath
57839.7 29577.1 moveto
57839.7 30195.7 lineto
57783.4 30308.2 lineto
57670.9 30364.5 lineto
57502.2 30364.5 lineto
57389.7 30308.2 lineto
57333.5 30252 lineto
stroke
newpath
58570.8 29577.1 moveto
58458.3 29633.3 lineto
58402.1 29689.5 lineto
58345.8 29802 lineto
58345.8 30139.5 lineto
58402.1 30252 lineto
58458.3 30308.2 lineto
58570.8 30364.5 lineto
58739.5 30364.5 lineto
58852 30308.2 lineto
58908.3 30252 lineto
58964.5 30139.5 lineto
58964.5 29802 lineto
58908.3 29689.5 lineto
58852 29633.3 lineto
58739.5 29577.1 lineto
58570.8 29577.1 lineto
stroke
newpath
59639.4 29577.1 moveto
59526.9 29633.3 lineto
59470.7 29745.8 lineto
59470.7 30758.2 lineto
stroke
newpath
60539.3 29633.3 moveto
60426.8 29577.1 lineto
60201.9 29577.1 lineto
60089.4 29633.3 lineto
60033.1 29745.8 lineto
60033.1 30195.7 lineto
60089.4 30308.2 lineto
60201.9 30364.5 lineto
60426.8 30364.5 lineto
60539.3 30308.2 lineto
60595.6 30195.7 lineto
60595.6 30083.2 lineto
60033.1 29970.8 lineto
stroke
newpath
61045.5 29633.3 moveto
61158 29577.1 lineto
61383 29577.1 lineto
61495.4 29633.3 lineto
61551.7 29745.8 lineto
61551.7 29802 lineto
61495.4 29914.5 lineto
61383 29970.8 lineto
61214.2 29970.8 lineto
61101.7 30027 lineto
61045.5 30139.5 lineto
61045.5 30195.7 lineto
61101.7 30308.2 lineto
61214.2 30364.5 lineto
61383 30364.5 lineto
61495.4 30308.2 lineto
stroke
newpath
61945.4 29127.1 moveto
62001.6 29183.4 lineto
62114.1 29352.1 lineto
62170.4 29464.6 lineto
62226.6 29633.3 lineto
62282.8 29914.5 lineto
62282.8 30139.5 lineto
62226.6 30420.7 lineto
62170.4 30589.4 lineto
62114.1 30701.9 lineto
62001.6 30870.7 lineto
61945.4 30926.9 lineto
stroke
newpath
35001.8 27872.5 moveto
35001.8 29232.2 lineto
33642.1 29232.2 lineto
33642.1 27872.5 lineto
35001.8 27872.5 lineto
poly0
0 0 0 setrgbcolor
0 0 0 setrgbcolor
newpath
36354.8 29086.6 moveto
36411.1 29142.9 lineto
36523.6 29199.1 lineto
36804.8 29199.1 lineto
36917.3 29142.9 lineto
36973.5 29086.6 lineto
37029.8 28974.1 lineto
37029.8 28861.7 lineto
36973.5 28692.9 lineto
36298.6 28018 lineto
37029.8 28018 lineto
stroke
newpath
37535.9 28130.5 moveto
37592.2 28074.3 lineto
37535.9 28018 lineto
37479.7 28074.3 lineto
37535.9 28130.5 lineto
37535.9 28018 lineto
stroke
newpath
37985.9 29199.1 moveto
38773.3 29199.1 lineto
38267.1 28018 lineto
stroke
newpath
39448.2 29199.1 moveto
39560.7 29199.1 lineto
39673.2 29142.9 lineto
39729.4 29086.6 lineto
39785.7 28974.1 lineto
39841.9 28749.2 lineto
39841.9 28468 lineto
39785.7 28243 lineto
39729.4 28130.5 lineto
39673.2 28074.3 lineto
39560.7 28018 lineto
39448.2 28018 lineto
39335.7 28074.3 lineto
39279.5 28130.5 lineto
39223.2 28243 lineto
39167 28468 lineto
39167 28749.2 lineto
39223.2 28974.1 lineto
39279.5 29086.6 lineto
39335.7 29142.9 lineto
39448.2 29199.1 lineto
stroke
newpath
40348.1 28018 moveto
40348.1 28805.4 lineto
stroke
newpath
40348.1 28692.9 moveto
40404.3 28749.2 lineto
40516.8 28805.4 lineto
40685.5 28805.4 lineto
40798 28749.2 lineto
40854.3 28636.7 lineto
40854.3 28018 lineto
stroke
newpath
40854.3 28636.7 moveto
40910.5 28749.2 lineto
41023 28805.4 lineto
41191.7 28805.4 lineto
41304.2 28749.2 lineto
41360.5 28636.7 lineto
41360.5 28018 lineto
stroke
newpath
41922.9 28018 moveto
41922.9 28805.4 lineto
stroke
newpath
41922.9 28692.9 moveto
41979.1 28749.2 lineto
42091.6 28805.4 lineto
42260.3 28805.4 lineto
42372.8 28749.2 lineto
42429.1 28636.7 lineto
42429.1 28018 lineto
stroke
newpath
42429.1 28636.7 moveto
42485.3 28749.2 lineto
42597.8 28805.4 lineto
42766.5 28805.4 lineto
42879 28749.2 lineto
42935.3 28636.7 lineto
42935.3 28018 lineto
stroke
newpath
45241.2 29255.4 moveto
44228.9 27736.8 lineto
stroke
newpath
46759.8 29199.1 moveto
46872.3 29199.1 lineto
46984.8 29142.9 lineto
47041 29086.6 lineto
47097.2 28974.1 lineto
47153.5 28749.2 lineto
47153.5 28468 lineto
47097.2 28243 lineto
47041 28130.5 lineto
46984.8 28074.3 lineto
46872.3 28018 lineto
46759.8 28018 lineto
46647.3 28074.3 lineto
46591.1 28130.5 lineto
46534.8 28243 lineto
46478.6 28468 lineto
46478.6 28749.2 lineto
46534.8 28974.1 lineto
46591.1 29086.6 lineto
46647.3 29142.9 lineto
46759.8 29199.1 lineto
stroke
newpath
47659.7 28130.5 moveto
47715.9 28074.3 lineto
47659.7 28018 lineto
47603.4 28074.3 lineto
47659.7 28130.5 lineto
47659.7 28018 lineto
stroke
newpath
48840.8 28018 moveto
48165.9 28018 lineto
stroke
newpath
48503.3 28018 moveto
48503.3 29199.1 lineto
48390.8 29030.4 lineto
48278.3 28917.9 lineto
48165.9 28861.7 lineto
stroke
newpath
49571.9 29199.1 moveto
49684.4 29199.1 lineto
49796.9 29142.9 lineto
49853.1 29086.6 lineto
49909.4 28974.1 lineto
49965.6 28749.2 lineto
49965.6 28468 lineto
49909.4 28243 lineto
49853.1 28130.5 lineto
49796.9 28074.3 lineto
49684.4 28018 lineto
49571.9 28018 lineto
49459.4 28074.3 lineto
49403.2 28130.5 lineto
49347 28243 lineto
49290.7 28468 lineto
49290.7 28749.2 lineto
49347 28974.1 lineto
49403.2 29086.6 lineto
49459.4 29142.9 lineto
49571.9 29199.1 lineto
stroke
newpath
50978 29199.1 moveto
50753 29199.1 lineto
50640.6 29142.9 lineto
50584.3 29086.6 lineto
50471.8 28917.9 lineto
50415.6 28692.9 lineto
50415.6 28243 lineto
50471.8 28130.5 lineto
50528.1 28074.3 lineto
50640.6 28018 lineto
50865.5 28018 lineto
50978 28074.3 lineto
51034.3 28130.5 lineto
51090.5 28243 lineto
51090.5 28524.2 lineto
51034.3 28636.7 lineto
50978 28692.9 lineto
50865.5 28749.2 lineto
50640.6 28749.2 lineto
50528.1 28692.9 lineto
50471.8 28636.7 lineto
50415.6 28524.2 lineto
stroke
newpath
51540.4 29199.1 moveto
51540.4 28974.1 lineto
stroke
newpath
51990.4 29199.1 moveto
51990.4 28974.1 lineto
stroke
newpath
53733.9 27568.1 moveto
53677.7 27624.3 lineto
53565.2 27793 lineto
53508.9 27905.5 lineto
53452.7 28074.3 lineto
53396.5 28355.5 lineto
53396.5 28580.4 lineto
53452.7 28861.7 lineto
53508.9 29030.4 lineto
53565.2 29142.9 lineto
53677.7 29311.6 lineto
53733.9 29367.8 lineto
stroke
newpath
54690 28805.4 moveto
54690 28018 lineto
stroke
newpath
54408.8 29255.4 moveto
54127.6 28411.7 lineto
54858.8 28411.7 lineto
stroke
newpath
56208.6 28018 moveto
56208.6 29199.1 lineto
stroke
newpath
56714.8 28018 moveto
56714.8 28636.7 lineto
56658.5 28749.2 lineto
56546.1 28805.4 lineto
56377.3 28805.4 lineto
56264.8 28749.2 lineto
56208.6 28692.9 lineto
stroke
newpath
57446 28018 moveto
57333.5 28074.3 lineto
57277.2 28130.5 lineto
57221 28243 lineto
57221 28580.4 lineto
57277.2 28692.9 lineto
57333.5 28749.2 lineto
57446 28805.4 lineto
57614.7 28805.4 lineto
57727.2 28749.2 lineto
57783.4 28692.9 lineto
57839.7 28580.4 lineto
57839.7 28243 lineto
57783.4 28130.5 lineto
57727.2 28074.3 lineto
57614.7 28018 lineto
57446 28018 lineto
stroke
newpath
58514.6 28018 moveto
58402.1 28074.3 lineto
58345.8 28186.7 lineto
58345.8 29199.1 lineto
stroke
newpath
59414.5 28074.3 moveto
59302 28018 lineto
59077 28018 lineto
58964.5 28074.3 lineto
58908.3 28186.7 lineto
58908.3 28636.7 lineto
58964.5 28749.2 lineto
59077 28805.4 lineto
59302 28805.4 lineto
59414.5 28749.2 lineto
59470.7 28636.7 lineto
59470.7 28524.2 lineto
58908.3 28411.7 lineto
stroke
newpath
59920.6 28074.3 moveto
60033.1 28018 lineto
60258.1 28018 lineto
60370.6 28074.3 lineto
60426.8 28186.7 lineto
60426.8 28243 lineto
60370.6 28355.5 lineto
60258.1 28411.7 lineto
60089.4 28411.7 lineto
59976.9 28468 lineto
59920.6 28580.4 lineto
59920.6 28636.7 lineto
59976.9 28749.2 lineto
60089.4 28805.4 lineto
60258.1 28805.4 lineto
60370.6 28749.2 lineto
stroke
newpath
60820.5 27568.1 moveto
60876.8 27624.3 lineto
60989.3 27793 lineto
61045.5 27905.5 lineto
61101.7 28074.3 lineto
61158 28355.5 lineto
61158 28580.4 lineto
61101.7 28861.7 lineto
61045.5 29030.4 lineto
60989.3 29142.9 lineto
60876.8 29311.6 lineto
60820.5 29367.8 lineto
stroke
showpage
grestore
%%EOF
