%TF.GenerationSoftware,KiCad,Pcbnew,(5.1.6)-1*%
%TF.CreationDate,2021-12-08T14:09:33+01:00*%
%TF.ProjectId,Kikad_sheet,4b696b61-645f-4736-9865-65742e6b6963,rev?*%
%TF.SameCoordinates,Original*%
%TF.FileFunction,Copper,L1,Top*%
%TF.FilePolarity,Positive*%
%FSLAX46Y46*%
G04 Gerber Fmt 4.6, Leading zero omitted, Abs format (unit mm)*
G04 Created by KiCad (PCBNEW (5.1.6)-1) date 2021-12-08 14:09:33*
%MOMM*%
%LPD*%
G01*
G04 APERTURE LIST*
%TA.AperFunction,ComponentPad*%
%ADD10C,5.400000*%
%TD*%
%TA.AperFunction,ComponentPad*%
%ADD11R,1.700000X1.700000*%
%TD*%
%TA.AperFunction,ComponentPad*%
%ADD12O,1.700000X1.700000*%
%TD*%
%TA.AperFunction,ComponentPad*%
%ADD13C,1.440000*%
%TD*%
%TA.AperFunction,SMDPad,CuDef*%
%ADD14R,1.300000X1.550000*%
%TD*%
%TA.AperFunction,SMDPad,CuDef*%
%ADD15R,1.600000X1.000000*%
%TD*%
%TA.AperFunction,ViaPad*%
%ADD16C,0.800000*%
%TD*%
%TA.AperFunction,Conductor*%
%ADD17C,0.250000*%
%TD*%
G04 APERTURE END LIST*
D10*
%TO.P,REF\u002A\u002A,1*%
%TO.N,N/C*%
X3500000Y3500000D03*
%TD*%
%TO.P,REF\u002A\u002A,1*%
%TO.N,N/C*%
X61500000Y3500000D03*
%TD*%
%TO.P,REF\u002A\u002A,1*%
%TO.N,N/C*%
X61500000Y55000000D03*
%TD*%
%TO.P,REF\u002A\u002A,1*%
%TO.N,N/C*%
X3500000Y55000000D03*
%TD*%
%TO.P,C1,1*%
%TO.N,GND*%
%TA.AperFunction,SMDPad,CuDef*%
G36*
G01*
X12720000Y47327500D02*
X12720000Y47672500D01*
G75*
G02*
X12867500Y47820000I147500J0D01*
G01*
X13162500Y47820000D01*
G75*
G02*
X13310000Y47672500I0J-147500D01*
G01*
X13310000Y47327500D01*
G75*
G02*
X13162500Y47180000I-147500J0D01*
G01*
X12867500Y47180000D01*
G75*
G02*
X12720000Y47327500I0J147500D01*
G01*
G37*
%TD.AperFunction*%
%TO.P,C1,2*%
%TO.N,5V1*%
%TA.AperFunction,SMDPad,CuDef*%
G36*
G01*
X13690000Y47327500D02*
X13690000Y47672500D01*
G75*
G02*
X13837500Y47820000I147500J0D01*
G01*
X14132500Y47820000D01*
G75*
G02*
X14280000Y47672500I0J-147500D01*
G01*
X14280000Y47327500D01*
G75*
G02*
X14132500Y47180000I-147500J0D01*
G01*
X13837500Y47180000D01*
G75*
G02*
X13690000Y47327500I0J147500D01*
G01*
G37*
%TD.AperFunction*%
%TD*%
%TO.P,C2,2*%
%TO.N,Net-(C2-Pad2)*%
%TA.AperFunction,SMDPad,CuDef*%
G36*
G01*
X13690000Y39327500D02*
X13690000Y39672500D01*
G75*
G02*
X13837500Y39820000I147500J0D01*
G01*
X14132500Y39820000D01*
G75*
G02*
X14280000Y39672500I0J-147500D01*
G01*
X14280000Y39327500D01*
G75*
G02*
X14132500Y39180000I-147500J0D01*
G01*
X13837500Y39180000D01*
G75*
G02*
X13690000Y39327500I0J147500D01*
G01*
G37*
%TD.AperFunction*%
%TO.P,C2,1*%
%TO.N,GND*%
%TA.AperFunction,SMDPad,CuDef*%
G36*
G01*
X12720000Y39327500D02*
X12720000Y39672500D01*
G75*
G02*
X12867500Y39820000I147500J0D01*
G01*
X13162500Y39820000D01*
G75*
G02*
X13310000Y39672500I0J-147500D01*
G01*
X13310000Y39327500D01*
G75*
G02*
X13162500Y39180000I-147500J0D01*
G01*
X12867500Y39180000D01*
G75*
G02*
X12720000Y39327500I0J147500D01*
G01*
G37*
%TD.AperFunction*%
%TD*%
%TO.P,C3,1*%
%TO.N,GND*%
%TA.AperFunction,SMDPad,CuDef*%
G36*
G01*
X12720000Y30827500D02*
X12720000Y31172500D01*
G75*
G02*
X12867500Y31320000I147500J0D01*
G01*
X13162500Y31320000D01*
G75*
G02*
X13310000Y31172500I0J-147500D01*
G01*
X13310000Y30827500D01*
G75*
G02*
X13162500Y30680000I-147500J0D01*
G01*
X12867500Y30680000D01*
G75*
G02*
X12720000Y30827500I0J147500D01*
G01*
G37*
%TD.AperFunction*%
%TO.P,C3,2*%
%TO.N,Net-(C3-Pad2)*%
%TA.AperFunction,SMDPad,CuDef*%
G36*
G01*
X13690000Y30827500D02*
X13690000Y31172500D01*
G75*
G02*
X13837500Y31320000I147500J0D01*
G01*
X14132500Y31320000D01*
G75*
G02*
X14280000Y31172500I0J-147500D01*
G01*
X14280000Y30827500D01*
G75*
G02*
X14132500Y30680000I-147500J0D01*
G01*
X13837500Y30680000D01*
G75*
G02*
X13690000Y30827500I0J147500D01*
G01*
G37*
%TD.AperFunction*%
%TD*%
D11*
%TO.P,J2,1*%
%TO.N,GND*%
X23000000Y47500000D03*
D12*
%TO.P,J2,2*%
%TO.N,5V1*%
X25540000Y47500000D03*
%TO.P,J2,3*%
%TO.N,Net-(J2-Pad3)*%
X28080000Y47500000D03*
%TO.P,J2,4*%
%TO.N,CE1*%
X30620000Y47500000D03*
%TO.P,J2,5*%
%TO.N,GND*%
X33160000Y47500000D03*
%TO.P,J2,6*%
%TO.N,CE0*%
X35700000Y47500000D03*
%TO.P,J2,7*%
%TO.N,Net-(J2-Pad7)*%
X38240000Y47500000D03*
%TO.P,J2,8*%
%TO.N,Net-(J2-Pad8)*%
X40780000Y47500000D03*
%TO.P,J2,9*%
%TO.N,Net-(J2-Pad9)*%
X43320000Y47500000D03*
%TO.P,J2,10*%
%TO.N,Net-(J2-Pad10)*%
X45860000Y47500000D03*
%TO.P,J2,11*%
%TO.N,GPIO25*%
X48400000Y47500000D03*
%TO.P,J2,12*%
%TO.N,GPIO24*%
X50940000Y47500000D03*
%TO.P,J2,13*%
%TO.N,GPIO23*%
X53480000Y47500000D03*
%TO.P,J2,14*%
%TO.N,GPIO18*%
X56020000Y47500000D03*
%TO.P,J2,15*%
%TO.N,5V1*%
X58560000Y47500000D03*
%TO.P,J2,16*%
%TO.N,GND*%
X61100000Y47500000D03*
%TD*%
D13*
%TO.P,RV1,3*%
%TO.N,GND*%
X10580000Y22000000D03*
%TO.P,RV1,2*%
%TO.N,Net-(J2-Pad3)*%
X8040000Y16920000D03*
%TO.P,RV1,1*%
%TO.N,5V1*%
X5500000Y22000000D03*
%TD*%
D14*
%TO.P,SW1,2*%
%TO.N,GPIO5*%
X17250000Y2525000D03*
%TO.P,SW1,1*%
%TO.N,GND*%
X12750000Y2525000D03*
X12750000Y10475000D03*
%TO.P,SW1,2*%
%TO.N,GPIO5*%
X17250000Y10475000D03*
%TD*%
%TO.P,SW2,2*%
%TO.N,GPIO6*%
X22750000Y2525000D03*
%TO.P,SW2,1*%
%TO.N,GND*%
X27250000Y2525000D03*
X27250000Y10475000D03*
%TO.P,SW2,2*%
%TO.N,GPIO6*%
X22750000Y10475000D03*
%TD*%
%TO.P,SW3,2*%
%TO.N,GPIO13*%
X31750000Y10475000D03*
%TO.P,SW3,1*%
%TO.N,GND*%
X36250000Y10475000D03*
X36250000Y2525000D03*
%TO.P,SW3,2*%
%TO.N,GPIO13*%
X31750000Y2525000D03*
%TD*%
%TO.P,SW4,2*%
%TO.N,GPIO19*%
X40750000Y2525000D03*
%TO.P,SW4,1*%
%TO.N,GND*%
X45250000Y2525000D03*
X45250000Y10475000D03*
%TO.P,SW4,2*%
%TO.N,GPIO19*%
X40750000Y10475000D03*
%TD*%
%TO.P,SW5,2*%
%TO.N,GPIO26*%
X50750000Y10475000D03*
%TO.P,SW5,1*%
%TO.N,GND*%
X55250000Y10475000D03*
X55250000Y2525000D03*
%TO.P,SW5,2*%
%TO.N,GPIO26*%
X50750000Y2525000D03*
%TD*%
D11*
%TO.P,J1,1*%
%TO.N,Net-(J1-Pad1)*%
X8500000Y54000000D03*
D12*
%TO.P,J1,2*%
%TO.N,5V1*%
X8500000Y56540000D03*
%TO.P,J1,3*%
%TO.N,Net-(J1-Pad3)*%
X11040000Y54000000D03*
%TO.P,J1,4*%
%TO.N,5V2*%
X11040000Y56540000D03*
%TO.P,J1,5*%
%TO.N,Net-(J1-Pad5)*%
X13580000Y54000000D03*
%TO.P,J1,6*%
%TO.N,GND*%
X13580000Y56540000D03*
%TO.P,J1,7*%
%TO.N,Net-(J1-Pad7)*%
X16120000Y54000000D03*
%TO.P,J1,8*%
%TO.N,TXD*%
X16120000Y56540000D03*
%TO.P,J1,9*%
%TO.N,Net-(J1-Pad9)*%
X18660000Y54000000D03*
%TO.P,J1,10*%
%TO.N,RXD*%
X18660000Y56540000D03*
%TO.P,J1,11*%
%TO.N,Net-(J1-Pad11)*%
X21200000Y54000000D03*
%TO.P,J1,12*%
%TO.N,GPIO18*%
X21200000Y56540000D03*
%TO.P,J1,13*%
%TO.N,Net-(J1-Pad13)*%
X23740000Y54000000D03*
%TO.P,J1,14*%
%TO.N,GND*%
X23740000Y56540000D03*
%TO.P,J1,15*%
%TO.N,Net-(J1-Pad15)*%
X26280000Y54000000D03*
%TO.P,J1,16*%
%TO.N,GPIO23*%
X26280000Y56540000D03*
%TO.P,J1,17*%
%TO.N,Net-(J1-Pad17)*%
X28820000Y54000000D03*
%TO.P,J1,18*%
%TO.N,GPIO24*%
X28820000Y56540000D03*
%TO.P,J1,19*%
%TO.N,Net-(J1-Pad19)*%
X31360000Y54000000D03*
%TO.P,J1,20*%
%TO.N,GND*%
X31360000Y56540000D03*
%TO.P,J1,21*%
%TO.N,Net-(J1-Pad21)*%
X33900000Y54000000D03*
%TO.P,J1,22*%
%TO.N,GPIO25*%
X33900000Y56540000D03*
%TO.P,J1,23*%
%TO.N,Net-(J1-Pad23)*%
X36440000Y54000000D03*
%TO.P,J1,24*%
%TO.N,CE0*%
X36440000Y56540000D03*
%TO.P,J1,25*%
%TO.N,Net-(J1-Pad25)*%
X38980000Y54000000D03*
%TO.P,J1,26*%
%TO.N,CE1*%
X38980000Y56540000D03*
%TO.P,J1,27*%
%TO.N,Net-(J1-Pad27)*%
X41520000Y54000000D03*
%TO.P,J1,28*%
%TO.N,Net-(J1-Pad28)*%
X41520000Y56540000D03*
%TO.P,J1,29*%
%TO.N,GPIO5*%
X44060000Y54000000D03*
%TO.P,J1,30*%
%TO.N,Net-(J1-Pad30)*%
X44060000Y56540000D03*
%TO.P,J1,31*%
%TO.N,GPIO6*%
X46600000Y54000000D03*
%TO.P,J1,32*%
%TO.N,Net-(J1-Pad32)*%
X46600000Y56540000D03*
%TO.P,J1,33*%
%TO.N,GPIO13*%
X49140000Y54000000D03*
%TO.P,J1,34*%
%TO.N,Net-(J1-Pad34)*%
X49140000Y56540000D03*
%TO.P,J1,35*%
%TO.N,GPIO19*%
X51680000Y54000000D03*
%TO.P,J1,36*%
%TO.N,Net-(J1-Pad36)*%
X51680000Y56540000D03*
%TO.P,J1,37*%
%TO.N,GPIO26*%
X54220000Y54000000D03*
%TO.P,J1,38*%
%TO.N,Net-(J1-Pad38)*%
X54220000Y56540000D03*
%TO.P,J1,39*%
%TO.N,GND*%
X56760000Y54000000D03*
%TO.P,J1,40*%
%TO.N,Net-(J1-Pad40)*%
X56760000Y56540000D03*
%TD*%
D15*
%TO.P,D1,3*%
%TO.N,5V1*%
X4000000Y49100000D03*
%TO.P,D1,2*%
%TO.N,Net-(D1-Pad2)*%
X4000000Y45900000D03*
%TO.P,D1,4*%
%TO.N,Net-(D1-Pad4)*%
X9000000Y49100000D03*
%TO.P,D1,1*%
%TO.N,GND*%
X9000000Y45900000D03*
%TD*%
%TO.P,D2,1*%
%TO.N,GND*%
X9000000Y38400000D03*
%TO.P,D2,4*%
%TO.N,Net-(D1-Pad2)*%
X9000000Y41600000D03*
%TO.P,D2,2*%
%TO.N,Net-(D2-Pad2)*%
X4000000Y38400000D03*
%TO.P,D2,3*%
%TO.N,Net-(C2-Pad2)*%
X4000000Y41600000D03*
%TD*%
%TO.P,D3,3*%
%TO.N,Net-(C3-Pad2)*%
X4000000Y34100000D03*
%TO.P,D3,2*%
%TO.N,GND*%
X4000000Y30900000D03*
%TO.P,D3,4*%
%TO.N,Net-(D2-Pad2)*%
X9000000Y34100000D03*
%TO.P,D3,1*%
%TO.N,GND*%
X9000000Y30900000D03*
%TD*%
D16*
%TO.N,GND*%
X34525000Y2525000D03*
X25525000Y2525000D03*
X13015000Y32985000D03*
X13015000Y48985000D03*
X13015000Y40485000D03*
X11000000Y45500000D03*
X5250000Y29250000D03*
%TO.N,Net-(C2-Pad2)*%
X8500000Y43500000D03*
X5000000Y43500000D03*
%TO.N,Net-(C3-Pad2)*%
X4500000Y36000000D03*
X8500000Y36000000D03*
%TO.N,GPIO5*%
X16025000Y2525000D03*
X19500000Y13500000D03*
%TO.N,GPIO6*%
X24500000Y12500000D03*
%TO.N,GPIO13*%
X33250000Y12250000D03*
%TO.N,GPIO19*%
X39025000Y2525000D03*
X42500000Y12500000D03*
%TO.N,GPIO26*%
X49025000Y2525000D03*
X52304999Y12304999D03*
%TO.N,GPIO18*%
X19000000Y49000000D03*
X22000000Y41000000D03*
%TO.N,GPIO23*%
X20500000Y49000000D03*
X23000000Y42000000D03*
%TD*%
D17*
%TO.N,GND*%
X31360000Y56540000D02*
X31460000Y56540000D01*
X36250000Y2525000D02*
X34525000Y2525000D01*
X27250000Y2525000D02*
X25525000Y2525000D01*
X34525000Y2525000D02*
X34525000Y2525000D01*
X25525000Y2525000D02*
X25525000Y2525000D01*
X13015000Y47500000D02*
X13015000Y48985000D01*
X13015000Y31000000D02*
X13015000Y32985000D01*
X13015000Y32985000D02*
X13015000Y32985000D01*
X13015000Y48985000D02*
X13015000Y48985000D01*
X13015000Y39500000D02*
X13015000Y40485000D01*
X13015000Y40485000D02*
X13015000Y40485000D01*
X9000000Y45900000D02*
X10600000Y45900000D01*
X10600000Y45900000D02*
X11000000Y45500000D01*
X11000000Y45500000D02*
X11000000Y45500000D01*
X10930000Y38400000D02*
X13015000Y40485000D01*
X9000000Y38400000D02*
X10930000Y38400000D01*
X4000000Y30900000D02*
X4000000Y30500000D01*
X4000000Y30500000D02*
X5250000Y29250000D01*
X9000000Y30900000D02*
X9000000Y29000000D01*
X9000000Y29000000D02*
X8500000Y28500000D01*
X8000000Y29000000D02*
X5500000Y29000000D01*
X8500000Y28500000D02*
X8000000Y29000000D01*
X5250000Y29250000D02*
X5500000Y29000000D01*
%TO.N,5V1*%
X13985000Y47500000D02*
X14000000Y47500000D01*
X24000000Y44000000D02*
X25540000Y45540000D01*
X25540000Y45540000D02*
X25540000Y47500000D01*
X8500000Y56540000D02*
X9675001Y55364999D01*
X9675001Y50310001D02*
X11500000Y48485002D01*
X11500000Y48485002D02*
X11500000Y47000000D01*
X11500000Y47000000D02*
X14500000Y44000000D01*
X13985000Y47500000D02*
X13985000Y46015000D01*
X16000000Y44000000D02*
X16500000Y44000000D01*
X13985000Y46015000D02*
X16000000Y44000000D01*
X14500000Y44000000D02*
X16500000Y44000000D01*
X16500000Y44000000D02*
X17000000Y44000000D01*
X51334999Y40274999D02*
X20725001Y40274999D01*
X58560000Y47500000D02*
X51334999Y40274999D01*
X17000000Y44000000D02*
X24000000Y44000000D01*
X6518233Y22000000D02*
X19500000Y34981767D01*
X5500000Y22000000D02*
X6518233Y22000000D01*
X19500000Y41500000D02*
X18750000Y42250000D01*
X19500000Y34981767D02*
X19500000Y41500000D01*
X20725001Y40274999D02*
X18750000Y42250000D01*
X18750000Y42250000D02*
X17000000Y44000000D01*
X4000000Y49100000D02*
X4000000Y50000000D01*
X4000000Y50000000D02*
X5500000Y51500000D01*
X9675001Y55364999D02*
X9675001Y52675001D01*
X8500000Y51500000D02*
X9675001Y52675001D01*
X5500000Y51500000D02*
X8500000Y51500000D01*
X9675001Y52675001D02*
X9675001Y50310001D01*
%TO.N,Net-(C2-Pad2)*%
X13985000Y40588002D02*
X11073002Y43500000D01*
X13985000Y39500000D02*
X13985000Y40588002D01*
X11073002Y43500000D02*
X8500000Y43500000D01*
X8500000Y43500000D02*
X8500000Y43500000D01*
X5000000Y43500000D02*
X4000000Y42500000D01*
X4000000Y42500000D02*
X4000000Y42000000D01*
%TO.N,Net-(C3-Pad2)*%
X4000000Y34100000D02*
X4000000Y34500000D01*
X4000000Y34100000D02*
X4000000Y35500000D01*
X4000000Y35500000D02*
X4500000Y36000000D01*
X4500000Y36000000D02*
X4500000Y36000000D01*
X11073002Y36000000D02*
X14000000Y33073002D01*
X8500000Y36000000D02*
X11073002Y36000000D01*
X14000000Y31015000D02*
X13985000Y31000000D01*
X14000000Y33073002D02*
X14000000Y31015000D01*
%TO.N,Net-(D1-Pad2)*%
X4700000Y45900000D02*
X9000000Y41600000D01*
X4000000Y45900000D02*
X4700000Y45900000D01*
%TO.N,Net-(D2-Pad2)*%
X8300000Y34100000D02*
X4000000Y38400000D01*
X9000000Y34100000D02*
X8300000Y34100000D01*
%TO.N,GPIO5*%
X17250000Y2525000D02*
X16025000Y2525000D01*
X16025000Y2525000D02*
X16025000Y2525000D01*
X19500000Y12725000D02*
X17250000Y10475000D01*
X19500000Y13500000D02*
X19500000Y12725000D01*
%TO.N,GPIO6*%
X22750000Y10750000D02*
X22750000Y10475000D01*
X24500000Y12500000D02*
X22750000Y10750000D01*
%TO.N,GPIO13*%
X33250000Y11975000D02*
X31750000Y10475000D01*
X33250000Y12250000D02*
X33250000Y11975000D01*
%TO.N,GPIO19*%
X40750000Y2525000D02*
X39025000Y2525000D01*
X39025000Y2525000D02*
X39025000Y2525000D01*
X40750000Y10750000D02*
X40750000Y10475000D01*
X42500000Y12500000D02*
X40750000Y10750000D01*
%TO.N,GPIO26*%
X50750000Y2525000D02*
X49025000Y2525000D01*
X49025000Y2525000D02*
X49025000Y2525000D01*
X50750000Y10750000D02*
X52304999Y12304999D01*
X50750000Y10475000D02*
X50750000Y10750000D01*
%TO.N,GPIO18*%
X20024999Y55364999D02*
X20024999Y50024999D01*
X21200000Y56540000D02*
X20024999Y55364999D01*
X20024999Y50024999D02*
X19000000Y49000000D01*
X19000000Y49000000D02*
X19000000Y49000000D01*
X49520000Y41000000D02*
X56020000Y47500000D01*
X22000000Y41000000D02*
X49520000Y41000000D01*
%TO.N,GPIO23*%
X24915001Y55175001D02*
X24915001Y53415001D01*
X26280000Y56540000D02*
X24915001Y55175001D01*
X24915001Y53415001D02*
X20500000Y49000000D01*
X20500000Y49000000D02*
X20500000Y49000000D01*
X47980000Y42000000D02*
X53480000Y47500000D01*
X23000000Y42000000D02*
X47980000Y42000000D01*
%TO.N,GPIO24*%
X34524999Y46935999D02*
X36960998Y44500000D01*
X34524999Y47874003D02*
X34524999Y46935999D01*
X28820000Y56540000D02*
X30184999Y55175001D01*
X30184999Y52214003D02*
X34524999Y47874003D01*
X30184999Y55175001D02*
X30184999Y52214003D01*
X48324999Y46324999D02*
X49764999Y46324999D01*
X46500000Y44500000D02*
X48324999Y46324999D01*
X49764999Y46324999D02*
X50940000Y47500000D01*
X36960998Y44500000D02*
X46500000Y44500000D01*
%TO.N,GPIO25*%
X33900000Y56540000D02*
X34460000Y56540000D01*
X42884999Y53015001D02*
X48400000Y47500000D01*
X41145997Y55175001D02*
X42084001Y55175001D01*
X40344999Y55975999D02*
X41145997Y55175001D01*
X39544001Y57715001D02*
X40344999Y56914003D01*
X35075001Y57715001D02*
X39544001Y57715001D01*
X42884999Y54374003D02*
X42884999Y53015001D01*
X42084001Y55175001D02*
X42884999Y54374003D01*
X40344999Y56914003D02*
X40344999Y55975999D01*
X33900000Y56540000D02*
X35075001Y57715001D01*
%TO.N,CE0*%
X35264999Y47935001D02*
X35700000Y47500000D01*
X35264999Y55364999D02*
X35264999Y47935001D01*
X36440000Y56540000D02*
X35264999Y55364999D01*
%TO.N,CE1*%
X38980000Y56540000D02*
X38980000Y56980000D01*
X38980000Y56540000D02*
X38540000Y56540000D01*
%TD*%
M02*
