(netlist "C:\USERS\NILLE\DESKTOP\UCL\3. SEMESTER\PCB\ITT3-PCB-CASPER_NIELSEN\ORCAD_FILES\RASPBERRY_HAT_PCB.DSN"
  (compinst "C1"
    (patternName "cap196")
    (compvalue "0.1u"))
  (compinst "C2"
    (patternName "cap196")
    (compvalue "0.1u"))
  (compinst "C3"
    (patternName "cap196")
    (compvalue "0.1u"))
  (compinst "LED1"
    (patternName "5050")
    (compvalue "SK6812"))
  (compinst "LED2"
    (patternName "5050")
    (compvalue "SK6812"))
  (compinst "LED3"
    (patternName "5050")
    (compvalue "SK6812"))
  (compinst "Resistor"
    (patternName "VRES10")
    (compvalue "10K"))
  (compinst "SCREEN1"
    (patternName "gpionpin_2_LCD")
    (compvalue "LCD_16x2"))
  (compinst "X1"
    (patternName "gpiopins_1")
    (compvalue "Pinbox"))
  (net "0"
    (node "X1" "39")
    (node "X1" "6")
    (node "LED1" "1")
    (node "LED2" "1")
    (node "LED3" "2")
    (node "LED3" "1")
    (node "SCREEN1" "1")
    (node "SCREEN1" "5")
    (node "SCREEN1" "16")
    (node "C1" "2")
    (node "C2" "2")
    (node "C3" "2")
    (node "Resistor" "1"))
  (net "3.3V"
    (node "X1" "1")
    (node "X1" "17"))
  (net "5.0V"
    (node "X1" "4"))
  (net "GND"
    (node "X1" "9")
    (node "X1" "14")
    (node "X1" "20")
    (node "X1" "25")
    (node "X1" "30")
    (node "X1" "34"))
  (net "N03210"
    (node "X1" "37"))
  (net "N03222"
    (node "X1" "35"))
  (net "N03234"
    (node "X1" "33"))
  (net "N03246"
    (node "X1" "31"))
  (net "N03261"
    (node "X1" "29"))
  (net "N03361"
    (node "X1" "2")
    (node "LED1" "3")
    (node "SCREEN1" "2")
    (node "SCREEN1" "15")
    (node "C1" "1")
    (node "Resistor" "3"))
  (net "N03372"
    (node "X1" "12")
    (node "SCREEN1" "14"))
  (net "N03379"
    (node "X1" "16")
    (node "SCREEN1" "13"))
  (net "N03386"
    (node "X1" "18")
    (node "SCREEN1" "12"))
  (net "N03393"
    (node "X1" "22")
    (node "SCREEN1" "11"))
  (net "N03400"
    (node "X1" "24")
    (node "SCREEN1" "6"))
  (net "N03462"
    (node "X1" "26")
    (node "SCREEN1" "4"))
  (net "N03533"
    (node "SCREEN1" "3")
    (node "Resistor" "2"))
  (net "N03632"
    (node "LED2" "3")
    (node "C2" "1"))
  (net "N03643"
    (node "LED3" "3")
    (node "C3" "1"))
  (net "N03723"
    (node "LED1" "2")
    (node "LED2" "4"))
  (net "N03735"
    (node "LED2" "2")
    (node "LED3" "4")))
