(---------------------------------------------------------------------)
(                                                                     )
(    Allegro Netrev Import Logic                                      )
(                                                                     )
(    Drawing          : 4_try.brd                                     )
(    Software Version : 17.4S008                                      )
(    Date/Time        : Tue Nov  9 21:48:55 2021                      )
(                                                                     )
(---------------------------------------------------------------------)


------ Directives ------------

Ripup etch:                  No
Ripup delete first segment:  No
Ripup retain bondwire:       No
Ripup symbols:               Always
Missing symbol has error:    No
DRC update:                  Yes
Schematic directory:         'c:\users\nille\desktop\ucl\3. semester\pcb\itt3-pcb-casper_nielsen\orcad_files\netlist'
Design Directory:            'c:/users/nille/desktop/ucl/3. semester/pcb/itt3-pcb-casper_nielsen/orcad_files/boards'
Old design name:             'c:/users/nille/desktop/ucl/3. semester/pcb/itt3-pcb-casper_nielsen/orcad_files/boards/4_try.brd'
New design name:             'c:/users/nille/desktop/ucl/3. semester/pcb/itt3-pcb-casper_nielsen/orcad_files/boards/4_try.brd'

CmdLine: netrev -i c:\users\nille\desktop\ucl\3. semester\pcb\itt3-pcb-casper_nielsen\orcad_files\netlist -y 1 -h -q netrev_constraint_report.xml c:/users/nille/desktop/ucl/3. semester/pcb/itt3-pcb-casper_nielsen/orcad_files/boards/#Taaaadd01080.tmp

------ Preparing to read pst files ------

Starting to read c:/users/nille/desktop/ucl/3. semester/pcb/itt3-pcb-casper_nielsen/orcad_files/netlist/pstchip.dat 
   Finished reading c:/users/nille/desktop/ucl/3. semester/pcb/itt3-pcb-casper_nielsen/orcad_files/netlist/pstchip.dat (00:00:00.06)
Starting to read c:/users/nille/desktop/ucl/3. semester/pcb/itt3-pcb-casper_nielsen/orcad_files/netlist/pstxprt.dat 
   Finished reading c:/users/nille/desktop/ucl/3. semester/pcb/itt3-pcb-casper_nielsen/orcad_files/netlist/pstxprt.dat (00:00:00.00)
Starting to read c:/users/nille/desktop/ucl/3. semester/pcb/itt3-pcb-casper_nielsen/orcad_files/netlist/pstxnet.dat 
   Finished reading c:/users/nille/desktop/ucl/3. semester/pcb/itt3-pcb-casper_nielsen/orcad_files/netlist/pstxnet.dat (00:00:00.00)

------ Oversights/Warnings/Errors ------


------ Library Paths ------
MODULEPATH =  . 
           C:/Get_Started_Workshop/Company/pcb/modules 

PSMPATH =  . 
           symbols 
           C:\Get_Started_Workshop\Company\pcb\symbols 
           C:\Get_Started_Workshop\Company\pcb\symbols\connector 
           C:\Get_Started_Workshop\Company\pcb\symbols\ic 
           C:\Get_Started_Workshop\Company\pcb\symbols\other_symbols 
           C:\Get_Started_Workshop\Company\pcb\symbols\padsyms 
           C:\Get_Started_Workshop\Company\pcb\symbols\smd_misc 
           C:\Get_Started_Workshop\Company\pcb\symbols\tht_misc 
           C:/Cadence/SPB_17.4\share\pcb\pcb_lib\symbols 
           C:\Get_Started_Workshop\Company\pcb\symbols\student 

PADPATH =  . 
           symbols 
           padstacks 
           C:\Get_Started_Workshop\Company\pcb\padstacks 
           C:/Cadence/SPB_17.4\share\pcb\pcb_lib\symbols 
           C:\Get_Started_Workshop\Company\pcb\padstacks\student 


------ Summary Statistics ------


netrev run on Nov 9 21:48:55 2021
   DESIGN NAME : 'RASPBERRY_HAT_PCB'
   PACKAGING ON Jun 25 2020 15:42:49

   COMPILE 'logic'
   CHECK_PIN_NAMES OFF
   CROSS_REFERENCE OFF
   FEEDBACK OFF
   INCREMENTAL OFF
   INTERFACE_TYPE PHYSICAL
   MAX_ERRORS 500
   MERGE_MINIMUM 5
   NET_NAME_CHARS '#%&()*+-./:=>?@[]^_`|'
   NET_NAME_LENGTH 24
   OVERSIGHTS ON
   REPLACE_CHECK OFF
   SINGLE_NODE_NETS ON
   SPLIT_MINIMUM 0
   SUPPRESS   20
   WARNINGS ON

 No error detected
 No oversight detected
 No warning detected

cpu time      0:02:44
elapsed time  0:00:01

