{
	"Gate Swap" : [],
	"Ref Des" : [],
	"Pin Swap" : [],
	"Component Property" : [],
	"Net Property" : [],
	"Pin Property" : [],
	"Component" : [],
	"Net" : [
		{
			"Name" : "N03676",
			"C_PATH" : "@raspberry_hat_pcb.schematic1(sch_1):n03676",
			"Logical" : null,
			"Physical" : "N03676"
		},
		{
			"Name" : "N03350",
			"C_PATH" : "@raspberry_hat_pcb.schematic1(sch_1):n03350",
			"Logical" : null,
			"Physical" : "N03350"
		},
		{
			"Name" : "N03265",
			"C_PATH" : "@raspberry_hat_pcb.schematic1(sch_1):n03265",
			"Logical" : null,
			"Physical" : "N03265"
		},
		{
			"Name" : "0",
			"C_PATH" : "@raspberry_hat_pcb.schematic1(sch_1):\\0\\",
			"Logical" : null,
			"Physical" : "0"
		}
	],
	"Connection" : [
		{
			"Name" : "LED1.3",
			"C_PATH" : "@raspberry_hat_pcb.schematic1(sch_1):ins1818@library1.\\sk6812.normal\\(chips):VDD",
			"Logical" : "VDD",
			"Physical" : "N03676"
		},
		{
			"Name" : "SCREEN1.1",
			"C_PATH" : "@raspberry_hat_pcb.schematic1(sch_1):ins2032@library1.\\lcd_16x2.normal\\(chips):VSS",
			"Logical" : "VSS",
			"Physical" : "N03350"
		},
		{
			"Name" : "SW1.2",
			"C_PATH" : "@raspberry_hat_pcb.schematic1(sch_1):ins8869@discrete.\\sw key-spst.normal\\(chips):\\2\\",
			"Logical" : "NC",
			"Physical" : "N03265"
		},
		{
			"Name" : "X1.39",
			"C_PATH" : "@raspberry_hat_pcb.schematic1(sch_1):ins851@library1.\\pinbox.normal\\(chips):\\gnd#39\\",
			"Logical" : "GND",
			"Physical" : "0"
		}
	]
}
