(kicad_pcb (version 20171130) (host pcbnew "(5.1.6)-1")

  (general
    (thickness 1.6)
    (drawings 8)
    (tracks 186)
    (zones 0)
    (modules 18)
    (nets 48)
  )

  (page A4)
  (layers
    (0 F.Cu signal hide)
    (31 B.Cu signal)
    (32 B.Adhes user)
    (33 F.Adhes user)
    (34 B.Paste user)
    (35 F.Paste user)
    (36 B.SilkS user)
    (37 F.SilkS user)
    (38 B.Mask user)
    (39 F.Mask user)
    (40 Dwgs.User user)
    (41 Cmts.User user)
    (42 Eco1.User user)
    (43 Eco2.User user)
    (44 Edge.Cuts user)
    (45 Margin user)
    (46 B.CrtYd user)
    (47 F.CrtYd user)
    (48 B.Fab user)
    (49 F.Fab user)
  )

  (setup
    (last_trace_width 0.25)
    (user_trace_width 0.25)
    (trace_clearance 0.2)
    (zone_clearance 0.508)
    (zone_45_only no)
    (trace_min 0.2)
    (via_size 0.8)
    (via_drill 0.4)
    (via_min_size 0.4)
    (via_min_drill 0.3)
    (user_via 0.8 0.4)
    (uvia_size 0.3)
    (uvia_drill 0.1)
    (uvias_allowed no)
    (uvia_min_size 0.2)
    (uvia_min_drill 0.1)
    (edge_width 0.1)
    (segment_width 0.2)
    (pcb_text_width 0.3)
    (pcb_text_size 1.5 1.5)
    (mod_edge_width 0.15)
    (mod_text_size 1 1)
    (mod_text_width 0.15)
    (pad_size 1.524 1.524)
    (pad_drill 0.762)
    (pad_to_mask_clearance 0)
    (aux_axis_origin 0 0)
    (visible_elements 7FFFFFFF)
    (pcbplotparams
      (layerselection 0x010fc_ffffffff)
      (usegerberextensions false)
      (usegerberattributes true)
      (usegerberadvancedattributes true)
      (creategerberjobfile true)
      (excludeedgelayer true)
      (linewidth 0.100000)
      (plotframeref false)
      (viasonmask false)
      (mode 1)
      (useauxorigin false)
      (hpglpennumber 1)
      (hpglpenspeed 20)
      (hpglpendiameter 15.000000)
      (psnegative false)
      (psa4output false)
      (plotreference true)
      (plotvalue true)
      (plotinvisibletext false)
      (padsonsilk false)
      (subtractmaskfromsilk false)
      (outputformat 1)
      (mirror false)
      (drillshape 0)
      (scaleselection 1)
      (outputdirectory "Sample_files/Drill_file/"))
  )

  (net 0 "")
  (net 1 GND)
  (net 2 5V1)
  (net 3 "Net-(C2-Pad2)")
  (net 4 "Net-(C3-Pad2)")
  (net 5 "Net-(D1-Pad2)")
  (net 6 "Net-(D1-Pad4)")
  (net 7 "Net-(D2-Pad2)")
  (net 8 "Net-(J1-Pad1)")
  (net 9 "Net-(J1-Pad3)")
  (net 10 "Net-(J1-Pad5)")
  (net 11 "Net-(J1-Pad7)")
  (net 12 "Net-(J1-Pad9)")
  (net 13 "Net-(J1-Pad11)")
  (net 14 "Net-(J1-Pad13)")
  (net 15 GPIO5)
  (net 16 GPIO6)
  (net 17 GPIO13)
  (net 18 GPIO19)
  (net 19 GPIO26)
  (net 20 5V2)
  (net 21 TXD)
  (net 22 RXD)
  (net 23 GPIO18)
  (net 24 GPIO23)
  (net 25 GPIO24)
  (net 26 GPIO25)
  (net 27 CE0)
  (net 28 CE1)
  (net 29 "Net-(J1-Pad34)")
  (net 30 "Net-(J1-Pad36)")
  (net 31 "Net-(J1-Pad38)")
  (net 32 "Net-(J1-Pad40)")
  (net 33 "Net-(J2-Pad3)")
  (net 34 "Net-(J2-Pad7)")
  (net 35 "Net-(J2-Pad8)")
  (net 36 "Net-(J2-Pad9)")
  (net 37 "Net-(J2-Pad10)")
  (net 38 "Net-(J1-Pad15)")
  (net 39 "Net-(J1-Pad17)")
  (net 40 "Net-(J1-Pad19)")
  (net 41 "Net-(J1-Pad21)")
  (net 42 "Net-(J1-Pad23)")
  (net 43 "Net-(J1-Pad25)")
  (net 44 "Net-(J1-Pad27)")
  (net 45 "Net-(J1-Pad28)")
  (net 46 "Net-(J1-Pad30)")
  (net 47 "Net-(J1-Pad32)")

  (net_class Default "This is the default net class."
    (clearance 0.2)
    (trace_width 0.25)
    (via_dia 0.8)
    (via_drill 0.4)
    (uvia_dia 0.3)
    (uvia_drill 0.1)
    (add_net 5V1)
    (add_net 5V2)
    (add_net CE0)
    (add_net CE1)
    (add_net GND)
    (add_net GPIO13)
    (add_net GPIO18)
    (add_net GPIO19)
    (add_net GPIO23)
    (add_net GPIO24)
    (add_net GPIO25)
    (add_net GPIO26)
    (add_net GPIO5)
    (add_net GPIO6)
    (add_net "Net-(C2-Pad2)")
    (add_net "Net-(C3-Pad2)")
    (add_net "Net-(D1-Pad2)")
    (add_net "Net-(D1-Pad4)")
    (add_net "Net-(D2-Pad2)")
    (add_net "Net-(J1-Pad1)")
    (add_net "Net-(J1-Pad11)")
    (add_net "Net-(J1-Pad13)")
    (add_net "Net-(J1-Pad15)")
    (add_net "Net-(J1-Pad17)")
    (add_net "Net-(J1-Pad19)")
    (add_net "Net-(J1-Pad21)")
    (add_net "Net-(J1-Pad23)")
    (add_net "Net-(J1-Pad25)")
    (add_net "Net-(J1-Pad27)")
    (add_net "Net-(J1-Pad28)")
    (add_net "Net-(J1-Pad3)")
    (add_net "Net-(J1-Pad30)")
    (add_net "Net-(J1-Pad32)")
    (add_net "Net-(J1-Pad34)")
    (add_net "Net-(J1-Pad36)")
    (add_net "Net-(J1-Pad38)")
    (add_net "Net-(J1-Pad40)")
    (add_net "Net-(J1-Pad5)")
    (add_net "Net-(J1-Pad7)")
    (add_net "Net-(J1-Pad9)")
    (add_net "Net-(J2-Pad10)")
    (add_net "Net-(J2-Pad3)")
    (add_net "Net-(J2-Pad7)")
    (add_net "Net-(J2-Pad8)")
    (add_net "Net-(J2-Pad9)")
    (add_net RXD)
    (add_net TXD)
  )

  (module MountingHole:MountingHole_2.7mm_Pad (layer F.Cu) (tedit 56D1B4CB) (tstamp 618C94E5)
    (at 3.5 -3.5)
    (descr "Mounting Hole 2.7mm")
    (tags "mounting hole 2.7mm")
    (attr virtual)
    (fp_text reference REF** (at 0 -3.7) (layer F.SilkS)
      (effects (font (size 1 1) (thickness 0.15)))
    )
    (fp_text value MountingHole_2.7mm_Pad (at 0 3.7) (layer F.Fab)
      (effects (font (size 1 1) (thickness 0.15)))
    )
    (fp_circle (center 0 0) (end 2.7 0) (layer Cmts.User) (width 0.15))
    (fp_circle (center 0 0) (end 2.95 0) (layer F.CrtYd) (width 0.05))
    (fp_text user %R (at 0.3 0) (layer F.Fab)
      (effects (font (size 1 1) (thickness 0.15)))
    )
    (pad 1 thru_hole circle (at 0 0) (size 5.4 5.4) (drill 2.7) (layers *.Cu *.Mask))
  )

  (module MountingHole:MountingHole_2.7mm_Pad (layer F.Cu) (tedit 56D1B4CB) (tstamp 618C94D7)
    (at 61.5 -3.5)
    (descr "Mounting Hole 2.7mm")
    (tags "mounting hole 2.7mm")
    (attr virtual)
    (fp_text reference REF** (at 0 -3.7) (layer F.SilkS)
      (effects (font (size 1 1) (thickness 0.15)))
    )
    (fp_text value MountingHole_2.7mm_Pad (at 0 3.7) (layer F.Fab)
      (effects (font (size 1 1) (thickness 0.15)))
    )
    (fp_circle (center 0 0) (end 2.95 0) (layer F.CrtYd) (width 0.05))
    (fp_circle (center 0 0) (end 2.7 0) (layer Cmts.User) (width 0.15))
    (fp_text user %R (at 0.3 0) (layer F.Fab)
      (effects (font (size 1 1) (thickness 0.15)))
    )
    (pad 1 thru_hole circle (at 0 0) (size 5.4 5.4) (drill 2.7) (layers *.Cu *.Mask))
  )

  (module MountingHole:MountingHole_2.7mm_Pad (layer F.Cu) (tedit 56D1B4CB) (tstamp 618C94C9)
    (at 61.5 -55)
    (descr "Mounting Hole 2.7mm")
    (tags "mounting hole 2.7mm")
    (attr virtual)
    (fp_text reference REF** (at 0 -3.7) (layer F.SilkS)
      (effects (font (size 1 1) (thickness 0.15)))
    )
    (fp_text value MountingHole_2.7mm_Pad (at 0 3.7) (layer F.Fab)
      (effects (font (size 1 1) (thickness 0.15)))
    )
    (fp_circle (center 0 0) (end 2.7 0) (layer Cmts.User) (width 0.15))
    (fp_circle (center 0 0) (end 2.95 0) (layer F.CrtYd) (width 0.05))
    (fp_text user %R (at 0.3 0) (layer F.Fab)
      (effects (font (size 1 1) (thickness 0.15)))
    )
    (pad 1 thru_hole circle (at 0 0) (size 5.4 5.4) (drill 2.7) (layers *.Cu *.Mask))
  )

  (module MountingHole:MountingHole_2.7mm_Pad (layer F.Cu) (tedit 56D1B4CB) (tstamp 618C94AB)
    (at 3.5 -55)
    (descr "Mounting Hole 2.7mm")
    (tags "mounting hole 2.7mm")
    (attr virtual)
    (fp_text reference REF** (at 0 -3.7) (layer F.SilkS)
      (effects (font (size 1 1) (thickness 0.15)))
    )
    (fp_text value MountingHole_2.7mm_Pad (at 0 3.7) (layer F.Fab)
      (effects (font (size 1 1) (thickness 0.15)))
    )
    (fp_circle (center 0 0) (end 2.95 0) (layer F.CrtYd) (width 0.05))
    (fp_circle (center 0 0) (end 2.7 0) (layer Cmts.User) (width 0.15))
    (fp_text user %R (at 0.3 0) (layer F.Fab)
      (effects (font (size 1 1) (thickness 0.15)))
    )
    (pad 1 thru_hole circle (at 0 0) (size 5.4 5.4) (drill 2.7) (layers *.Cu *.Mask))
  )

  (module Capacitor_SMD:C_0402_1005Metric (layer F.Cu) (tedit 5B301BBE) (tstamp 618C97E6)
    (at 13.5 -47.5)
    (descr "Capacitor SMD 0402 (1005 Metric), square (rectangular) end terminal, IPC_7351 nominal, (Body size source: http://www.tortai-tech.com/upload/download/2011102023233369053.pdf), generated with kicad-footprint-generator")
    (tags capacitor)
    (path /618B507A)
    (attr smd)
    (fp_text reference C1 (at 0 -1.17) (layer F.SilkS)
      (effects (font (size 1 1) (thickness 0.15)))
    )
    (fp_text value C (at 0 1.17) (layer F.Fab)
      (effects (font (size 1 1) (thickness 0.15)))
    )
    (fp_line (start -0.5 0.25) (end -0.5 -0.25) (layer F.Fab) (width 0.1))
    (fp_line (start -0.5 -0.25) (end 0.5 -0.25) (layer F.Fab) (width 0.1))
    (fp_line (start 0.5 -0.25) (end 0.5 0.25) (layer F.Fab) (width 0.1))
    (fp_line (start 0.5 0.25) (end -0.5 0.25) (layer F.Fab) (width 0.1))
    (fp_line (start -0.93 0.47) (end -0.93 -0.47) (layer F.CrtYd) (width 0.05))
    (fp_line (start -0.93 -0.47) (end 0.93 -0.47) (layer F.CrtYd) (width 0.05))
    (fp_line (start 0.93 -0.47) (end 0.93 0.47) (layer F.CrtYd) (width 0.05))
    (fp_line (start 0.93 0.47) (end -0.93 0.47) (layer F.CrtYd) (width 0.05))
    (fp_text user %R (at 0 0) (layer F.Fab)
      (effects (font (size 0.25 0.25) (thickness 0.04)))
    )
    (pad 1 smd roundrect (at -0.485 0) (size 0.59 0.64) (layers F.Cu F.Paste F.Mask) (roundrect_rratio 0.25)
      (net 1 GND))
    (pad 2 smd roundrect (at 0.485 0) (size 0.59 0.64) (layers F.Cu F.Paste F.Mask) (roundrect_rratio 0.25)
      (net 2 5V1))
    (model ${KISYS3DMOD}/Capacitor_SMD.3dshapes/C_0402_1005Metric.wrl
      (at (xyz 0 0 0))
      (scale (xyz 1 1 1))
      (rotate (xyz 0 0 0))
    )
  )

  (module Capacitor_SMD:C_0402_1005Metric (layer F.Cu) (tedit 5B301BBE) (tstamp 618C97F5)
    (at 13.5 -39.5)
    (descr "Capacitor SMD 0402 (1005 Metric), square (rectangular) end terminal, IPC_7351 nominal, (Body size source: http://www.tortai-tech.com/upload/download/2011102023233369053.pdf), generated with kicad-footprint-generator")
    (tags capacitor)
    (path /618B3FC9)
    (attr smd)
    (fp_text reference C2 (at 0 -1.17) (layer F.SilkS)
      (effects (font (size 1 1) (thickness 0.15)))
    )
    (fp_text value C (at 0 1.17) (layer F.Fab)
      (effects (font (size 1 1) (thickness 0.15)))
    )
    (fp_line (start 0.93 0.47) (end -0.93 0.47) (layer F.CrtYd) (width 0.05))
    (fp_line (start 0.93 -0.47) (end 0.93 0.47) (layer F.CrtYd) (width 0.05))
    (fp_line (start -0.93 -0.47) (end 0.93 -0.47) (layer F.CrtYd) (width 0.05))
    (fp_line (start -0.93 0.47) (end -0.93 -0.47) (layer F.CrtYd) (width 0.05))
    (fp_line (start 0.5 0.25) (end -0.5 0.25) (layer F.Fab) (width 0.1))
    (fp_line (start 0.5 -0.25) (end 0.5 0.25) (layer F.Fab) (width 0.1))
    (fp_line (start -0.5 -0.25) (end 0.5 -0.25) (layer F.Fab) (width 0.1))
    (fp_line (start -0.5 0.25) (end -0.5 -0.25) (layer F.Fab) (width 0.1))
    (fp_text user %R (at 0 0) (layer F.Fab)
      (effects (font (size 0.25 0.25) (thickness 0.04)))
    )
    (pad 2 smd roundrect (at 0.485 0) (size 0.59 0.64) (layers F.Cu F.Paste F.Mask) (roundrect_rratio 0.25)
      (net 3 "Net-(C2-Pad2)"))
    (pad 1 smd roundrect (at -0.485 0) (size 0.59 0.64) (layers F.Cu F.Paste F.Mask) (roundrect_rratio 0.25)
      (net 1 GND))
    (model ${KISYS3DMOD}/Capacitor_SMD.3dshapes/C_0402_1005Metric.wrl
      (at (xyz 0 0 0))
      (scale (xyz 1 1 1))
      (rotate (xyz 0 0 0))
    )
  )

  (module Capacitor_SMD:C_0402_1005Metric (layer F.Cu) (tedit 5B301BBE) (tstamp 618C9804)
    (at 13.5 -31)
    (descr "Capacitor SMD 0402 (1005 Metric), square (rectangular) end terminal, IPC_7351 nominal, (Body size source: http://www.tortai-tech.com/upload/download/2011102023233369053.pdf), generated with kicad-footprint-generator")
    (tags capacitor)
    (path /618B1DB2)
    (attr smd)
    (fp_text reference C3 (at 0 -1.17) (layer F.SilkS)
      (effects (font (size 1 1) (thickness 0.15)))
    )
    (fp_text value C (at 0 1.17) (layer F.Fab)
      (effects (font (size 1 1) (thickness 0.15)))
    )
    (fp_line (start -0.5 0.25) (end -0.5 -0.25) (layer F.Fab) (width 0.1))
    (fp_line (start -0.5 -0.25) (end 0.5 -0.25) (layer F.Fab) (width 0.1))
    (fp_line (start 0.5 -0.25) (end 0.5 0.25) (layer F.Fab) (width 0.1))
    (fp_line (start 0.5 0.25) (end -0.5 0.25) (layer F.Fab) (width 0.1))
    (fp_line (start -0.93 0.47) (end -0.93 -0.47) (layer F.CrtYd) (width 0.05))
    (fp_line (start -0.93 -0.47) (end 0.93 -0.47) (layer F.CrtYd) (width 0.05))
    (fp_line (start 0.93 -0.47) (end 0.93 0.47) (layer F.CrtYd) (width 0.05))
    (fp_line (start 0.93 0.47) (end -0.93 0.47) (layer F.CrtYd) (width 0.05))
    (fp_text user %R (at 0 0) (layer F.Fab)
      (effects (font (size 0.25 0.25) (thickness 0.04)))
    )
    (pad 1 smd roundrect (at -0.485 0) (size 0.59 0.64) (layers F.Cu F.Paste F.Mask) (roundrect_rratio 0.25)
      (net 1 GND))
    (pad 2 smd roundrect (at 0.485 0) (size 0.59 0.64) (layers F.Cu F.Paste F.Mask) (roundrect_rratio 0.25)
      (net 4 "Net-(C3-Pad2)"))
    (model ${KISYS3DMOD}/Capacitor_SMD.3dshapes/C_0402_1005Metric.wrl
      (at (xyz 0 0 0))
      (scale (xyz 1 1 1))
      (rotate (xyz 0 0 0))
    )
  )

  (module Connector_PinHeader_2.54mm:PinHeader_1x16_P2.54mm_Vertical (layer F.Cu) (tedit 59FED5CC) (tstamp 618C98A8)
    (at 23 -47.5 90)
    (descr "Through hole straight pin header, 1x16, 2.54mm pitch, single row")
    (tags "Through hole pin header THT 1x16 2.54mm single row")
    (path /618AB12D)
    (fp_text reference J2 (at 0 -2.33 90) (layer F.SilkS)
      (effects (font (size 1 1) (thickness 0.15)))
    )
    (fp_text value Conn_01x16 (at 0 40.43 90) (layer F.Fab)
      (effects (font (size 1 1) (thickness 0.15)))
    )
    (fp_line (start -0.635 -1.27) (end 1.27 -1.27) (layer F.Fab) (width 0.1))
    (fp_line (start 1.27 -1.27) (end 1.27 39.37) (layer F.Fab) (width 0.1))
    (fp_line (start 1.27 39.37) (end -1.27 39.37) (layer F.Fab) (width 0.1))
    (fp_line (start -1.27 39.37) (end -1.27 -0.635) (layer F.Fab) (width 0.1))
    (fp_line (start -1.27 -0.635) (end -0.635 -1.27) (layer F.Fab) (width 0.1))
    (fp_line (start -1.33 39.43) (end 1.33 39.43) (layer F.SilkS) (width 0.12))
    (fp_line (start -1.33 1.27) (end -1.33 39.43) (layer F.SilkS) (width 0.12))
    (fp_line (start 1.33 1.27) (end 1.33 39.43) (layer F.SilkS) (width 0.12))
    (fp_line (start -1.33 1.27) (end 1.33 1.27) (layer F.SilkS) (width 0.12))
    (fp_line (start -1.33 0) (end -1.33 -1.33) (layer F.SilkS) (width 0.12))
    (fp_line (start -1.33 -1.33) (end 0 -1.33) (layer F.SilkS) (width 0.12))
    (fp_line (start -1.8 -1.8) (end -1.8 39.9) (layer F.CrtYd) (width 0.05))
    (fp_line (start -1.8 39.9) (end 1.8 39.9) (layer F.CrtYd) (width 0.05))
    (fp_line (start 1.8 39.9) (end 1.8 -1.8) (layer F.CrtYd) (width 0.05))
    (fp_line (start 1.8 -1.8) (end -1.8 -1.8) (layer F.CrtYd) (width 0.05))
    (fp_text user %R (at 0 19.05) (layer F.Fab)
      (effects (font (size 1 1) (thickness 0.15)))
    )
    (pad 1 thru_hole rect (at 0 0 90) (size 1.7 1.7) (drill 1) (layers *.Cu *.Mask)
      (net 1 GND))
    (pad 2 thru_hole oval (at 0 2.54 90) (size 1.7 1.7) (drill 1) (layers *.Cu *.Mask)
      (net 2 5V1))
    (pad 3 thru_hole oval (at 0 5.08 90) (size 1.7 1.7) (drill 1) (layers *.Cu *.Mask)
      (net 33 "Net-(J2-Pad3)"))
    (pad 4 thru_hole oval (at 0 7.62 90) (size 1.7 1.7) (drill 1) (layers *.Cu *.Mask)
      (net 28 CE1))
    (pad 5 thru_hole oval (at 0 10.16 90) (size 1.7 1.7) (drill 1) (layers *.Cu *.Mask)
      (net 1 GND))
    (pad 6 thru_hole oval (at 0 12.7 90) (size 1.7 1.7) (drill 1) (layers *.Cu *.Mask)
      (net 27 CE0))
    (pad 7 thru_hole oval (at 0 15.24 90) (size 1.7 1.7) (drill 1) (layers *.Cu *.Mask)
      (net 34 "Net-(J2-Pad7)"))
    (pad 8 thru_hole oval (at 0 17.78 90) (size 1.7 1.7) (drill 1) (layers *.Cu *.Mask)
      (net 35 "Net-(J2-Pad8)"))
    (pad 9 thru_hole oval (at 0 20.32 90) (size 1.7 1.7) (drill 1) (layers *.Cu *.Mask)
      (net 36 "Net-(J2-Pad9)"))
    (pad 10 thru_hole oval (at 0 22.86 90) (size 1.7 1.7) (drill 1) (layers *.Cu *.Mask)
      (net 37 "Net-(J2-Pad10)"))
    (pad 11 thru_hole oval (at 0 25.4 90) (size 1.7 1.7) (drill 1) (layers *.Cu *.Mask)
      (net 26 GPIO25))
    (pad 12 thru_hole oval (at 0 27.94 90) (size 1.7 1.7) (drill 1) (layers *.Cu *.Mask)
      (net 25 GPIO24))
    (pad 13 thru_hole oval (at 0 30.48 90) (size 1.7 1.7) (drill 1) (layers *.Cu *.Mask)
      (net 24 GPIO23))
    (pad 14 thru_hole oval (at 0 33.02 90) (size 1.7 1.7) (drill 1) (layers *.Cu *.Mask)
      (net 23 GPIO18))
    (pad 15 thru_hole oval (at 0 35.56 90) (size 1.7 1.7) (drill 1) (layers *.Cu *.Mask)
      (net 2 5V1))
    (pad 16 thru_hole oval (at 0 38.1 90) (size 1.7 1.7) (drill 1) (layers *.Cu *.Mask)
      (net 1 GND))
    (model ${KISYS3DMOD}/Connector_PinHeader_2.54mm.3dshapes/PinHeader_1x16_P2.54mm_Vertical.wrl
      (at (xyz 0 0 0))
      (scale (xyz 1 1 1))
      (rotate (xyz 0 0 0))
    )
  )

  (module Potentiometer_THT:Potentiometer_Bourns_3386F_Vertical (layer F.Cu) (tedit 5AA07388) (tstamp 618C98BF)
    (at 5.5 -22 270)
    (descr "Potentiometer, vertical, Bourns 3386F, https://www.bourns.com/pdfs/3386.pdf")
    (tags "Potentiometer vertical Bourns 3386F")
    (path /618CBE9D)
    (fp_text reference RV1 (at 2.655 -8.555 90) (layer F.SilkS)
      (effects (font (size 1 1) (thickness 0.15)))
    )
    (fp_text value R_POT_TRIM_US (at 2.655 3.475 90) (layer F.Fab)
      (effects (font (size 1 1) (thickness 0.15)))
    )
    (fp_circle (center 1.781 -2.54) (end 3.356 -2.54) (layer F.Fab) (width 0.1))
    (fp_line (start -2.11 -7.305) (end -2.11 2.225) (layer F.Fab) (width 0.1))
    (fp_line (start -2.11 2.225) (end 7.42 2.225) (layer F.Fab) (width 0.1))
    (fp_line (start 7.42 2.225) (end 7.42 -7.305) (layer F.Fab) (width 0.1))
    (fp_line (start 7.42 -7.305) (end -2.11 -7.305) (layer F.Fab) (width 0.1))
    (fp_line (start 1.781 -0.98) (end 1.781 -4.099) (layer F.Fab) (width 0.1))
    (fp_line (start 1.781 -0.98) (end 1.781 -4.099) (layer F.Fab) (width 0.1))
    (fp_line (start -2.23 -7.425) (end 7.54 -7.425) (layer F.SilkS) (width 0.12))
    (fp_line (start -2.23 2.345) (end 7.54 2.345) (layer F.SilkS) (width 0.12))
    (fp_line (start -2.23 -7.425) (end -2.23 2.345) (layer F.SilkS) (width 0.12))
    (fp_line (start 7.54 -7.425) (end 7.54 2.345) (layer F.SilkS) (width 0.12))
    (fp_line (start -2.36 -7.56) (end -2.36 2.48) (layer F.CrtYd) (width 0.05))
    (fp_line (start -2.36 2.48) (end 7.67 2.48) (layer F.CrtYd) (width 0.05))
    (fp_line (start 7.67 2.48) (end 7.67 -7.56) (layer F.CrtYd) (width 0.05))
    (fp_line (start 7.67 -7.56) (end -2.36 -7.56) (layer F.CrtYd) (width 0.05))
    (fp_text user %R (at -1.11 -2.54) (layer F.Fab)
      (effects (font (size 1 1) (thickness 0.15)))
    )
    (pad 3 thru_hole circle (at 0 -5.08 270) (size 1.44 1.44) (drill 0.8) (layers *.Cu *.Mask)
      (net 1 GND))
    (pad 2 thru_hole circle (at 5.08 -2.54 270) (size 1.44 1.44) (drill 0.8) (layers *.Cu *.Mask)
      (net 33 "Net-(J2-Pad3)"))
    (pad 1 thru_hole circle (at 0 0 270) (size 1.44 1.44) (drill 0.8) (layers *.Cu *.Mask)
      (net 2 5V1))
    (model ${KISYS3DMOD}/Potentiometer_THT.3dshapes/Potentiometer_Bourns_3386F_Vertical.wrl
      (at (xyz 0 0 0))
      (scale (xyz 1 1 1))
      (rotate (xyz 0 0 0))
    )
  )

  (module Button_Switch_SMD:SW_Push_1P1T_NO_6x6mm_H9.5mm (layer F.Cu) (tedit 5CA1CA7F) (tstamp 618C98D9)
    (at 15 -6.5 90)
    (descr "tactile push button, 6x6mm e.g. PTS645xx series, height=9.5mm")
    (tags "tact sw push 6mm smd")
    (path /6189133F)
    (attr smd)
    (fp_text reference SW1 (at 0 -4.05 90) (layer F.SilkS)
      (effects (font (size 1 1) (thickness 0.15)))
    )
    (fp_text value SW_Push (at 0 4.15 90) (layer F.Fab)
      (effects (font (size 1 1) (thickness 0.15)))
    )
    (fp_line (start -3 -3) (end -3 3) (layer F.Fab) (width 0.1))
    (fp_line (start -3 3) (end 3 3) (layer F.Fab) (width 0.1))
    (fp_line (start 3 3) (end 3 -3) (layer F.Fab) (width 0.1))
    (fp_line (start 3 -3) (end -3 -3) (layer F.Fab) (width 0.1))
    (fp_line (start 5 3.25) (end 5 -3.25) (layer F.CrtYd) (width 0.05))
    (fp_line (start -5 -3.25) (end -5 3.25) (layer F.CrtYd) (width 0.05))
    (fp_line (start -5 3.25) (end 5 3.25) (layer F.CrtYd) (width 0.05))
    (fp_line (start -5 -3.25) (end 5 -3.25) (layer F.CrtYd) (width 0.05))
    (fp_line (start 3.23 -3.23) (end 3.23 -3.2) (layer F.SilkS) (width 0.12))
    (fp_line (start 3.23 3.23) (end 3.23 3.2) (layer F.SilkS) (width 0.12))
    (fp_line (start -3.23 3.23) (end -3.23 3.2) (layer F.SilkS) (width 0.12))
    (fp_line (start -3.23 -3.2) (end -3.23 -3.23) (layer F.SilkS) (width 0.12))
    (fp_line (start 3.23 -1.3) (end 3.23 1.3) (layer F.SilkS) (width 0.12))
    (fp_line (start -3.23 -3.23) (end 3.23 -3.23) (layer F.SilkS) (width 0.12))
    (fp_line (start -3.23 -1.3) (end -3.23 1.3) (layer F.SilkS) (width 0.12))
    (fp_line (start -3.23 3.23) (end 3.23 3.23) (layer F.SilkS) (width 0.12))
    (fp_circle (center 0 0) (end 1.75 -0.05) (layer F.Fab) (width 0.1))
    (fp_text user %R (at 0 -4.05 90) (layer F.Fab)
      (effects (font (size 1 1) (thickness 0.15)))
    )
    (pad 2 smd rect (at -3.975 2.25 90) (size 1.55 1.3) (layers F.Cu F.Paste F.Mask)
      (net 15 GPIO5))
    (pad 1 smd rect (at -3.975 -2.25 90) (size 1.55 1.3) (layers F.Cu F.Paste F.Mask)
      (net 1 GND))
    (pad 1 smd rect (at 3.975 -2.25 90) (size 1.55 1.3) (layers F.Cu F.Paste F.Mask)
      (net 1 GND))
    (pad 2 smd rect (at 3.975 2.25 90) (size 1.55 1.3) (layers F.Cu F.Paste F.Mask)
      (net 15 GPIO5))
    (model ${KISYS3DMOD}/Button_Switch_SMD.3dshapes/SW_PUSH_6mm_H9.5mm.wrl
      (at (xyz 0 0 0))
      (scale (xyz 1 1 1))
      (rotate (xyz 0 0 0))
    )
  )

  (module Button_Switch_SMD:SW_Push_1P1T_NO_6x6mm_H9.5mm (layer F.Cu) (tedit 5CA1CA7F) (tstamp 618C98F3)
    (at 25 -6.5 270)
    (descr "tactile push button, 6x6mm e.g. PTS645xx series, height=9.5mm")
    (tags "tact sw push 6mm smd")
    (path /6189314D)
    (attr smd)
    (fp_text reference SW2 (at 0 -4.05 90) (layer F.SilkS)
      (effects (font (size 1 1) (thickness 0.15)))
    )
    (fp_text value SW_Push (at 0 4.15 90) (layer F.Fab)
      (effects (font (size 1 1) (thickness 0.15)))
    )
    (fp_circle (center 0 0) (end 1.75 -0.05) (layer F.Fab) (width 0.1))
    (fp_line (start -3.23 3.23) (end 3.23 3.23) (layer F.SilkS) (width 0.12))
    (fp_line (start -3.23 -1.3) (end -3.23 1.3) (layer F.SilkS) (width 0.12))
    (fp_line (start -3.23 -3.23) (end 3.23 -3.23) (layer F.SilkS) (width 0.12))
    (fp_line (start 3.23 -1.3) (end 3.23 1.3) (layer F.SilkS) (width 0.12))
    (fp_line (start -3.23 -3.2) (end -3.23 -3.23) (layer F.SilkS) (width 0.12))
    (fp_line (start -3.23 3.23) (end -3.23 3.2) (layer F.SilkS) (width 0.12))
    (fp_line (start 3.23 3.23) (end 3.23 3.2) (layer F.SilkS) (width 0.12))
    (fp_line (start 3.23 -3.23) (end 3.23 -3.2) (layer F.SilkS) (width 0.12))
    (fp_line (start -5 -3.25) (end 5 -3.25) (layer F.CrtYd) (width 0.05))
    (fp_line (start -5 3.25) (end 5 3.25) (layer F.CrtYd) (width 0.05))
    (fp_line (start -5 -3.25) (end -5 3.25) (layer F.CrtYd) (width 0.05))
    (fp_line (start 5 3.25) (end 5 -3.25) (layer F.CrtYd) (width 0.05))
    (fp_line (start 3 -3) (end -3 -3) (layer F.Fab) (width 0.1))
    (fp_line (start 3 3) (end 3 -3) (layer F.Fab) (width 0.1))
    (fp_line (start -3 3) (end 3 3) (layer F.Fab) (width 0.1))
    (fp_line (start -3 -3) (end -3 3) (layer F.Fab) (width 0.1))
    (fp_text user %R (at 0 -4.05 90) (layer F.Fab)
      (effects (font (size 1 1) (thickness 0.15)))
    )
    (pad 2 smd rect (at 3.975 2.25 270) (size 1.55 1.3) (layers F.Cu F.Paste F.Mask)
      (net 16 GPIO6))
    (pad 1 smd rect (at 3.975 -2.25 270) (size 1.55 1.3) (layers F.Cu F.Paste F.Mask)
      (net 1 GND))
    (pad 1 smd rect (at -3.975 -2.25 270) (size 1.55 1.3) (layers F.Cu F.Paste F.Mask)
      (net 1 GND))
    (pad 2 smd rect (at -3.975 2.25 270) (size 1.55 1.3) (layers F.Cu F.Paste F.Mask)
      (net 16 GPIO6))
    (model ${KISYS3DMOD}/Button_Switch_SMD.3dshapes/SW_PUSH_6mm_H9.5mm.wrl
      (at (xyz 0 0 0))
      (scale (xyz 1 1 1))
      (rotate (xyz 0 0 0))
    )
  )

  (module Button_Switch_SMD:SW_Push_1P1T_NO_6x6mm_H9.5mm (layer F.Cu) (tedit 5CA1CA7F) (tstamp 618C990D)
    (at 34 -6.5 270)
    (descr "tactile push button, 6x6mm e.g. PTS645xx series, height=9.5mm")
    (tags "tact sw push 6mm smd")
    (path /61893946)
    (attr smd)
    (fp_text reference SW3 (at 0 -4.05 90) (layer F.SilkS)
      (effects (font (size 1 1) (thickness 0.15)))
    )
    (fp_text value SW_Push (at 0 4.15 90) (layer F.Fab)
      (effects (font (size 1 1) (thickness 0.15)))
    )
    (fp_line (start -3 -3) (end -3 3) (layer F.Fab) (width 0.1))
    (fp_line (start -3 3) (end 3 3) (layer F.Fab) (width 0.1))
    (fp_line (start 3 3) (end 3 -3) (layer F.Fab) (width 0.1))
    (fp_line (start 3 -3) (end -3 -3) (layer F.Fab) (width 0.1))
    (fp_line (start 5 3.25) (end 5 -3.25) (layer F.CrtYd) (width 0.05))
    (fp_line (start -5 -3.25) (end -5 3.25) (layer F.CrtYd) (width 0.05))
    (fp_line (start -5 3.25) (end 5 3.25) (layer F.CrtYd) (width 0.05))
    (fp_line (start -5 -3.25) (end 5 -3.25) (layer F.CrtYd) (width 0.05))
    (fp_line (start 3.23 -3.23) (end 3.23 -3.2) (layer F.SilkS) (width 0.12))
    (fp_line (start 3.23 3.23) (end 3.23 3.2) (layer F.SilkS) (width 0.12))
    (fp_line (start -3.23 3.23) (end -3.23 3.2) (layer F.SilkS) (width 0.12))
    (fp_line (start -3.23 -3.2) (end -3.23 -3.23) (layer F.SilkS) (width 0.12))
    (fp_line (start 3.23 -1.3) (end 3.23 1.3) (layer F.SilkS) (width 0.12))
    (fp_line (start -3.23 -3.23) (end 3.23 -3.23) (layer F.SilkS) (width 0.12))
    (fp_line (start -3.23 -1.3) (end -3.23 1.3) (layer F.SilkS) (width 0.12))
    (fp_line (start -3.23 3.23) (end 3.23 3.23) (layer F.SilkS) (width 0.12))
    (fp_circle (center 0 0) (end 1.75 -0.05) (layer F.Fab) (width 0.1))
    (fp_text user %R (at 0 -4.05 90) (layer F.Fab)
      (effects (font (size 1 1) (thickness 0.15)))
    )
    (pad 2 smd rect (at -3.975 2.25 270) (size 1.55 1.3) (layers F.Cu F.Paste F.Mask)
      (net 17 GPIO13))
    (pad 1 smd rect (at -3.975 -2.25 270) (size 1.55 1.3) (layers F.Cu F.Paste F.Mask)
      (net 1 GND))
    (pad 1 smd rect (at 3.975 -2.25 270) (size 1.55 1.3) (layers F.Cu F.Paste F.Mask)
      (net 1 GND))
    (pad 2 smd rect (at 3.975 2.25 270) (size 1.55 1.3) (layers F.Cu F.Paste F.Mask)
      (net 17 GPIO13))
    (model ${KISYS3DMOD}/Button_Switch_SMD.3dshapes/SW_PUSH_6mm_H9.5mm.wrl
      (at (xyz 0 0 0))
      (scale (xyz 1 1 1))
      (rotate (xyz 0 0 0))
    )
  )

  (module Button_Switch_SMD:SW_Push_1P1T_NO_6x6mm_H9.5mm (layer F.Cu) (tedit 5CA1CA7F) (tstamp 618C9927)
    (at 43 -6.5 270)
    (descr "tactile push button, 6x6mm e.g. PTS645xx series, height=9.5mm")
    (tags "tact sw push 6mm smd")
    (path /61893F23)
    (attr smd)
    (fp_text reference SW4 (at 0 -4.05 90) (layer F.SilkS)
      (effects (font (size 1 1) (thickness 0.15)))
    )
    (fp_text value SW_Push (at 0 4.15 90) (layer F.Fab)
      (effects (font (size 1 1) (thickness 0.15)))
    )
    (fp_circle (center 0 0) (end 1.75 -0.05) (layer F.Fab) (width 0.1))
    (fp_line (start -3.23 3.23) (end 3.23 3.23) (layer F.SilkS) (width 0.12))
    (fp_line (start -3.23 -1.3) (end -3.23 1.3) (layer F.SilkS) (width 0.12))
    (fp_line (start -3.23 -3.23) (end 3.23 -3.23) (layer F.SilkS) (width 0.12))
    (fp_line (start 3.23 -1.3) (end 3.23 1.3) (layer F.SilkS) (width 0.12))
    (fp_line (start -3.23 -3.2) (end -3.23 -3.23) (layer F.SilkS) (width 0.12))
    (fp_line (start -3.23 3.23) (end -3.23 3.2) (layer F.SilkS) (width 0.12))
    (fp_line (start 3.23 3.23) (end 3.23 3.2) (layer F.SilkS) (width 0.12))
    (fp_line (start 3.23 -3.23) (end 3.23 -3.2) (layer F.SilkS) (width 0.12))
    (fp_line (start -5 -3.25) (end 5 -3.25) (layer F.CrtYd) (width 0.05))
    (fp_line (start -5 3.25) (end 5 3.25) (layer F.CrtYd) (width 0.05))
    (fp_line (start -5 -3.25) (end -5 3.25) (layer F.CrtYd) (width 0.05))
    (fp_line (start 5 3.25) (end 5 -3.25) (layer F.CrtYd) (width 0.05))
    (fp_line (start 3 -3) (end -3 -3) (layer F.Fab) (width 0.1))
    (fp_line (start 3 3) (end 3 -3) (layer F.Fab) (width 0.1))
    (fp_line (start -3 3) (end 3 3) (layer F.Fab) (width 0.1))
    (fp_line (start -3 -3) (end -3 3) (layer F.Fab) (width 0.1))
    (fp_text user %R (at 0 -4.05 90) (layer F.Fab)
      (effects (font (size 1 1) (thickness 0.15)))
    )
    (pad 2 smd rect (at 3.975 2.25 270) (size 1.55 1.3) (layers F.Cu F.Paste F.Mask)
      (net 18 GPIO19))
    (pad 1 smd rect (at 3.975 -2.25 270) (size 1.55 1.3) (layers F.Cu F.Paste F.Mask)
      (net 1 GND))
    (pad 1 smd rect (at -3.975 -2.25 270) (size 1.55 1.3) (layers F.Cu F.Paste F.Mask)
      (net 1 GND))
    (pad 2 smd rect (at -3.975 2.25 270) (size 1.55 1.3) (layers F.Cu F.Paste F.Mask)
      (net 18 GPIO19))
    (model ${KISYS3DMOD}/Button_Switch_SMD.3dshapes/SW_PUSH_6mm_H9.5mm.wrl
      (at (xyz 0 0 0))
      (scale (xyz 1 1 1))
      (rotate (xyz 0 0 0))
    )
  )

  (module Button_Switch_SMD:SW_Push_1P1T_NO_6x6mm_H9.5mm (layer F.Cu) (tedit 5CA1CA7F) (tstamp 618C9941)
    (at 53 -6.5 270)
    (descr "tactile push button, 6x6mm e.g. PTS645xx series, height=9.5mm")
    (tags "tact sw push 6mm smd")
    (path /61894C3B)
    (attr smd)
    (fp_text reference SW5 (at 0 -4.05 90) (layer F.SilkS)
      (effects (font (size 1 1) (thickness 0.15)))
    )
    (fp_text value SW_Push (at 0 4.15 90) (layer F.Fab)
      (effects (font (size 1 1) (thickness 0.15)))
    )
    (fp_line (start -3 -3) (end -3 3) (layer F.Fab) (width 0.1))
    (fp_line (start -3 3) (end 3 3) (layer F.Fab) (width 0.1))
    (fp_line (start 3 3) (end 3 -3) (layer F.Fab) (width 0.1))
    (fp_line (start 3 -3) (end -3 -3) (layer F.Fab) (width 0.1))
    (fp_line (start 5 3.25) (end 5 -3.25) (layer F.CrtYd) (width 0.05))
    (fp_line (start -5 -3.25) (end -5 3.25) (layer F.CrtYd) (width 0.05))
    (fp_line (start -5 3.25) (end 5 3.25) (layer F.CrtYd) (width 0.05))
    (fp_line (start -5 -3.25) (end 5 -3.25) (layer F.CrtYd) (width 0.05))
    (fp_line (start 3.23 -3.23) (end 3.23 -3.2) (layer F.SilkS) (width 0.12))
    (fp_line (start 3.23 3.23) (end 3.23 3.2) (layer F.SilkS) (width 0.12))
    (fp_line (start -3.23 3.23) (end -3.23 3.2) (layer F.SilkS) (width 0.12))
    (fp_line (start -3.23 -3.2) (end -3.23 -3.23) (layer F.SilkS) (width 0.12))
    (fp_line (start 3.23 -1.3) (end 3.23 1.3) (layer F.SilkS) (width 0.12))
    (fp_line (start -3.23 -3.23) (end 3.23 -3.23) (layer F.SilkS) (width 0.12))
    (fp_line (start -3.23 -1.3) (end -3.23 1.3) (layer F.SilkS) (width 0.12))
    (fp_line (start -3.23 3.23) (end 3.23 3.23) (layer F.SilkS) (width 0.12))
    (fp_circle (center 0 0) (end 1.75 -0.05) (layer F.Fab) (width 0.1))
    (fp_text user %R (at 0 -4.05 90) (layer F.Fab)
      (effects (font (size 1 1) (thickness 0.15)))
    )
    (pad 2 smd rect (at -3.975 2.25 270) (size 1.55 1.3) (layers F.Cu F.Paste F.Mask)
      (net 19 GPIO26))
    (pad 1 smd rect (at -3.975 -2.25 270) (size 1.55 1.3) (layers F.Cu F.Paste F.Mask)
      (net 1 GND))
    (pad 1 smd rect (at 3.975 -2.25 270) (size 1.55 1.3) (layers F.Cu F.Paste F.Mask)
      (net 1 GND))
    (pad 2 smd rect (at 3.975 2.25 270) (size 1.55 1.3) (layers F.Cu F.Paste F.Mask)
      (net 19 GPIO26))
    (model ${KISYS3DMOD}/Button_Switch_SMD.3dshapes/SW_PUSH_6mm_H9.5mm.wrl
      (at (xyz 0 0 0))
      (scale (xyz 1 1 1))
      (rotate (xyz 0 0 0))
    )
  )

  (module Connector_PinHeader_2.54mm:PinHeader_2x20_P2.54mm_Vertical (layer F.Cu) (tedit 59FED5CC) (tstamp 618CAACF)
    (at 8.5 -54 90)
    (descr "Through hole straight pin header, 2x20, 2.54mm pitch, double rows")
    (tags "Through hole pin header THT 2x20 2.54mm double row")
    (path /618DD4B3)
    (fp_text reference J1 (at 1.27 -2.33 90) (layer F.SilkS)
      (effects (font (size 1 1) (thickness 0.15)))
    )
    (fp_text value Conn_02x20_Odd_Even (at 1.27 50.59 90) (layer F.Fab)
      (effects (font (size 1 1) (thickness 0.15)))
    )
    (fp_line (start 0 -1.27) (end 3.81 -1.27) (layer F.Fab) (width 0.1))
    (fp_line (start 3.81 -1.27) (end 3.81 49.53) (layer F.Fab) (width 0.1))
    (fp_line (start 3.81 49.53) (end -1.27 49.53) (layer F.Fab) (width 0.1))
    (fp_line (start -1.27 49.53) (end -1.27 0) (layer F.Fab) (width 0.1))
    (fp_line (start -1.27 0) (end 0 -1.27) (layer F.Fab) (width 0.1))
    (fp_line (start -1.33 49.59) (end 3.87 49.59) (layer F.SilkS) (width 0.12))
    (fp_line (start -1.33 1.27) (end -1.33 49.59) (layer F.SilkS) (width 0.12))
    (fp_line (start 3.87 -1.33) (end 3.87 49.59) (layer F.SilkS) (width 0.12))
    (fp_line (start -1.33 1.27) (end 1.27 1.27) (layer F.SilkS) (width 0.12))
    (fp_line (start 1.27 1.27) (end 1.27 -1.33) (layer F.SilkS) (width 0.12))
    (fp_line (start 1.27 -1.33) (end 3.87 -1.33) (layer F.SilkS) (width 0.12))
    (fp_line (start -1.33 0) (end -1.33 -1.33) (layer F.SilkS) (width 0.12))
    (fp_line (start -1.33 -1.33) (end 0 -1.33) (layer F.SilkS) (width 0.12))
    (fp_line (start -1.8 -1.8) (end -1.8 50.05) (layer F.CrtYd) (width 0.05))
    (fp_line (start -1.8 50.05) (end 4.35 50.05) (layer F.CrtYd) (width 0.05))
    (fp_line (start 4.35 50.05) (end 4.35 -1.8) (layer F.CrtYd) (width 0.05))
    (fp_line (start 4.35 -1.8) (end -1.8 -1.8) (layer F.CrtYd) (width 0.05))
    (fp_text user %R (at 1.27 24.13) (layer F.Fab)
      (effects (font (size 1 1) (thickness 0.15)))
    )
    (pad 1 thru_hole rect (at 0 0 90) (size 1.7 1.7) (drill 1) (layers *.Cu *.Mask)
      (net 8 "Net-(J1-Pad1)"))
    (pad 2 thru_hole oval (at 2.54 0 90) (size 1.7 1.7) (drill 1) (layers *.Cu *.Mask)
      (net 2 5V1))
    (pad 3 thru_hole oval (at 0 2.54 90) (size 1.7 1.7) (drill 1) (layers *.Cu *.Mask)
      (net 9 "Net-(J1-Pad3)"))
    (pad 4 thru_hole oval (at 2.54 2.54 90) (size 1.7 1.7) (drill 1) (layers *.Cu *.Mask)
      (net 20 5V2))
    (pad 5 thru_hole oval (at 0 5.08 90) (size 1.7 1.7) (drill 1) (layers *.Cu *.Mask)
      (net 10 "Net-(J1-Pad5)"))
    (pad 6 thru_hole oval (at 2.54 5.08 90) (size 1.7 1.7) (drill 1) (layers *.Cu *.Mask)
      (net 1 GND))
    (pad 7 thru_hole oval (at 0 7.62 90) (size 1.7 1.7) (drill 1) (layers *.Cu *.Mask)
      (net 11 "Net-(J1-Pad7)"))
    (pad 8 thru_hole oval (at 2.54 7.62 90) (size 1.7 1.7) (drill 1) (layers *.Cu *.Mask)
      (net 21 TXD))
    (pad 9 thru_hole oval (at 0 10.16 90) (size 1.7 1.7) (drill 1) (layers *.Cu *.Mask)
      (net 12 "Net-(J1-Pad9)"))
    (pad 10 thru_hole oval (at 2.54 10.16 90) (size 1.7 1.7) (drill 1) (layers *.Cu *.Mask)
      (net 22 RXD))
    (pad 11 thru_hole oval (at 0 12.7 90) (size 1.7 1.7) (drill 1) (layers *.Cu *.Mask)
      (net 13 "Net-(J1-Pad11)"))
    (pad 12 thru_hole oval (at 2.54 12.7 90) (size 1.7 1.7) (drill 1) (layers *.Cu *.Mask)
      (net 23 GPIO18))
    (pad 13 thru_hole oval (at 0 15.24 90) (size 1.7 1.7) (drill 1) (layers *.Cu *.Mask)
      (net 14 "Net-(J1-Pad13)"))
    (pad 14 thru_hole oval (at 2.54 15.24 90) (size 1.7 1.7) (drill 1) (layers *.Cu *.Mask)
      (net 1 GND))
    (pad 15 thru_hole oval (at 0 17.78 90) (size 1.7 1.7) (drill 1) (layers *.Cu *.Mask)
      (net 38 "Net-(J1-Pad15)"))
    (pad 16 thru_hole oval (at 2.54 17.78 90) (size 1.7 1.7) (drill 1) (layers *.Cu *.Mask)
      (net 24 GPIO23))
    (pad 17 thru_hole oval (at 0 20.32 90) (size 1.7 1.7) (drill 1) (layers *.Cu *.Mask)
      (net 39 "Net-(J1-Pad17)"))
    (pad 18 thru_hole oval (at 2.54 20.32 90) (size 1.7 1.7) (drill 1) (layers *.Cu *.Mask)
      (net 25 GPIO24))
    (pad 19 thru_hole oval (at 0 22.86 90) (size 1.7 1.7) (drill 1) (layers *.Cu *.Mask)
      (net 40 "Net-(J1-Pad19)"))
    (pad 20 thru_hole oval (at 2.54 22.86 90) (size 1.7 1.7) (drill 1) (layers *.Cu *.Mask)
      (net 1 GND))
    (pad 21 thru_hole oval (at 0 25.4 90) (size 1.7 1.7) (drill 1) (layers *.Cu *.Mask)
      (net 41 "Net-(J1-Pad21)"))
    (pad 22 thru_hole oval (at 2.54 25.4 90) (size 1.7 1.7) (drill 1) (layers *.Cu *.Mask)
      (net 26 GPIO25))
    (pad 23 thru_hole oval (at 0 27.94 90) (size 1.7 1.7) (drill 1) (layers *.Cu *.Mask)
      (net 42 "Net-(J1-Pad23)"))
    (pad 24 thru_hole oval (at 2.54 27.94 90) (size 1.7 1.7) (drill 1) (layers *.Cu *.Mask)
      (net 27 CE0))
    (pad 25 thru_hole oval (at 0 30.48 90) (size 1.7 1.7) (drill 1) (layers *.Cu *.Mask)
      (net 43 "Net-(J1-Pad25)"))
    (pad 26 thru_hole oval (at 2.54 30.48 90) (size 1.7 1.7) (drill 1) (layers *.Cu *.Mask)
      (net 28 CE1))
    (pad 27 thru_hole oval (at 0 33.02 90) (size 1.7 1.7) (drill 1) (layers *.Cu *.Mask)
      (net 44 "Net-(J1-Pad27)"))
    (pad 28 thru_hole oval (at 2.54 33.02 90) (size 1.7 1.7) (drill 1) (layers *.Cu *.Mask)
      (net 45 "Net-(J1-Pad28)"))
    (pad 29 thru_hole oval (at 0 35.56 90) (size 1.7 1.7) (drill 1) (layers *.Cu *.Mask)
      (net 15 GPIO5))
    (pad 30 thru_hole oval (at 2.54 35.56 90) (size 1.7 1.7) (drill 1) (layers *.Cu *.Mask)
      (net 46 "Net-(J1-Pad30)"))
    (pad 31 thru_hole oval (at 0 38.1 90) (size 1.7 1.7) (drill 1) (layers *.Cu *.Mask)
      (net 16 GPIO6))
    (pad 32 thru_hole oval (at 2.54 38.1 90) (size 1.7 1.7) (drill 1) (layers *.Cu *.Mask)
      (net 47 "Net-(J1-Pad32)"))
    (pad 33 thru_hole oval (at 0 40.64 90) (size 1.7 1.7) (drill 1) (layers *.Cu *.Mask)
      (net 17 GPIO13))
    (pad 34 thru_hole oval (at 2.54 40.64 90) (size 1.7 1.7) (drill 1) (layers *.Cu *.Mask)
      (net 29 "Net-(J1-Pad34)"))
    (pad 35 thru_hole oval (at 0 43.18 90) (size 1.7 1.7) (drill 1) (layers *.Cu *.Mask)
      (net 18 GPIO19))
    (pad 36 thru_hole oval (at 2.54 43.18 90) (size 1.7 1.7) (drill 1) (layers *.Cu *.Mask)
      (net 30 "Net-(J1-Pad36)"))
    (pad 37 thru_hole oval (at 0 45.72 90) (size 1.7 1.7) (drill 1) (layers *.Cu *.Mask)
      (net 19 GPIO26))
    (pad 38 thru_hole oval (at 2.54 45.72 90) (size 1.7 1.7) (drill 1) (layers *.Cu *.Mask)
      (net 31 "Net-(J1-Pad38)"))
    (pad 39 thru_hole oval (at 0 48.26 90) (size 1.7 1.7) (drill 1) (layers *.Cu *.Mask)
      (net 1 GND))
    (pad 40 thru_hole oval (at 2.54 48.26 90) (size 1.7 1.7) (drill 1) (layers *.Cu *.Mask)
      (net 32 "Net-(J1-Pad40)"))
    (model ${KISYS3DMOD}/Connector_PinHeader_2.54mm.3dshapes/PinHeader_2x20_P2.54mm_Vertical.wrl
      (at (xyz 0 0 0))
      (scale (xyz 1 1 1))
      (rotate (xyz 0 0 0))
    )
  )

  (module LED_SMD:LED_Cree-PLCC4_5x5mm_CW (layer F.Cu) (tedit 59D41639) (tstamp 618CAEE5)
    (at 6.5 -47.5 180)
    (descr "5.0mm x 5.0mm PLCC4 LED")
    (tags "LED Cree PLCC-4")
    (path /618F4614)
    (attr smd)
    (fp_text reference D1 (at 0 -3.5) (layer F.SilkS)
      (effects (font (size 1 1) (thickness 0.15)))
    )
    (fp_text value APA-106-F5 (at 0 4) (layer F.Fab)
      (effects (font (size 1 1) (thickness 0.15)))
    )
    (fp_line (start 3.75 -2.85) (end -3.75 -2.85) (layer F.CrtYd) (width 0.05))
    (fp_line (start 3.75 2.85) (end 3.75 -2.85) (layer F.CrtYd) (width 0.05))
    (fp_line (start -3.75 2.85) (end 3.75 2.85) (layer F.CrtYd) (width 0.05))
    (fp_line (start -3.75 -2.85) (end -3.75 2.85) (layer F.CrtYd) (width 0.05))
    (fp_line (start -1.5 -2.5) (end -2.5 -1.5) (layer F.Fab) (width 0.1))
    (fp_line (start -2.5 -2.5) (end -2.5 2.5) (layer F.Fab) (width 0.1))
    (fp_line (start -2.5 2.5) (end 2.5 2.5) (layer F.Fab) (width 0.1))
    (fp_line (start 2.5 2.5) (end 2.5 -2.5) (layer F.Fab) (width 0.1))
    (fp_line (start 2.5 -2.5) (end -2.5 -2.5) (layer F.Fab) (width 0.1))
    (fp_line (start -3.5 -2.6) (end 3.5 -2.6) (layer F.SilkS) (width 0.12))
    (fp_line (start -3.5 2.6) (end 3.5 2.6) (layer F.SilkS) (width 0.12))
    (fp_line (start -3.5 -1.6) (end -3.5 -2.6) (layer F.SilkS) (width 0.12))
    (fp_circle (center 0 0) (end 0 -2) (layer F.Fab) (width 0.1))
    (fp_text user %R (at 0 0) (layer F.Fab)
      (effects (font (size 1 1) (thickness 0.1)))
    )
    (pad 3 smd rect (at 2.5 1.6 180) (size 1.6 1) (layers F.Cu F.Paste F.Mask)
      (net 2 5V1))
    (pad 2 smd rect (at 2.5 -1.6 180) (size 1.6 1) (layers F.Cu F.Paste F.Mask)
      (net 5 "Net-(D1-Pad2)"))
    (pad 4 smd rect (at -2.5 1.6 180) (size 1.6 1) (layers F.Cu F.Paste F.Mask)
      (net 6 "Net-(D1-Pad4)"))
    (pad 1 smd rect (at -2.5 -1.6 180) (size 1.6 1) (layers F.Cu F.Paste F.Mask)
      (net 1 GND))
    (model ${KISYS3DMOD}/LED_SMD.3dshapes/LED_Cree-PLCC4_5x5mm_CW.wrl
      (at (xyz 0 0 0))
      (scale (xyz 1 1 1))
      (rotate (xyz 0 0 0))
    )
  )

  (module LED_SMD:LED_Cree-PLCC4_5x5mm_CW (layer F.Cu) (tedit 59D41639) (tstamp 618CAEFB)
    (at 6.5 -40 180)
    (descr "5.0mm x 5.0mm PLCC4 LED")
    (tags "LED Cree PLCC-4")
    (path /618F8CDF)
    (attr smd)
    (fp_text reference D2 (at 0 -3.5) (layer F.SilkS)
      (effects (font (size 1 1) (thickness 0.15)))
    )
    (fp_text value APA-106-F5 (at 0 4) (layer F.Fab)
      (effects (font (size 1 1) (thickness 0.15)))
    )
    (fp_circle (center 0 0) (end 0 -2) (layer F.Fab) (width 0.1))
    (fp_line (start -3.5 -1.6) (end -3.5 -2.6) (layer F.SilkS) (width 0.12))
    (fp_line (start -3.5 2.6) (end 3.5 2.6) (layer F.SilkS) (width 0.12))
    (fp_line (start -3.5 -2.6) (end 3.5 -2.6) (layer F.SilkS) (width 0.12))
    (fp_line (start 2.5 -2.5) (end -2.5 -2.5) (layer F.Fab) (width 0.1))
    (fp_line (start 2.5 2.5) (end 2.5 -2.5) (layer F.Fab) (width 0.1))
    (fp_line (start -2.5 2.5) (end 2.5 2.5) (layer F.Fab) (width 0.1))
    (fp_line (start -2.5 -2.5) (end -2.5 2.5) (layer F.Fab) (width 0.1))
    (fp_line (start -1.5 -2.5) (end -2.5 -1.5) (layer F.Fab) (width 0.1))
    (fp_line (start -3.75 -2.85) (end -3.75 2.85) (layer F.CrtYd) (width 0.05))
    (fp_line (start -3.75 2.85) (end 3.75 2.85) (layer F.CrtYd) (width 0.05))
    (fp_line (start 3.75 2.85) (end 3.75 -2.85) (layer F.CrtYd) (width 0.05))
    (fp_line (start 3.75 -2.85) (end -3.75 -2.85) (layer F.CrtYd) (width 0.05))
    (fp_text user %R (at 0 0) (layer F.Fab)
      (effects (font (size 1 1) (thickness 0.1)))
    )
    (pad 1 smd rect (at -2.5 -1.6 180) (size 1.6 1) (layers F.Cu F.Paste F.Mask)
      (net 1 GND))
    (pad 4 smd rect (at -2.5 1.6 180) (size 1.6 1) (layers F.Cu F.Paste F.Mask)
      (net 5 "Net-(D1-Pad2)"))
    (pad 2 smd rect (at 2.5 -1.6 180) (size 1.6 1) (layers F.Cu F.Paste F.Mask)
      (net 7 "Net-(D2-Pad2)"))
    (pad 3 smd rect (at 2.5 1.6 180) (size 1.6 1) (layers F.Cu F.Paste F.Mask)
      (net 3 "Net-(C2-Pad2)"))
    (model ${KISYS3DMOD}/LED_SMD.3dshapes/LED_Cree-PLCC4_5x5mm_CW.wrl
      (at (xyz 0 0 0))
      (scale (xyz 1 1 1))
      (rotate (xyz 0 0 0))
    )
  )

  (module LED_SMD:LED_Cree-PLCC4_5x5mm_CW (layer F.Cu) (tedit 59D41639) (tstamp 618CAF11)
    (at 6.5 -32.5 180)
    (descr "5.0mm x 5.0mm PLCC4 LED")
    (tags "LED Cree PLCC-4")
    (path /618F99CA)
    (attr smd)
    (fp_text reference D3 (at 0 -3.5) (layer F.SilkS)
      (effects (font (size 1 1) (thickness 0.15)))
    )
    (fp_text value APA-106-F5 (at 0 4) (layer F.Fab)
      (effects (font (size 1 1) (thickness 0.15)))
    )
    (fp_line (start 3.75 -2.85) (end -3.75 -2.85) (layer F.CrtYd) (width 0.05))
    (fp_line (start 3.75 2.85) (end 3.75 -2.85) (layer F.CrtYd) (width 0.05))
    (fp_line (start -3.75 2.85) (end 3.75 2.85) (layer F.CrtYd) (width 0.05))
    (fp_line (start -3.75 -2.85) (end -3.75 2.85) (layer F.CrtYd) (width 0.05))
    (fp_line (start -1.5 -2.5) (end -2.5 -1.5) (layer F.Fab) (width 0.1))
    (fp_line (start -2.5 -2.5) (end -2.5 2.5) (layer F.Fab) (width 0.1))
    (fp_line (start -2.5 2.5) (end 2.5 2.5) (layer F.Fab) (width 0.1))
    (fp_line (start 2.5 2.5) (end 2.5 -2.5) (layer F.Fab) (width 0.1))
    (fp_line (start 2.5 -2.5) (end -2.5 -2.5) (layer F.Fab) (width 0.1))
    (fp_line (start -3.5 -2.6) (end 3.5 -2.6) (layer F.SilkS) (width 0.12))
    (fp_line (start -3.5 2.6) (end 3.5 2.6) (layer F.SilkS) (width 0.12))
    (fp_line (start -3.5 -1.6) (end -3.5 -2.6) (layer F.SilkS) (width 0.12))
    (fp_circle (center 0 0) (end 0 -2) (layer F.Fab) (width 0.1))
    (fp_text user %R (at 0 0) (layer F.Fab)
      (effects (font (size 1 1) (thickness 0.1)))
    )
    (pad 3 smd rect (at 2.5 1.6 180) (size 1.6 1) (layers F.Cu F.Paste F.Mask)
      (net 4 "Net-(C3-Pad2)"))
    (pad 2 smd rect (at 2.5 -1.6 180) (size 1.6 1) (layers F.Cu F.Paste F.Mask)
      (net 1 GND))
    (pad 4 smd rect (at -2.5 1.6 180) (size 1.6 1) (layers F.Cu F.Paste F.Mask)
      (net 7 "Net-(D2-Pad2)"))
    (pad 1 smd rect (at -2.5 -1.6 180) (size 1.6 1) (layers F.Cu F.Paste F.Mask)
      (net 1 GND))
    (model ${KISYS3DMOD}/LED_SMD.3dshapes/LED_Cree-PLCC4_5x5mm_CW.wrl
      (at (xyz 0 0 0))
      (scale (xyz 1 1 1))
      (rotate (xyz 0 0 0))
    )
  )

  (gr_arc (start 3.5 -3.5) (end 0 -3.5) (angle -90) (layer Edge.Cuts) (width 0.1))
  (gr_arc (start 3.5 -55) (end 3.5 -58.5) (angle -90) (layer Edge.Cuts) (width 0.1))
  (gr_arc (start 61.5 -55) (end 65 -55) (angle -90) (layer Edge.Cuts) (width 0.1))
  (gr_arc (start 61.5 -3.5) (end 61.5 0) (angle -90) (layer Edge.Cuts) (width 0.1))
  (gr_line (start 3.5 -58.5) (end 61.5 -58.5) (layer Edge.Cuts) (width 0.1))
  (gr_line (start 0 -3.5) (end 0 -55) (layer Edge.Cuts) (width 0.1))
  (gr_line (start 61.5 0) (end 3.5 0) (layer Edge.Cuts) (width 0.1))
  (gr_line (start 65 -55) (end 65 -3.5) (layer Edge.Cuts) (width 0.1))

  (segment (start 31.36 -56.54) (end 31.46 -56.54) (width 0.25) (layer F.Cu) (net 1))
  (segment (start 36.25 -2.525) (end 34.525 -2.525) (width 0.25) (layer F.Cu) (net 1))
  (segment (start 27.25 -2.525) (end 25.525 -2.525) (width 0.25) (layer F.Cu) (net 1))
  (segment (start 34.525 -2.525) (end 34.525 -2.525) (width 0.25) (layer F.Cu) (net 1) (tstamp 618CB3DB))
  (via (at 34.525 -2.525) (size 0.8) (drill 0.4) (layers F.Cu B.Cu) (net 1))
  (segment (start 25.525 -2.525) (end 25.525 -2.525) (width 0.25) (layer F.Cu) (net 1) (tstamp 618CB3DD))
  (via (at 25.525 -2.525) (size 0.8) (drill 0.4) (layers F.Cu B.Cu) (net 1))
  (segment (start 13.015 -47.5) (end 13.015 -48.985) (width 0.25) (layer F.Cu) (net 1))
  (segment (start 13.015 -31) (end 13.015 -32.985) (width 0.25) (layer F.Cu) (net 1))
  (segment (start 13.015 -32.985) (end 13.015 -32.985) (width 0.25) (layer F.Cu) (net 1) (tstamp 618CB3F5))
  (via (at 13.015 -32.985) (size 0.8) (drill 0.4) (layers F.Cu B.Cu) (net 1))
  (segment (start 13.015 -48.985) (end 13.015 -48.985) (width 0.25) (layer F.Cu) (net 1) (tstamp 618CB3F9))
  (via (at 13.015 -48.985) (size 0.8) (drill 0.4) (layers F.Cu B.Cu) (net 1))
  (segment (start 13.015 -39.5) (end 13.015 -40.485) (width 0.25) (layer F.Cu) (net 1))
  (segment (start 13.015 -40.485) (end 13.015 -40.485) (width 0.25) (layer F.Cu) (net 1) (tstamp 618CB438))
  (via (at 13.015 -40.485) (size 0.8) (drill 0.4) (layers F.Cu B.Cu) (net 1))
  (segment (start 9 -45.9) (end 10.6 -45.9) (width 0.25) (layer F.Cu) (net 1))
  (segment (start 10.6 -45.9) (end 11 -45.5) (width 0.25) (layer F.Cu) (net 1))
  (segment (start 11 -45.5) (end 11 -45.5) (width 0.25) (layer F.Cu) (net 1) (tstamp 618CB55C))
  (via (at 11 -45.5) (size 0.8) (drill 0.4) (layers F.Cu B.Cu) (net 1))
  (segment (start 10.93 -38.4) (end 13.015 -40.485) (width 0.25) (layer F.Cu) (net 1))
  (segment (start 9 -38.4) (end 10.93 -38.4) (width 0.25) (layer F.Cu) (net 1))
  (segment (start 4 -30.9) (end 4 -30.5) (width 0.25) (layer F.Cu) (net 1))
  (segment (start 4 -30.5) (end 5.25 -29.25) (width 0.25) (layer F.Cu) (net 1))
  (segment (start 9 -30.9) (end 9 -29) (width 0.25) (layer F.Cu) (net 1))
  (segment (start 9 -29) (end 8.5 -28.5) (width 0.25) (layer F.Cu) (net 1))
  (segment (start 8 -29) (end 5.5 -29) (width 0.25) (layer F.Cu) (net 1))
  (segment (start 8.5 -28.5) (end 8 -29) (width 0.25) (layer F.Cu) (net 1))
  (segment (start 5.25 -29.25) (end 5.5 -29) (width 0.25) (layer F.Cu) (net 1) (tstamp 618CB5A3))
  (via (at 5.25 -29.25) (size 0.8) (drill 0.4) (layers F.Cu B.Cu) (net 1))
  (segment (start 23 -47.5) (end 24.5 -46) (width 0.25) (layer B.Cu) (net 1))
  (segment (start 24.5 -35.92) (end 10.58 -22) (width 0.25) (layer B.Cu) (net 1))
  (segment (start 24.5 -46) (end 24.5 -35.92) (width 0.25) (layer B.Cu) (net 1))
  (segment (start 13.985 -47.5) (end 14 -47.5) (width 0.25) (layer F.Cu) (net 2))
  (segment (start 24 -44) (end 25.54 -45.54) (width 0.25) (layer F.Cu) (net 2))
  (segment (start 25.54 -45.54) (end 25.54 -47.5) (width 0.25) (layer F.Cu) (net 2))
  (segment (start 8.5 -56.54) (end 9.675001 -55.364999) (width 0.25) (layer F.Cu) (net 2))
  (segment (start 9.675001 -50.310001) (end 11.5 -48.485002) (width 0.25) (layer F.Cu) (net 2))
  (segment (start 11.5 -48.485002) (end 11.5 -47) (width 0.25) (layer F.Cu) (net 2))
  (segment (start 11.5 -47) (end 14.5 -44) (width 0.25) (layer F.Cu) (net 2))
  (segment (start 13.985 -47.5) (end 13.985 -46.015) (width 0.25) (layer F.Cu) (net 2))
  (segment (start 16 -44) (end 16.5 -44) (width 0.25) (layer F.Cu) (net 2))
  (segment (start 13.985 -46.015) (end 16 -44) (width 0.25) (layer F.Cu) (net 2))
  (segment (start 14.5 -44) (end 16.5 -44) (width 0.25) (layer F.Cu) (net 2))
  (segment (start 16.5 -44) (end 17 -44) (width 0.25) (layer F.Cu) (net 2))
  (segment (start 51.334999 -40.274999) (end 20.725001 -40.274999) (width 0.25) (layer F.Cu) (net 2))
  (segment (start 58.56 -47.5) (end 51.334999 -40.274999) (width 0.25) (layer F.Cu) (net 2))
  (segment (start 17 -44) (end 24 -44) (width 0.25) (layer F.Cu) (net 2))
  (segment (start 6.518233 -22) (end 19.5 -34.981767) (width 0.25) (layer F.Cu) (net 2))
  (segment (start 5.5 -22) (end 6.518233 -22) (width 0.25) (layer F.Cu) (net 2))
  (segment (start 19.5 -41.5) (end 18.75 -42.25) (width 0.25) (layer F.Cu) (net 2))
  (segment (start 19.5 -34.981767) (end 19.5 -41.5) (width 0.25) (layer F.Cu) (net 2))
  (segment (start 20.725001 -40.274999) (end 18.75 -42.25) (width 0.25) (layer F.Cu) (net 2))
  (segment (start 18.75 -42.25) (end 17 -44) (width 0.25) (layer F.Cu) (net 2))
  (segment (start 4 -49.1) (end 4 -50) (width 0.25) (layer F.Cu) (net 2))
  (segment (start 4 -50) (end 5.5 -51.5) (width 0.25) (layer F.Cu) (net 2))
  (segment (start 9.675001 -55.364999) (end 9.675001 -52.675001) (width 0.25) (layer F.Cu) (net 2))
  (segment (start 8.5 -51.5) (end 9.675001 -52.675001) (width 0.25) (layer F.Cu) (net 2))
  (segment (start 5.5 -51.5) (end 8.5 -51.5) (width 0.25) (layer F.Cu) (net 2))
  (segment (start 9.675001 -52.675001) (end 9.675001 -50.310001) (width 0.25) (layer F.Cu) (net 2))
  (segment (start 13.985 -40.588002) (end 11.073002 -43.5) (width 0.25) (layer F.Cu) (net 3))
  (segment (start 13.985 -39.5) (end 13.985 -40.588002) (width 0.25) (layer F.Cu) (net 3))
  (segment (start 11.073002 -43.5) (end 8.5 -43.5) (width 0.25) (layer F.Cu) (net 3))
  (segment (start 8.5 -43.5) (end 8.5 -43.5) (width 0.25) (layer F.Cu) (net 3) (tstamp 618CB564))
  (via (at 8.5 -43.5) (size 0.8) (drill 0.4) (layers F.Cu B.Cu) (net 3))
  (segment (start 8.5 -43.5) (end 5 -43.5) (width 0.25) (layer B.Cu) (net 3))
  (segment (start 5 -43.5) (end 5 -43.5) (width 0.25) (layer B.Cu) (net 3) (tstamp 618CB56C))
  (via (at 5 -43.5) (size 0.8) (drill 0.4) (layers F.Cu B.Cu) (net 3))
  (segment (start 5 -43.5) (end 4 -42.5) (width 0.25) (layer F.Cu) (net 3))
  (segment (start 4 -42.5) (end 4 -42) (width 0.25) (layer F.Cu) (net 3))
  (segment (start 4 -34.1) (end 4 -34.5) (width 0.25) (layer F.Cu) (net 4))
  (segment (start 4 -34.1) (end 4 -35.5) (width 0.25) (layer F.Cu) (net 4))
  (segment (start 4 -35.5) (end 4.5 -36) (width 0.25) (layer F.Cu) (net 4))
  (segment (start 4.5 -36) (end 4.5 -36) (width 0.25) (layer F.Cu) (net 4) (tstamp 618CB587))
  (via (at 4.5 -36) (size 0.8) (drill 0.4) (layers F.Cu B.Cu) (net 4))
  (segment (start 4.5 -36) (end 8.5 -36) (width 0.25) (layer B.Cu) (net 4))
  (segment (start 8.5 -36) (end 8.5 -36) (width 0.25) (layer B.Cu) (net 4) (tstamp 618CB58F))
  (via (at 8.5 -36) (size 0.8) (drill 0.4) (layers F.Cu B.Cu) (net 4))
  (segment (start 11.073002 -36) (end 14 -33.073002) (width 0.25) (layer F.Cu) (net 4))
  (segment (start 8.5 -36) (end 11.073002 -36) (width 0.25) (layer F.Cu) (net 4))
  (segment (start 14 -31.015) (end 13.985 -31) (width 0.25) (layer F.Cu) (net 4))
  (segment (start 14 -33.073002) (end 14 -31.015) (width 0.25) (layer F.Cu) (net 4))
  (segment (start 4.7 -45.9) (end 9 -41.6) (width 0.25) (layer F.Cu) (net 5))
  (segment (start 4 -45.9) (end 4.7 -45.9) (width 0.25) (layer F.Cu) (net 5))
  (segment (start 8.3 -34.1) (end 4 -38.4) (width 0.25) (layer F.Cu) (net 7))
  (segment (start 9 -34.1) (end 8.3 -34.1) (width 0.25) (layer F.Cu) (net 7))
  (segment (start 41.955001 -51.895001) (end 41.955001 -35.455001) (width 0.25) (layer B.Cu) (net 15))
  (segment (start 44.06 -54) (end 41.955001 -51.895001) (width 0.25) (layer B.Cu) (net 15))
  (segment (start 17.25 -2.525) (end 16.025 -2.525) (width 0.25) (layer F.Cu) (net 15))
  (segment (start 16.025 -2.525) (end 16.025 -2.525) (width 0.25) (layer F.Cu) (net 15) (tstamp 618CB3DF))
  (via (at 16.025 -2.525) (size 0.8) (drill 0.4) (layers F.Cu B.Cu) (net 15))
  (segment (start 41.955001 -35.455001) (end 41.955001 -33.455001) (width 0.25) (layer B.Cu) (net 15))
  (segment (start 41.955001 -33.455001) (end 22 -13.5) (width 0.25) (layer B.Cu) (net 15))
  (segment (start 22 -13.5) (end 19.5 -13.5) (width 0.25) (layer B.Cu) (net 15))
  (segment (start 19.5 -13.5) (end 19.5 -13.5) (width 0.25) (layer B.Cu) (net 15) (tstamp 618CB5D7))
  (via (at 19.5 -13.5) (size 0.8) (drill 0.4) (layers F.Cu B.Cu) (net 15))
  (segment (start 19.5 -12.725) (end 17.25 -10.475) (width 0.25) (layer F.Cu) (net 15))
  (segment (start 19.5 -13.5) (end 19.5 -12.725) (width 0.25) (layer F.Cu) (net 15))
  (segment (start 44.684999 -52.084999) (end 44.684999 -32.684999) (width 0.25) (layer B.Cu) (net 16))
  (segment (start 46.6 -54) (end 44.684999 -52.084999) (width 0.25) (layer B.Cu) (net 16))
  (segment (start 44.684999 -32.684999) (end 24.5 -12.5) (width 0.25) (layer B.Cu) (net 16))
  (segment (start 24.5 -12.5) (end 24.5 -12.5) (width 0.25) (layer B.Cu) (net 16) (tstamp 618CB5D5))
  (via (at 24.5 -12.5) (size 0.8) (drill 0.4) (layers F.Cu B.Cu) (net 16))
  (segment (start 22.75 -10.75) (end 22.75 -10.475) (width 0.25) (layer F.Cu) (net 16))
  (segment (start 24.5 -12.5) (end 22.75 -10.75) (width 0.25) (layer F.Cu) (net 16))
  (segment (start 47.224999 -52.084999) (end 47.224999 -26.224999) (width 0.25) (layer B.Cu) (net 17))
  (segment (start 49.14 -54) (end 47.224999 -52.084999) (width 0.25) (layer B.Cu) (net 17))
  (segment (start 47.224999 -26.224999) (end 33.25 -12.25) (width 0.25) (layer B.Cu) (net 17))
  (segment (start 33.25 -12.25) (end 33 -12) (width 0.25) (layer B.Cu) (net 17) (tstamp 618CB5D3))
  (via (at 33.25 -12.25) (size 0.8) (drill 0.4) (layers F.Cu B.Cu) (net 17))
  (segment (start 33.25 -11.975) (end 31.75 -10.475) (width 0.25) (layer F.Cu) (net 17))
  (segment (start 33.25 -12.25) (end 33.25 -11.975) (width 0.25) (layer F.Cu) (net 17))
  (segment (start 49.764999 -52.084999) (end 49.764999 -19.764999) (width 0.25) (layer B.Cu) (net 18))
  (segment (start 51.68 -54) (end 49.764999 -52.084999) (width 0.25) (layer B.Cu) (net 18))
  (segment (start 40.75 -2.525) (end 39.025 -2.525) (width 0.25) (layer F.Cu) (net 18))
  (segment (start 39.025 -2.525) (end 39.025 -2.525) (width 0.25) (layer F.Cu) (net 18) (tstamp 618CB3D9))
  (via (at 39.025 -2.525) (size 0.8) (drill 0.4) (layers F.Cu B.Cu) (net 18))
  (segment (start 49.764999 -19.764999) (end 42.5 -12.5) (width 0.25) (layer B.Cu) (net 18))
  (segment (start 42.5 -12.5) (end 42.5 -12.5) (width 0.25) (layer B.Cu) (net 18) (tstamp 618CB5D1))
  (via (at 42.5 -12.5) (size 0.8) (drill 0.4) (layers F.Cu B.Cu) (net 18))
  (segment (start 40.75 -10.75) (end 40.75 -10.475) (width 0.25) (layer F.Cu) (net 18))
  (segment (start 42.5 -12.5) (end 40.75 -10.75) (width 0.25) (layer F.Cu) (net 18))
  (segment (start 52.304999 -52.084999) (end 52.304999 -12.304999) (width 0.25) (layer B.Cu) (net 19))
  (segment (start 54.22 -54) (end 52.304999 -52.084999) (width 0.25) (layer B.Cu) (net 19))
  (segment (start 50.75 -2.525) (end 49.025 -2.525) (width 0.25) (layer F.Cu) (net 19))
  (segment (start 49.025 -2.525) (end 49.025 -2.525) (width 0.25) (layer F.Cu) (net 19) (tstamp 618CB3D7))
  (via (at 49.025 -2.525) (size 0.8) (drill 0.4) (layers F.Cu B.Cu) (net 19))
  (segment (start 52.304999 -12.304999) (end 52.304999 -12.304999) (width 0.25) (layer B.Cu) (net 19) (tstamp 618CB5CF))
  (via (at 52.304999 -12.304999) (size 0.8) (drill 0.4) (layers F.Cu B.Cu) (net 19))
  (segment (start 50.75 -10.75) (end 52.304999 -12.304999) (width 0.25) (layer F.Cu) (net 19))
  (segment (start 50.75 -10.475) (end 50.75 -10.75) (width 0.25) (layer F.Cu) (net 19))
  (segment (start 20.024999 -55.364999) (end 20.024999 -50.024999) (width 0.25) (layer F.Cu) (net 23))
  (segment (start 21.2 -56.54) (end 20.024999 -55.364999) (width 0.25) (layer F.Cu) (net 23))
  (segment (start 20.024999 -50.024999) (end 19 -49) (width 0.25) (layer F.Cu) (net 23))
  (segment (start 19 -49) (end 19 -49) (width 0.25) (layer F.Cu) (net 23) (tstamp 618CB367))
  (via (at 19 -49) (size 0.8) (drill 0.4) (layers F.Cu B.Cu) (net 23))
  (segment (start 19 -49) (end 19 -44) (width 0.25) (layer B.Cu) (net 23))
  (segment (start 19 -44) (end 22 -41) (width 0.25) (layer B.Cu) (net 23))
  (segment (start 22 -41) (end 22 -41) (width 0.25) (layer B.Cu) (net 23) (tstamp 618CB36F))
  (via (at 22 -41) (size 0.8) (drill 0.4) (layers F.Cu B.Cu) (net 23))
  (segment (start 49.52 -41) (end 56.02 -47.5) (width 0.25) (layer F.Cu) (net 23))
  (segment (start 22 -41) (end 49.52 -41) (width 0.25) (layer F.Cu) (net 23))
  (segment (start 24.915001 -55.175001) (end 24.915001 -53.415001) (width 0.25) (layer F.Cu) (net 24))
  (segment (start 26.28 -56.54) (end 24.915001 -55.175001) (width 0.25) (layer F.Cu) (net 24))
  (segment (start 24.915001 -53.415001) (end 20.5 -49) (width 0.25) (layer F.Cu) (net 24))
  (segment (start 20.5 -49) (end 20.5 -49) (width 0.25) (layer F.Cu) (net 24) (tstamp 618CB248))
  (via (at 20.5 -49) (size 0.8) (drill 0.4) (layers F.Cu B.Cu) (net 24))
  (segment (start 20.5 -49) (end 20.5 -44.5) (width 0.25) (layer B.Cu) (net 24))
  (segment (start 20.5 -44.5) (end 23 -42) (width 0.25) (layer B.Cu) (net 24))
  (segment (start 23 -42) (end 23 -42) (width 0.25) (layer B.Cu) (net 24) (tstamp 618CB250))
  (via (at 23 -42) (size 0.8) (drill 0.4) (layers F.Cu B.Cu) (net 24))
  (segment (start 47.98 -42) (end 53.48 -47.5) (width 0.25) (layer F.Cu) (net 24))
  (segment (start 23 -42) (end 47.98 -42) (width 0.25) (layer F.Cu) (net 24))
  (segment (start 34.524999 -46.935999) (end 36.960998 -44.5) (width 0.25) (layer F.Cu) (net 25))
  (segment (start 34.524999 -47.874003) (end 34.524999 -46.935999) (width 0.25) (layer F.Cu) (net 25))
  (segment (start 28.82 -56.54) (end 30.184999 -55.175001) (width 0.25) (layer F.Cu) (net 25))
  (segment (start 30.184999 -52.214003) (end 34.524999 -47.874003) (width 0.25) (layer F.Cu) (net 25))
  (segment (start 30.184999 -55.175001) (end 30.184999 -52.214003) (width 0.25) (layer F.Cu) (net 25))
  (segment (start 48.324999 -46.324999) (end 49.764999 -46.324999) (width 0.25) (layer F.Cu) (net 25))
  (segment (start 46.5 -44.5) (end 48.324999 -46.324999) (width 0.25) (layer F.Cu) (net 25))
  (segment (start 49.764999 -46.324999) (end 50.94 -47.5) (width 0.25) (layer F.Cu) (net 25))
  (segment (start 36.960998 -44.5) (end 46.5 -44.5) (width 0.25) (layer F.Cu) (net 25))
  (segment (start 33.9 -56.54) (end 34.46 -56.54) (width 0.25) (layer F.Cu) (net 26))
  (segment (start 42.884999 -53.015001) (end 48.4 -47.5) (width 0.25) (layer F.Cu) (net 26))
  (segment (start 41.145997 -55.175001) (end 42.084001 -55.175001) (width 0.25) (layer F.Cu) (net 26))
  (segment (start 40.344999 -55.975999) (end 41.145997 -55.175001) (width 0.25) (layer F.Cu) (net 26))
  (segment (start 39.544001 -57.715001) (end 40.344999 -56.914003) (width 0.25) (layer F.Cu) (net 26))
  (segment (start 35.075001 -57.715001) (end 39.544001 -57.715001) (width 0.25) (layer F.Cu) (net 26))
  (segment (start 42.884999 -54.374003) (end 42.884999 -53.015001) (width 0.25) (layer F.Cu) (net 26))
  (segment (start 42.084001 -55.175001) (end 42.884999 -54.374003) (width 0.25) (layer F.Cu) (net 26))
  (segment (start 40.344999 -56.914003) (end 40.344999 -55.975999) (width 0.25) (layer F.Cu) (net 26))
  (segment (start 33.9 -56.54) (end 35.075001 -57.715001) (width 0.25) (layer F.Cu) (net 26))
  (segment (start 35.264999 -47.935001) (end 35.7 -47.5) (width 0.25) (layer F.Cu) (net 27))
  (segment (start 35.264999 -55.364999) (end 35.264999 -47.935001) (width 0.25) (layer F.Cu) (net 27))
  (segment (start 36.44 -56.54) (end 35.264999 -55.364999) (width 0.25) (layer F.Cu) (net 27))
  (segment (start 38.98 -56.54) (end 38.98 -56.98) (width 0.25) (layer F.Cu) (net 28))
  (segment (start 38.98 -56.54) (end 38.54 -56.54) (width 0.25) (layer F.Cu) (net 28))
  (segment (start 31.795001 -48.675001) (end 30.62 -47.5) (width 0.25) (layer B.Cu) (net 28))
  (segment (start 32.854003 -48.675001) (end 31.795001 -48.675001) (width 0.25) (layer B.Cu) (net 28))
  (segment (start 37.615001 -53.435999) (end 32.854003 -48.675001) (width 0.25) (layer B.Cu) (net 28))
  (segment (start 37.615001 -54.374003) (end 37.615001 -53.435999) (width 0.25) (layer B.Cu) (net 28))
  (segment (start 38 -54.759002) (end 37.615001 -54.374003) (width 0.25) (layer B.Cu) (net 28))
  (segment (start 38 -55.56) (end 38 -54.759002) (width 0.25) (layer B.Cu) (net 28))
  (segment (start 38.98 -56.54) (end 38 -55.56) (width 0.25) (layer B.Cu) (net 28))
  (segment (start 28.08 -36.96) (end 8.04 -16.92) (width 0.25) (layer B.Cu) (net 33))
  (segment (start 28.08 -47.5) (end 28.08 -36.96) (width 0.25) (layer B.Cu) (net 33))

  (zone (net 1) (net_name GND) (layer B.Cu) (tstamp 61B0F771) (hatch edge 0.508)
    (connect_pads (clearance 0.508))
    (min_thickness 0.254)
    (fill yes (arc_segments 32) (thermal_gap 0.508) (thermal_bridge_width 0.508))
    (polygon
      (pts
        (xy 63 -1.5) (xy 3.5 -1.5) (xy 3.5 -57.5) (xy 63 -57.5)
      )
    )
    (filled_polygon
      (pts
        (xy 7.18401 -57.243411) (xy 7.072068 -56.973158) (xy 7.015 -56.68626) (xy 7.015 -56.39374) (xy 7.072068 -56.106842)
        (xy 7.18401 -55.836589) (xy 7.346525 -55.593368) (xy 7.47838 -55.461513) (xy 7.40582 -55.439502) (xy 7.295506 -55.380537)
        (xy 7.198815 -55.301185) (xy 7.119463 -55.204494) (xy 7.060498 -55.09418) (xy 7.024188 -54.974482) (xy 7.011928 -54.85)
        (xy 7.011928 -53.15) (xy 7.024188 -53.025518) (xy 7.060498 -52.90582) (xy 7.119463 -52.795506) (xy 7.198815 -52.698815)
        (xy 7.295506 -52.619463) (xy 7.40582 -52.560498) (xy 7.525518 -52.524188) (xy 7.65 -52.511928) (xy 9.35 -52.511928)
        (xy 9.474482 -52.524188) (xy 9.59418 -52.560498) (xy 9.704494 -52.619463) (xy 9.801185 -52.698815) (xy 9.880537 -52.795506)
        (xy 9.939502 -52.90582) (xy 9.961513 -52.97838) (xy 10.093368 -52.846525) (xy 10.336589 -52.68401) (xy 10.606842 -52.572068)
        (xy 10.89374 -52.515) (xy 11.18626 -52.515) (xy 11.473158 -52.572068) (xy 11.743411 -52.68401) (xy 11.986632 -52.846525)
        (xy 12.193475 -53.053368) (xy 12.31 -53.22776) (xy 12.426525 -53.053368) (xy 12.633368 -52.846525) (xy 12.876589 -52.68401)
        (xy 13.146842 -52.572068) (xy 13.43374 -52.515) (xy 13.72626 -52.515) (xy 14.013158 -52.572068) (xy 14.283411 -52.68401)
        (xy 14.526632 -52.846525) (xy 14.733475 -53.053368) (xy 14.85 -53.22776) (xy 14.966525 -53.053368) (xy 15.173368 -52.846525)
        (xy 15.416589 -52.68401) (xy 15.686842 -52.572068) (xy 15.97374 -52.515) (xy 16.26626 -52.515) (xy 16.553158 -52.572068)
        (xy 16.823411 -52.68401) (xy 17.066632 -52.846525) (xy 17.273475 -53.053368) (xy 17.39 -53.22776) (xy 17.506525 -53.053368)
        (xy 17.713368 -52.846525) (xy 17.956589 -52.68401) (xy 18.226842 -52.572068) (xy 18.51374 -52.515) (xy 18.80626 -52.515)
        (xy 19.093158 -52.572068) (xy 19.363411 -52.68401) (xy 19.606632 -52.846525) (xy 19.813475 -53.053368) (xy 19.93 -53.22776)
        (xy 20.046525 -53.053368) (xy 20.253368 -52.846525) (xy 20.496589 -52.68401) (xy 20.766842 -52.572068) (xy 21.05374 -52.515)
        (xy 21.34626 -52.515) (xy 21.633158 -52.572068) (xy 21.903411 -52.68401) (xy 22.146632 -52.846525) (xy 22.353475 -53.053368)
        (xy 22.47 -53.22776) (xy 22.586525 -53.053368) (xy 22.793368 -52.846525) (xy 23.036589 -52.68401) (xy 23.306842 -52.572068)
        (xy 23.59374 -52.515) (xy 23.88626 -52.515) (xy 24.173158 -52.572068) (xy 24.443411 -52.68401) (xy 24.686632 -52.846525)
        (xy 24.893475 -53.053368) (xy 25.01 -53.22776) (xy 25.126525 -53.053368) (xy 25.333368 -52.846525) (xy 25.576589 -52.68401)
        (xy 25.846842 -52.572068) (xy 26.13374 -52.515) (xy 26.42626 -52.515) (xy 26.713158 -52.572068) (xy 26.983411 -52.68401)
        (xy 27.226632 -52.846525) (xy 27.433475 -53.053368) (xy 27.55 -53.22776) (xy 27.666525 -53.053368) (xy 27.873368 -52.846525)
        (xy 28.116589 -52.68401) (xy 28.386842 -52.572068) (xy 28.67374 -52.515) (xy 28.96626 -52.515) (xy 29.253158 -52.572068)
        (xy 29.523411 -52.68401) (xy 29.766632 -52.846525) (xy 29.973475 -53.053368) (xy 30.09 -53.22776) (xy 30.206525 -53.053368)
        (xy 30.413368 -52.846525) (xy 30.656589 -52.68401) (xy 30.926842 -52.572068) (xy 31.21374 -52.515) (xy 31.50626 -52.515)
        (xy 31.793158 -52.572068) (xy 32.063411 -52.68401) (xy 32.306632 -52.846525) (xy 32.513475 -53.053368) (xy 32.63 -53.22776)
        (xy 32.746525 -53.053368) (xy 32.953368 -52.846525) (xy 33.196589 -52.68401) (xy 33.466842 -52.572068) (xy 33.75374 -52.515)
        (xy 34.04626 -52.515) (xy 34.333158 -52.572068) (xy 34.603411 -52.68401) (xy 34.846632 -52.846525) (xy 35.053475 -53.053368)
        (xy 35.17 -53.22776) (xy 35.286525 -53.053368) (xy 35.493368 -52.846525) (xy 35.736589 -52.68401) (xy 35.773091 -52.668891)
        (xy 32.539202 -49.435001) (xy 31.832323 -49.435001) (xy 31.795 -49.438677) (xy 31.757677 -49.435001) (xy 31.757668 -49.435001)
        (xy 31.646015 -49.424004) (xy 31.502754 -49.380547) (xy 31.370725 -49.309975) (xy 31.255 -49.215002) (xy 31.231202 -49.186004)
        (xy 30.986408 -48.94121) (xy 30.76626 -48.985) (xy 30.47374 -48.985) (xy 30.186842 -48.927932) (xy 29.916589 -48.81599)
        (xy 29.673368 -48.653475) (xy 29.466525 -48.446632) (xy 29.35 -48.27224) (xy 29.233475 -48.446632) (xy 29.026632 -48.653475)
        (xy 28.783411 -48.81599) (xy 28.513158 -48.927932) (xy 28.22626 -48.985) (xy 27.93374 -48.985) (xy 27.646842 -48.927932)
        (xy 27.376589 -48.81599) (xy 27.133368 -48.653475) (xy 26.926525 -48.446632) (xy 26.81 -48.27224) (xy 26.693475 -48.446632)
        (xy 26.486632 -48.653475) (xy 26.243411 -48.81599) (xy 25.973158 -48.927932) (xy 25.68626 -48.985) (xy 25.39374 -48.985)
        (xy 25.106842 -48.927932) (xy 24.836589 -48.81599) (xy 24.593368 -48.653475) (xy 24.461513 -48.52162) (xy 24.439502 -48.59418)
        (xy 24.380537 -48.704494) (xy 24.301185 -48.801185) (xy 24.204494 -48.880537) (xy 24.09418 -48.939502) (xy 23.974482 -48.975812)
        (xy 23.85 -48.988072) (xy 23.28575 -48.985) (xy 23.127 -48.82625) (xy 23.127 -47.627) (xy 23.147 -47.627)
        (xy 23.147 -47.373) (xy 23.127 -47.373) (xy 23.127 -46.17375) (xy 23.28575 -46.015) (xy 23.85 -46.011928)
        (xy 23.974482 -46.024188) (xy 24.09418 -46.060498) (xy 24.204494 -46.119463) (xy 24.301185 -46.198815) (xy 24.380537 -46.295506)
        (xy 24.439502 -46.40582) (xy 24.461513 -46.47838) (xy 24.593368 -46.346525) (xy 24.836589 -46.18401) (xy 25.106842 -46.072068)
        (xy 25.39374 -46.015) (xy 25.68626 -46.015) (xy 25.973158 -46.072068) (xy 26.243411 -46.18401) (xy 26.486632 -46.346525)
        (xy 26.693475 -46.553368) (xy 26.81 -46.72776) (xy 26.926525 -46.553368) (xy 27.133368 -46.346525) (xy 27.32 -46.221821)
        (xy 27.320001 -37.274803) (xy 11.931295 -21.886096) (xy 11.939561 -22.07368) (xy 11.899063 -22.337501) (xy 11.807875 -22.588353)
        (xy 11.751368 -22.694068) (xy 11.51556 -22.755955) (xy 10.759605 -22) (xy 10.773748 -21.985858) (xy 10.594143 -21.806253)
        (xy 10.58 -21.820395) (xy 9.824045 -21.06444) (xy 9.885932 -20.828632) (xy 10.12779 -20.715734) (xy 10.387027 -20.652189)
        (xy 10.65368 -20.640439) (xy 10.691433 -20.646234) (xy 8.295853 -18.250654) (xy 8.173456 -18.275) (xy 7.906544 -18.275)
        (xy 7.644761 -18.222928) (xy 7.398167 -18.120785) (xy 7.176238 -17.972497) (xy 6.987503 -17.783762) (xy 6.839215 -17.561833)
        (xy 6.737072 -17.315239) (xy 6.685 -17.053456) (xy 6.685 -16.786544) (xy 6.737072 -16.524761) (xy 6.839215 -16.278167)
        (xy 6.987503 -16.056238) (xy 7.176238 -15.867503) (xy 7.398167 -15.719215) (xy 7.644761 -15.617072) (xy 7.906544 -15.565)
        (xy 8.173456 -15.565) (xy 8.435239 -15.617072) (xy 8.681833 -15.719215) (xy 8.903762 -15.867503) (xy 9.092497 -16.056238)
        (xy 9.240785 -16.278167) (xy 9.342928 -16.524761) (xy 9.395 -16.786544) (xy 9.395 -17.053456) (xy 9.370654 -17.175853)
        (xy 28.591003 -36.396201) (xy 28.620001 -36.419999) (xy 28.714974 -36.535724) (xy 28.785546 -36.667753) (xy 28.829003 -36.811014)
        (xy 28.84 -36.922667) (xy 28.84 -36.922675) (xy 28.843676 -36.96) (xy 28.84 -36.997325) (xy 28.84 -46.221822)
        (xy 29.026632 -46.346525) (xy 29.233475 -46.553368) (xy 29.35 -46.72776) (xy 29.466525 -46.553368) (xy 29.673368 -46.346525)
        (xy 29.916589 -46.18401) (xy 30.186842 -46.072068) (xy 30.47374 -46.015) (xy 30.76626 -46.015) (xy 31.053158 -46.072068)
        (xy 31.323411 -46.18401) (xy 31.566632 -46.346525) (xy 31.773475 -46.553368) (xy 31.895195 -46.735534) (xy 31.964822 -46.618645)
        (xy 32.159731 -46.402412) (xy 32.39308 -46.228359) (xy 32.655901 -46.103175) (xy 32.80311 -46.058524) (xy 33.033 -46.179845)
        (xy 33.033 -47.373) (xy 33.013 -47.373) (xy 33.013 -47.627) (xy 33.033 -47.627) (xy 33.033 -47.647)
        (xy 33.287 -47.647) (xy 33.287 -47.627) (xy 33.307 -47.627) (xy 33.307 -47.373) (xy 33.287 -47.373)
        (xy 33.287 -46.179845) (xy 33.51689 -46.058524) (xy 33.664099 -46.103175) (xy 33.92692 -46.228359) (xy 34.160269 -46.402412)
        (xy 34.355178 -46.618645) (xy 34.424805 -46.735534) (xy 34.546525 -46.553368) (xy 34.753368 -46.346525) (xy 34.996589 -46.18401)
        (xy 35.266842 -46.072068) (xy 35.55374 -46.015) (xy 35.84626 -46.015) (xy 36.133158 -46.072068) (xy 36.403411 -46.18401)
        (xy 36.646632 -46.346525) (xy 36.853475 -46.553368) (xy 36.97 -46.72776) (xy 37.086525 -46.553368) (xy 37.293368 -46.346525)
        (xy 37.536589 -46.18401) (xy 37.806842 -46.072068) (xy 38.09374 -46.015) (xy 38.38626 -46.015) (xy 38.673158 -46.072068)
        (xy 38.943411 -46.18401) (xy 39.186632 -46.346525) (xy 39.393475 -46.553368) (xy 39.51 -46.72776) (xy 39.626525 -46.553368)
        (xy 39.833368 -46.346525) (xy 40.076589 -46.18401) (xy 40.346842 -46.072068) (xy 40.63374 -46.015) (xy 40.92626 -46.015)
        (xy 41.195001 -46.068456) (xy 41.195002 -35.492343) (xy 41.195001 -35.492333) (xy 41.195002 -33.769804) (xy 21.685199 -14.26)
        (xy 20.203711 -14.26) (xy 20.159774 -14.303937) (xy 19.990256 -14.417205) (xy 19.801898 -14.495226) (xy 19.601939 -14.535)
        (xy 19.398061 -14.535) (xy 19.198102 -14.495226) (xy 19.009744 -14.417205) (xy 18.840226 -14.303937) (xy 18.696063 -14.159774)
        (xy 18.582795 -13.990256) (xy 18.504774 -13.801898) (xy 18.465 -13.601939) (xy 18.465 -13.398061) (xy 18.504774 -13.198102)
        (xy 18.582795 -13.009744) (xy 18.696063 -12.840226) (xy 18.840226 -12.696063) (xy 19.009744 -12.582795) (xy 19.198102 -12.504774)
        (xy 19.398061 -12.465) (xy 19.601939 -12.465) (xy 19.801898 -12.504774) (xy 19.990256 -12.582795) (xy 20.159774 -12.696063)
        (xy 20.203711 -12.74) (xy 21.962678 -12.74) (xy 22 -12.736324) (xy 22.037322 -12.74) (xy 22.037333 -12.74)
        (xy 22.148986 -12.750997) (xy 22.292247 -12.794454) (xy 22.424276 -12.865026) (xy 22.540001 -12.959999) (xy 22.563804 -12.989003)
        (xy 42.466004 -32.891202) (xy 42.495002 -32.915) (xy 42.546085 -32.977245) (xy 42.589975 -33.030724) (xy 42.660547 -33.162754)
        (xy 42.679428 -33.224999) (xy 42.704004 -33.306015) (xy 42.715001 -33.417668) (xy 42.715001 -33.417677) (xy 42.718677 -33.455)
        (xy 42.715001 -33.492323) (xy 42.715001 -46.143247) (xy 42.886842 -46.072068) (xy 43.17374 -46.015) (xy 43.46626 -46.015)
        (xy 43.753158 -46.072068) (xy 43.924999 -46.143247) (xy 43.925 -32.999802) (xy 24.460199 -13.535) (xy 24.398061 -13.535)
        (xy 24.198102 -13.495226) (xy 24.009744 -13.417205) (xy 23.840226 -13.303937) (xy 23.696063 -13.159774) (xy 23.582795 -12.990256)
        (xy 23.504774 -12.801898) (xy 23.465 -12.601939) (xy 23.465 -12.398061) (xy 23.504774 -12.198102) (xy 23.582795 -12.009744)
        (xy 23.696063 -11.840226) (xy 23.840226 -11.696063) (xy 24.009744 -11.582795) (xy 24.198102 -11.504774) (xy 24.398061 -11.465)
        (xy 24.601939 -11.465) (xy 24.801898 -11.504774) (xy 24.990256 -11.582795) (xy 25.159774 -11.696063) (xy 25.303937 -11.840226)
        (xy 25.417205 -12.009744) (xy 25.495226 -12.198102) (xy 25.535 -12.398061) (xy 25.535 -12.460199) (xy 45.196002 -32.1212)
        (xy 45.225 -32.144998) (xy 45.319973 -32.260723) (xy 45.390545 -32.392752) (xy 45.434002 -32.536013) (xy 45.444999 -32.647666)
        (xy 45.444999 -32.647675) (xy 45.448675 -32.684998) (xy 45.444999 -32.722321) (xy 45.444999 -46.068456) (xy 45.71374 -46.015)
        (xy 46.00626 -46.015) (xy 46.293158 -46.072068) (xy 46.464999 -46.143247) (xy 46.465 -26.539802) (xy 33.210199 -13.285)
        (xy 33.148061 -13.285) (xy 32.948102 -13.245226) (xy 32.759744 -13.167205) (xy 32.590226 -13.053937) (xy 32.446063 -12.909774)
        (xy 32.332795 -12.740256) (xy 32.254774 -12.551898) (xy 32.215 -12.351939) (xy 32.215 -12.148061) (xy 32.239015 -12.027326)
        (xy 32.236324 -12) (xy 32.250998 -11.851015) (xy 32.294454 -11.707754) (xy 32.365026 -11.575724) (xy 32.459999 -11.459999)
        (xy 32.575724 -11.365026) (xy 32.707754 -11.294454) (xy 32.851015 -11.250998) (xy 33 -11.236324) (xy 33.027326 -11.239015)
        (xy 33.148061 -11.215) (xy 33.351939 -11.215) (xy 33.551898 -11.254774) (xy 33.740256 -11.332795) (xy 33.909774 -11.446063)
        (xy 34.053937 -11.590226) (xy 34.167205 -11.759744) (xy 34.245226 -11.948102) (xy 34.285 -12.148061) (xy 34.285 -12.210199)
        (xy 47.736002 -25.6612) (xy 47.765 -25.684998) (xy 47.791331 -25.717082) (xy 47.859973 -25.800722) (xy 47.930545 -25.932752)
        (xy 47.974002 -26.076013) (xy 47.984999 -26.187666) (xy 47.984999 -26.187675) (xy 47.988675 -26.224998) (xy 47.984999 -26.262321)
        (xy 47.984999 -46.068456) (xy 48.25374 -46.015) (xy 48.54626 -46.015) (xy 48.833158 -46.072068) (xy 49.004999 -46.143247)
        (xy 49.005 -20.079802) (xy 42.460199 -13.535) (xy 42.398061 -13.535) (xy 42.198102 -13.495226) (xy 42.009744 -13.417205)
        (xy 41.840226 -13.303937) (xy 41.696063 -13.159774) (xy 41.582795 -12.990256) (xy 41.504774 -12.801898) (xy 41.465 -12.601939)
        (xy 41.465 -12.398061) (xy 41.504774 -12.198102) (xy 41.582795 -12.009744) (xy 41.696063 -11.840226) (xy 41.840226 -11.696063)
        (xy 42.009744 -11.582795) (xy 42.198102 -11.504774) (xy 42.398061 -11.465) (xy 42.601939 -11.465) (xy 42.801898 -11.504774)
        (xy 42.990256 -11.582795) (xy 43.159774 -11.696063) (xy 43.303937 -11.840226) (xy 43.417205 -12.009744) (xy 43.495226 -12.198102)
        (xy 43.535 -12.398061) (xy 43.535 -12.460199) (xy 50.276002 -19.2012) (xy 50.305 -19.224998) (xy 50.331331 -19.257082)
        (xy 50.399973 -19.340722) (xy 50.470545 -19.472752) (xy 50.514002 -19.616013) (xy 50.524999 -19.727666) (xy 50.524999 -19.727675)
        (xy 50.528675 -19.764998) (xy 50.524999 -19.802321) (xy 50.524999 -46.068456) (xy 50.79374 -46.015) (xy 51.08626 -46.015)
        (xy 51.373158 -46.072068) (xy 51.544999 -46.143247) (xy 51.545 -13.008711) (xy 51.501062 -12.964773) (xy 51.387794 -12.795255)
        (xy 51.309773 -12.606897) (xy 51.269999 -12.406938) (xy 51.269999 -12.20306) (xy 51.309773 -12.003101) (xy 51.387794 -11.814743)
        (xy 51.501062 -11.645225) (xy 51.645225 -11.501062) (xy 51.814743 -11.387794) (xy 52.003101 -11.309773) (xy 52.20306 -11.269999)
        (xy 52.406938 -11.269999) (xy 52.606897 -11.309773) (xy 52.795255 -11.387794) (xy 52.964773 -11.501062) (xy 53.108936 -11.645225)
        (xy 53.222204 -11.814743) (xy 53.300225 -12.003101) (xy 53.339999 -12.20306) (xy 53.339999 -12.406938) (xy 53.300225 -12.606897)
        (xy 53.222204 -12.795255) (xy 53.108936 -12.964773) (xy 53.064999 -13.00871) (xy 53.064999 -46.068456) (xy 53.33374 -46.015)
        (xy 53.62626 -46.015) (xy 53.913158 -46.072068) (xy 54.183411 -46.18401) (xy 54.426632 -46.346525) (xy 54.633475 -46.553368)
        (xy 54.75 -46.72776) (xy 54.866525 -46.553368) (xy 55.073368 -46.346525) (xy 55.316589 -46.18401) (xy 55.586842 -46.072068)
        (xy 55.87374 -46.015) (xy 56.16626 -46.015) (xy 56.453158 -46.072068) (xy 56.723411 -46.18401) (xy 56.966632 -46.346525)
        (xy 57.173475 -46.553368) (xy 57.29 -46.72776) (xy 57.406525 -46.553368) (xy 57.613368 -46.346525) (xy 57.856589 -46.18401)
        (xy 58.126842 -46.072068) (xy 58.41374 -46.015) (xy 58.70626 -46.015) (xy 58.993158 -46.072068) (xy 59.263411 -46.18401)
        (xy 59.506632 -46.346525) (xy 59.713475 -46.553368) (xy 59.835195 -46.735534) (xy 59.904822 -46.618645) (xy 60.099731 -46.402412)
        (xy 60.33308 -46.228359) (xy 60.595901 -46.103175) (xy 60.74311 -46.058524) (xy 60.973 -46.179845) (xy 60.973 -47.373)
        (xy 61.227 -47.373) (xy 61.227 -46.179845) (xy 61.45689 -46.058524) (xy 61.604099 -46.103175) (xy 61.86692 -46.228359)
        (xy 62.100269 -46.402412) (xy 62.295178 -46.618645) (xy 62.444157 -46.868748) (xy 62.541481 -47.143109) (xy 62.420814 -47.373)
        (xy 61.227 -47.373) (xy 60.973 -47.373) (xy 60.953 -47.373) (xy 60.953 -47.627) (xy 60.973 -47.627)
        (xy 60.973 -48.820155) (xy 61.227 -48.820155) (xy 61.227 -47.627) (xy 62.420814 -47.627) (xy 62.541481 -47.856891)
        (xy 62.444157 -48.131252) (xy 62.295178 -48.381355) (xy 62.100269 -48.597588) (xy 61.86692 -48.771641) (xy 61.604099 -48.896825)
        (xy 61.45689 -48.941476) (xy 61.227 -48.820155) (xy 60.973 -48.820155) (xy 60.74311 -48.941476) (xy 60.595901 -48.896825)
        (xy 60.33308 -48.771641) (xy 60.099731 -48.597588) (xy 59.904822 -48.381355) (xy 59.835195 -48.264466) (xy 59.713475 -48.446632)
        (xy 59.506632 -48.653475) (xy 59.263411 -48.81599) (xy 58.993158 -48.927932) (xy 58.70626 -48.985) (xy 58.41374 -48.985)
        (xy 58.126842 -48.927932) (xy 57.856589 -48.81599) (xy 57.613368 -48.653475) (xy 57.406525 -48.446632) (xy 57.29 -48.27224)
        (xy 57.173475 -48.446632) (xy 56.966632 -48.653475) (xy 56.723411 -48.81599) (xy 56.453158 -48.927932) (xy 56.16626 -48.985)
        (xy 55.87374 -48.985) (xy 55.586842 -48.927932) (xy 55.316589 -48.81599) (xy 55.073368 -48.653475) (xy 54.866525 -48.446632)
        (xy 54.75 -48.27224) (xy 54.633475 -48.446632) (xy 54.426632 -48.653475) (xy 54.183411 -48.81599) (xy 53.913158 -48.927932)
        (xy 53.62626 -48.985) (xy 53.33374 -48.985) (xy 53.064999 -48.931544) (xy 53.064999 -51.770198) (xy 53.853592 -52.55879)
        (xy 54.07374 -52.515) (xy 54.36626 -52.515) (xy 54.653158 -52.572068) (xy 54.923411 -52.68401) (xy 55.166632 -52.846525)
        (xy 55.373475 -53.053368) (xy 55.495195 -53.235534) (xy 55.564822 -53.118645) (xy 55.759731 -52.902412) (xy 55.99308 -52.728359)
        (xy 56.255901 -52.603175) (xy 56.40311 -52.558524) (xy 56.633 -52.679845) (xy 56.633 -53.873) (xy 56.887 -53.873)
        (xy 56.887 -52.679845) (xy 57.11689 -52.558524) (xy 57.264099 -52.603175) (xy 57.52692 -52.728359) (xy 57.760269 -52.902412)
        (xy 57.955178 -53.118645) (xy 58.104157 -53.368748) (xy 58.201481 -53.643109) (xy 58.080814 -53.873) (xy 56.887 -53.873)
        (xy 56.633 -53.873) (xy 56.613 -53.873) (xy 56.613 -54.127) (xy 56.633 -54.127) (xy 56.633 -54.147)
        (xy 56.887 -54.147) (xy 56.887 -54.127) (xy 58.080814 -54.127) (xy 58.201481 -54.356891) (xy 58.104157 -54.631252)
        (xy 57.955178 -54.881355) (xy 57.760269 -55.097588) (xy 57.530594 -55.2689) (xy 57.706632 -55.386525) (xy 57.913475 -55.593368)
        (xy 58.07599 -55.836589) (xy 58.187932 -56.106842) (xy 58.245 -56.39374) (xy 58.245 -56.68626) (xy 58.187932 -56.973158)
        (xy 58.07599 -57.243411) (xy 57.989401 -57.373) (xy 59.156597 -57.373) (xy 58.909536 -57.125939) (xy 58.544561 -56.579715)
        (xy 58.293162 -55.972784) (xy 58.165 -55.328469) (xy 58.165 -54.671531) (xy 58.293162 -54.027216) (xy 58.544561 -53.420285)
        (xy 58.909536 -52.874061) (xy 59.374061 -52.409536) (xy 59.920285 -52.044561) (xy 60.527216 -51.793162) (xy 61.171531 -51.665)
        (xy 61.828469 -51.665) (xy 62.472784 -51.793162) (xy 62.873 -51.958937) (xy 62.873 -6.541063) (xy 62.472784 -6.706838)
        (xy 61.828469 -6.835) (xy 61.171531 -6.835) (xy 60.527216 -6.706838) (xy 59.920285 -6.455439) (xy 59.374061 -6.090464)
        (xy 58.909536 -5.625939) (xy 58.544561 -5.079715) (xy 58.293162 -4.472784) (xy 58.165 -3.828469) (xy 58.165 -3.171531)
        (xy 58.293162 -2.527216) (xy 58.544561 -1.920285) (xy 58.740528 -1.627) (xy 49.543998 -1.627) (xy 49.684774 -1.721063)
        (xy 49.828937 -1.865226) (xy 49.942205 -2.034744) (xy 50.020226 -2.223102) (xy 50.06 -2.423061) (xy 50.06 -2.626939)
        (xy 50.020226 -2.826898) (xy 49.942205 -3.015256) (xy 49.828937 -3.184774) (xy 49.684774 -3.328937) (xy 49.515256 -3.442205)
        (xy 49.326898 -3.520226) (xy 49.126939 -3.56) (xy 48.923061 -3.56) (xy 48.723102 -3.520226) (xy 48.534744 -3.442205)
        (xy 48.365226 -3.328937) (xy 48.221063 -3.184774) (xy 48.107795 -3.015256) (xy 48.029774 -2.826898) (xy 47.99 -2.626939)
        (xy 47.99 -2.423061) (xy 48.029774 -2.223102) (xy 48.107795 -2.034744) (xy 48.221063 -1.865226) (xy 48.365226 -1.721063)
        (xy 48.506002 -1.627) (xy 39.543998 -1.627) (xy 39.684774 -1.721063) (xy 39.828937 -1.865226) (xy 39.942205 -2.034744)
        (xy 40.020226 -2.223102) (xy 40.06 -2.423061) (xy 40.06 -2.626939) (xy 40.020226 -2.826898) (xy 39.942205 -3.015256)
        (xy 39.828937 -3.184774) (xy 39.684774 -3.328937) (xy 39.515256 -3.442205) (xy 39.326898 -3.520226) (xy 39.126939 -3.56)
        (xy 38.923061 -3.56) (xy 38.723102 -3.520226) (xy 38.534744 -3.442205) (xy 38.365226 -3.328937) (xy 38.221063 -3.184774)
        (xy 38.107795 -3.015256) (xy 38.029774 -2.826898) (xy 37.99 -2.626939) (xy 37.99 -2.423061) (xy 38.029774 -2.223102)
        (xy 38.107795 -2.034744) (xy 38.221063 -1.865226) (xy 38.365226 -1.721063) (xy 38.506002 -1.627) (xy 16.543998 -1.627)
        (xy 16.684774 -1.721063) (xy 16.828937 -1.865226) (xy 16.942205 -2.034744) (xy 17.020226 -2.223102) (xy 17.06 -2.423061)
        (xy 17.06 -2.626939) (xy 17.020226 -2.826898) (xy 16.942205 -3.015256) (xy 16.828937 -3.184774) (xy 16.684774 -3.328937)
        (xy 16.515256 -3.442205) (xy 16.326898 -3.520226) (xy 16.126939 -3.56) (xy 15.923061 -3.56) (xy 15.723102 -3.520226)
        (xy 15.534744 -3.442205) (xy 15.365226 -3.328937) (xy 15.221063 -3.184774) (xy 15.107795 -3.015256) (xy 15.029774 -2.826898)
        (xy 14.99 -2.626939) (xy 14.99 -2.423061) (xy 15.029774 -2.223102) (xy 15.107795 -2.034744) (xy 15.221063 -1.865226)
        (xy 15.365226 -1.721063) (xy 15.506002 -1.627) (xy 6.259472 -1.627) (xy 6.455439 -1.920285) (xy 6.706838 -2.527216)
        (xy 6.835 -3.171531) (xy 6.835 -3.828469) (xy 6.706838 -4.472784) (xy 6.455439 -5.079715) (xy 6.090464 -5.625939)
        (xy 5.625939 -6.090464) (xy 5.079715 -6.455439) (xy 4.472784 -6.706838) (xy 3.828469 -6.835) (xy 3.627 -6.835)
        (xy 3.627 -22.133456) (xy 4.145 -22.133456) (xy 4.145 -21.866544) (xy 4.197072 -21.604761) (xy 4.299215 -21.358167)
        (xy 4.447503 -21.136238) (xy 4.636238 -20.947503) (xy 4.858167 -20.799215) (xy 5.104761 -20.697072) (xy 5.366544 -20.645)
        (xy 5.633456 -20.645) (xy 5.895239 -20.697072) (xy 6.141833 -20.799215) (xy 6.363762 -20.947503) (xy 6.552497 -21.136238)
        (xy 6.700785 -21.358167) (xy 6.802928 -21.604761) (xy 6.855 -21.866544) (xy 6.855 -21.92632) (xy 9.220439 -21.92632)
        (xy 9.260937 -21.662499) (xy 9.352125 -21.411647) (xy 9.408632 -21.305932) (xy 9.64444 -21.244045) (xy 10.400395 -22)
        (xy 9.64444 -22.755955) (xy 9.408632 -22.694068) (xy 9.295734 -22.45221) (xy 9.232189 -22.192973) (xy 9.220439 -21.92632)
        (xy 6.855 -21.92632) (xy 6.855 -22.133456) (xy 6.802928 -22.395239) (xy 6.700785 -22.641833) (xy 6.552497 -22.863762)
        (xy 6.480699 -22.93556) (xy 9.824045 -22.93556) (xy 10.58 -22.179605) (xy 11.335955 -22.93556) (xy 11.274068 -23.171368)
        (xy 11.03221 -23.284266) (xy 10.772973 -23.347811) (xy 10.50632 -23.359561) (xy 10.242499 -23.319063) (xy 9.991647 -23.227875)
        (xy 9.885932 -23.171368) (xy 9.824045 -22.93556) (xy 6.480699 -22.93556) (xy 6.363762 -23.052497) (xy 6.141833 -23.200785)
        (xy 5.895239 -23.302928) (xy 5.633456 -23.355) (xy 5.366544 -23.355) (xy 5.104761 -23.302928) (xy 4.858167 -23.200785)
        (xy 4.636238 -23.052497) (xy 4.447503 -22.863762) (xy 4.299215 -22.641833) (xy 4.197072 -22.395239) (xy 4.145 -22.133456)
        (xy 3.627 -22.133456) (xy 3.627 -35.443586) (xy 3.696063 -35.340226) (xy 3.840226 -35.196063) (xy 4.009744 -35.082795)
        (xy 4.198102 -35.004774) (xy 4.398061 -34.965) (xy 4.601939 -34.965) (xy 4.801898 -35.004774) (xy 4.990256 -35.082795)
        (xy 5.159774 -35.196063) (xy 5.203711 -35.24) (xy 7.796289 -35.24) (xy 7.840226 -35.196063) (xy 8.009744 -35.082795)
        (xy 8.198102 -35.004774) (xy 8.398061 -34.965) (xy 8.601939 -34.965) (xy 8.801898 -35.004774) (xy 8.990256 -35.082795)
        (xy 9.159774 -35.196063) (xy 9.303937 -35.340226) (xy 9.417205 -35.509744) (xy 9.495226 -35.698102) (xy 9.535 -35.898061)
        (xy 9.535 -36.101939) (xy 9.495226 -36.301898) (xy 9.417205 -36.490256) (xy 9.303937 -36.659774) (xy 9.159774 -36.803937)
        (xy 8.990256 -36.917205) (xy 8.801898 -36.995226) (xy 8.601939 -37.035) (xy 8.398061 -37.035) (xy 8.198102 -36.995226)
        (xy 8.009744 -36.917205) (xy 7.840226 -36.803937) (xy 7.796289 -36.76) (xy 5.203711 -36.76) (xy 5.159774 -36.803937)
        (xy 4.990256 -36.917205) (xy 4.801898 -36.995226) (xy 4.601939 -37.035) (xy 4.398061 -37.035) (xy 4.198102 -36.995226)
        (xy 4.009744 -36.917205) (xy 3.840226 -36.803937) (xy 3.696063 -36.659774) (xy 3.627 -36.556414) (xy 3.627 -43.601939)
        (xy 3.965 -43.601939) (xy 3.965 -43.398061) (xy 4.004774 -43.198102) (xy 4.082795 -43.009744) (xy 4.196063 -42.840226)
        (xy 4.340226 -42.696063) (xy 4.509744 -42.582795) (xy 4.698102 -42.504774) (xy 4.898061 -42.465) (xy 5.101939 -42.465)
        (xy 5.301898 -42.504774) (xy 5.490256 -42.582795) (xy 5.659774 -42.696063) (xy 5.703711 -42.74) (xy 7.796289 -42.74)
        (xy 7.840226 -42.696063) (xy 8.009744 -42.582795) (xy 8.198102 -42.504774) (xy 8.398061 -42.465) (xy 8.601939 -42.465)
        (xy 8.801898 -42.504774) (xy 8.990256 -42.582795) (xy 9.159774 -42.696063) (xy 9.303937 -42.840226) (xy 9.417205 -43.009744)
        (xy 9.495226 -43.198102) (xy 9.535 -43.398061) (xy 9.535 -43.601939) (xy 9.495226 -43.801898) (xy 9.417205 -43.990256)
        (xy 9.303937 -44.159774) (xy 9.159774 -44.303937) (xy 8.990256 -44.417205) (xy 8.801898 -44.495226) (xy 8.601939 -44.535)
        (xy 8.398061 -44.535) (xy 8.198102 -44.495226) (xy 8.009744 -44.417205) (xy 7.840226 -44.303937) (xy 7.796289 -44.26)
        (xy 5.703711 -44.26) (xy 5.659774 -44.303937) (xy 5.490256 -44.417205) (xy 5.301898 -44.495226) (xy 5.101939 -44.535)
        (xy 4.898061 -44.535) (xy 4.698102 -44.495226) (xy 4.509744 -44.417205) (xy 4.340226 -44.303937) (xy 4.196063 -44.159774)
        (xy 4.082795 -43.990256) (xy 4.004774 -43.801898) (xy 3.965 -43.601939) (xy 3.627 -43.601939) (xy 3.627 -49.101939)
        (xy 17.965 -49.101939) (xy 17.965 -48.898061) (xy 18.004774 -48.698102) (xy 18.082795 -48.509744) (xy 18.196063 -48.340226)
        (xy 18.24 -48.296289) (xy 18.240001 -44.037332) (xy 18.236324 -44) (xy 18.250998 -43.851015) (xy 18.294454 -43.707754)
        (xy 18.365026 -43.575724) (xy 18.427172 -43.5) (xy 18.46 -43.459999) (xy 18.488998 -43.436201) (xy 20.965 -40.960198)
        (xy 20.965 -40.898061) (xy 21.004774 -40.698102) (xy 21.082795 -40.509744) (xy 21.196063 -40.340226) (xy 21.340226 -40.196063)
        (xy 21.509744 -40.082795) (xy 21.698102 -40.004774) (xy 21.898061 -39.965) (xy 22.101939 -39.965) (xy 22.301898 -40.004774)
        (xy 22.490256 -40.082795) (xy 22.659774 -40.196063) (xy 22.803937 -40.340226) (xy 22.917205 -40.509744) (xy 22.995226 -40.698102)
        (xy 23.035 -40.898061) (xy 23.035 -40.965) (xy 23.101939 -40.965) (xy 23.301898 -41.004774) (xy 23.490256 -41.082795)
        (xy 23.659774 -41.196063) (xy 23.803937 -41.340226) (xy 23.917205 -41.509744) (xy 23.995226 -41.698102) (xy 24.035 -41.898061)
        (xy 24.035 -42.101939) (xy 23.995226 -42.301898) (xy 23.917205 -42.490256) (xy 23.803937 -42.659774) (xy 23.659774 -42.803937)
        (xy 23.490256 -42.917205) (xy 23.301898 -42.995226) (xy 23.101939 -43.035) (xy 23.039802 -43.035) (xy 21.26 -44.814801)
        (xy 21.26 -46.65) (xy 21.511928 -46.65) (xy 21.524188 -46.525518) (xy 21.560498 -46.40582) (xy 21.619463 -46.295506)
        (xy 21.698815 -46.198815) (xy 21.795506 -46.119463) (xy 21.90582 -46.060498) (xy 22.025518 -46.024188) (xy 22.15 -46.011928)
        (xy 22.71425 -46.015) (xy 22.873 -46.17375) (xy 22.873 -47.373) (xy 21.67375 -47.373) (xy 21.515 -47.21425)
        (xy 21.511928 -46.65) (xy 21.26 -46.65) (xy 21.26 -48.296289) (xy 21.303937 -48.340226) (xy 21.310467 -48.35)
        (xy 21.511928 -48.35) (xy 21.515 -47.78575) (xy 21.67375 -47.627) (xy 22.873 -47.627) (xy 22.873 -48.82625)
        (xy 22.71425 -48.985) (xy 22.15 -48.988072) (xy 22.025518 -48.975812) (xy 21.90582 -48.939502) (xy 21.795506 -48.880537)
        (xy 21.698815 -48.801185) (xy 21.619463 -48.704494) (xy 21.560498 -48.59418) (xy 21.524188 -48.474482) (xy 21.511928 -48.35)
        (xy 21.310467 -48.35) (xy 21.417205 -48.509744) (xy 21.495226 -48.698102) (xy 21.535 -48.898061) (xy 21.535 -49.101939)
        (xy 21.495226 -49.301898) (xy 21.417205 -49.490256) (xy 21.303937 -49.659774) (xy 21.159774 -49.803937) (xy 20.990256 -49.917205)
        (xy 20.801898 -49.995226) (xy 20.601939 -50.035) (xy 20.398061 -50.035) (xy 20.198102 -49.995226) (xy 20.009744 -49.917205)
        (xy 19.840226 -49.803937) (xy 19.75 -49.713711) (xy 19.659774 -49.803937) (xy 19.490256 -49.917205) (xy 19.301898 -49.995226)
        (xy 19.101939 -50.035) (xy 18.898061 -50.035) (xy 18.698102 -49.995226) (xy 18.509744 -49.917205) (xy 18.340226 -49.803937)
        (xy 18.196063 -49.659774) (xy 18.082795 -49.490256) (xy 18.004774 -49.301898) (xy 17.965 -49.101939) (xy 3.627 -49.101939)
        (xy 3.627 -51.665) (xy 3.828469 -51.665) (xy 4.472784 -51.793162) (xy 5.079715 -52.044561) (xy 5.625939 -52.409536)
        (xy 6.090464 -52.874061) (xy 6.455439 -53.420285) (xy 6.706838 -54.027216) (xy 6.835 -54.671531) (xy 6.835 -55.328469)
        (xy 6.706838 -55.972784) (xy 6.455439 -56.579715) (xy 6.090464 -57.125939) (xy 5.843403 -57.373) (xy 7.270599 -57.373)
      )
    )
    (filled_polygon
      (pts
        (xy 31.487 -56.667) (xy 31.507 -56.667) (xy 31.507 -56.413) (xy 31.487 -56.413) (xy 31.487 -56.393)
        (xy 31.233 -56.393) (xy 31.233 -56.413) (xy 31.213 -56.413) (xy 31.213 -56.667) (xy 31.233 -56.667)
        (xy 31.233 -56.687) (xy 31.487 -56.687)
      )
    )
    (filled_polygon
      (pts
        (xy 23.867 -56.667) (xy 23.887 -56.667) (xy 23.887 -56.413) (xy 23.867 -56.413) (xy 23.867 -56.393)
        (xy 23.613 -56.393) (xy 23.613 -56.413) (xy 23.593 -56.413) (xy 23.593 -56.667) (xy 23.613 -56.667)
        (xy 23.613 -56.687) (xy 23.867 -56.687)
      )
    )
    (filled_polygon
      (pts
        (xy 13.707 -56.667) (xy 13.727 -56.667) (xy 13.727 -56.413) (xy 13.707 -56.413) (xy 13.707 -56.393)
        (xy 13.453 -56.393) (xy 13.453 -56.413) (xy 13.433 -56.413) (xy 13.433 -56.667) (xy 13.453 -56.667)
        (xy 13.453 -56.687) (xy 13.707 -56.687)
      )
    )
  )
)
